{
    "_id": "OekigjNLNp9XENjx",
    "data": {
        "attributes": {
            "ac": {
                "value": 19
            },
            "hardness": 15,
            "hasHealth": true,
            "hp": {
                "details": "; <b>Spout Hardness</b> 8, <b>SpoutHP</b> 32 (BT 16)",
                "max": 60,
                "temp": 0,
                "tempmax": 0,
                "value": 60
            },
            "stealth": {
                "details": "(trained); DC 22 (expert) to notice the water spouts once the pit opens",
                "value": 10
            }
        },
        "creatureType": "",
        "details": {
            "description": "A trapdoor covers a 10-foot-square pit that's 30 feet deep and has 5 feet of water at the bottom. Four water spouts in the walls connect to hidden water tanks. Each water spout extends out of a different wall, 6 inches from the top of the pit.",
            "disable": "Thievery DC 18 (trained) to seal each water spout, Thievery DC 22 (trained) to open the trapdoor, or Athletics DC 22 to Force Open the trapdoor",
            "isComplex": true,
            "level": {
                "value": 3
            },
            "reset": "The trap can be reset if the door is manually reengaged and the water tanks refilled; it can be reset without draining the pit, but doing so renders it less effective.",
            "routine": "(4 actions) The trap loses 1 action each turn for each disabled water spout. On each of the trap's actions, a spout pours water, increasing the depth of the water by 5 feet. Once the pit is full of water, the pit stops using actions, but creatures in the pit begin drowning."
        },
        "saves": {
            "fortitude": {
                "saveDetail": "",
                "value": 8
            },
            "reflex": {
                "saveDetail": "",
                "value": 5
            },
            "will": {
                "saveDetail": "",
                "value": 0
            }
        },
        "source": {
            "value": "Pathfinder Core Rulebook"
        },
        "statusEffects": [],
        "traits": {
            "ci": [],
            "di": {
                "custom": "",
                "selected": {},
                "value": [
                    "critical-hits",
                    "object-immunities",
                    "precision"
                ]
            },
            "dr": [],
            "dv": [],
            "rarity": {
                "value": "common"
            },
            "size": {
                "value": "med"
            },
            "traits": {
                "custom": "",
                "value": [
                    "mechanical"
                ]
            }
        }
    },
    "effects": [],
    "flags": {},
    "img": "systems/pf2e/icons/default-icons/hazard.svg",
    "items": [
        {
            "_id": "iji2yCS44gpqc5p3",
            "data": {
                "actionCategory": {
                    "value": ""
                },
                "actionType": {
                    "value": "reaction"
                },
                "actions": {
                    "value": null
                },
                "description": {
                    "value": "<p data-visibility=\"gm\"><strong>Trigger</strong> A creature walks onto the trapdoor.</p>\n<p><strong>Effect</strong> The triggering creature falls in and takes damage from the fall, reduced by 5 feet for falling into the water (typically 12 bludgeoning damage). A creature can Grab an Edge to avoid falling. The trapdoor then slams shut, and the hazard rolls initiative.</p>"
                },
                "requirements": {
                    "value": ""
                },
                "rules": [],
                "slug": null,
                "source": {
                    "value": ""
                },
                "traits": {
                    "custom": "",
                    "rarity": {
                        "value": "common"
                    },
                    "value": []
                },
                "trigger": {
                    "value": ""
                },
                "weapon": {
                    "value": ""
                }
            },
            "effects": [],
            "flags": {},
            "img": "systems/pf2e/icons/actions/Reaction.webp",
            "name": "Pitfall",
            "sort": 100000,
            "type": "action"
        }
    ],
    "name": "Drowning Pit",
    "token": {
        "disposition": 0,
        "height": 1,
        "img": "systems/pf2e/icons/default-icons/hazard.svg",
        "name": "Drowning Pit",
        "width": 1
    },
    "type": "hazard"
}
