{
    "_id": "mcL4WLO2yxBGlvuG",
    "data": {
        "boosts": {
            "0": {
                "value": [
                    "con",
                    "wis"
                ]
            },
            "1": {
                "value": [
                    "cha",
                    "con",
                    "dex",
                    "int",
                    "str",
                    "wis"
                ]
            }
        },
        "description": {
            "value": "<p>You built your house using wood from the trees surrounding it. Raised it up from the dirt and called it home. You thought that it would be where you would grow old and die. But despite your best efforts, you were wrong. The land that once gave you food fell fallow, and dust took to the air and choked the livestock. Now you wander the world as an adventurer. Are you in search of a new place to settle down and try again, or have you become disillusioned by your old dreams, leading you to seek out a new purpose?</p>\n<p>Choose two ability boosts. One must be to <strong>Constitution</strong> or <strong>Wisdom</strong>, and one is a free ability boost.</p>\n<p>You're trained in the Survival skill and the Farming Lore skill. You gain the @Compendium[pf2e.feats-srd.Forager]{Forager} skill feat.</p>"
        },
        "items": {
            "ev2l5": {
                "id": "8qebBeOJsyRIchcu",
                "img": "systems/pf2e/icons/features/feats/feats.webp",
                "level": 1,
                "name": "Forager",
                "pack": "pf2e.feats-srd"
            }
        },
        "rules": [],
        "source": {
            "value": ""
        },
        "trainedLore": "Farming",
        "trainedSkills": {
            "custom": "",
            "value": [
                "sur"
            ]
        },
        "traits": {
            "custom": "",
            "rarity": {
                "value": "common"
            },
            "value": []
        }
    },
    "effects": [],
    "flags": {},
    "img": "systems/pf2e/icons/default-icons/background.svg",
    "name": "Farmsteader",
    "type": "background"
}
