{
    "_id": "nowjVXddPXr6fMnR",
    "data": {
        "baseItem": null,
        "brokenThreshold": {
            "value": 0
        },
        "bulkCapacity": {
            "value": ""
        },
        "collapsed": {
            "value": false
        },
        "containerId": {
            "value": null
        },
        "description": {
            "value": "<p>This tattoo takes the shape of the face of a roaring polar bear with piercing, ice-blue eyes. You don't take damage from extreme cold or severe cold.</p>\n<hr />\n<p><strong>Activate</strong> <span class=\"pf2-icon\">2</span> command;</p>\n<p><strong>Frequency</strong> once per day;</p>\n<p><strong>Effect</strong> You call forth a blast of polar wind in a <span data-pf2-effect-area=\"burst\" data-pf2-distance=\"10\">10-foot burst</span> within a range of 30 feet that deals [[/r {7d6}[cold]]]{7d6 cold damage}. All creatures in the area must attempt a <span data-pf2-check=\"fortitude\" data-pf2-traits=\"uncommon,cold,evocation,invested,magical,tattoo\" data-pf2-label=\"Tattoo Polar Blast DC\" data-pf2-dc=\"27\" data-pf2-show-dc=\"all\">basic Fortitude</span> save.</p>"
        },
        "equipped": {
            "value": false
        },
        "equippedBulk": {
            "value": ""
        },
        "hardness": {
            "value": 0
        },
        "hp": {
            "value": 0
        },
        "identification": {
            "misidentified": {},
            "status": "identified",
            "unidentified": {
                "data": {
                    "description": {
                        "value": ""
                    }
                },
                "img": "",
                "name": ""
            }
        },
        "invested": {
            "value": null
        },
        "level": {
            "value": 10
        },
        "maxHp": {
            "value": 0
        },
        "negateBulk": {
            "value": "0"
        },
        "preciousMaterial": {
            "value": null
        },
        "preciousMaterialGrade": {
            "value": null
        },
        "price": {
            "value": "900 gp"
        },
        "quantity": {
            "value": 1
        },
        "rules": [],
        "size": {
            "value": "med"
        },
        "source": {
            "value": "Pathfinder Lost Omens: The Grand Bazaar"
        },
        "stackGroup": {
            "value": ""
        },
        "traits": {
            "custom": "",
            "rarity": {
                "value": "uncommon"
            },
            "value": [
                "cold",
                "evocation",
                "invested",
                "magical",
                "tattoo"
            ]
        },
        "usage": {
            "value": "tattooed-on-the-body"
        },
        "weight": {
            "value": "-"
        }
    },
    "effects": [],
    "flags": {},
    "img": "systems/pf2e/icons/default-icons/equipment.svg",
    "name": "Arctic Vigor",
    "type": "equipment"
}
