{
    "_id": "CDuN9kzyxBZ4cShq",
    "data": {
        "baseItem": null,
        "brokenThreshold": {
            "value": 0
        },
        "bulkCapacity": {
            "value": ""
        },
        "collapsed": {
            "value": false
        },
        "containerId": {
            "value": ""
        },
        "description": {
            "value": "<p>These gleaming golden epaulets are issued to Eagle Knight officers and worn as part of the uniform. While they can be enchanted to provide a variety of effects, the Golden Legion epaulet remains the most common.</p>\n<hr />\n<p><strong>Activate</strong> <span class=\"pf2-icon\">A</span> (Command)</p>\n<p><strong>Frequency</strong> once per day</p>\n<p><strong>Effect</strong> Issue an order as part of the command. You and each ally within 60 feet who follows that order gain a +1 status bonus to attack rolls, damage rolls, and saving throws against fear until the beginning of your next turn.</p>\n<p>@Compendium[pf2e.equipment-effects.Effect: Golden Legion Epaulet]{Effect: Golden Legion Epaulet}</p>"
        },
        "equipped": {
            "value": false
        },
        "equippedBulk": {
            "value": ""
        },
        "hardness": {
            "value": 0
        },
        "hp": {
            "value": 0
        },
        "identification": {
            "misidentified": {},
            "status": "identified",
            "unidentified": {
                "data": {
                    "description": {
                        "value": ""
                    }
                },
                "img": "",
                "name": ""
            }
        },
        "invested": {
            "value": false
        },
        "level": {
            "value": 3
        },
        "maxHp": {
            "value": 0
        },
        "negateBulk": {
            "value": ""
        },
        "preciousMaterial": {
            "value": ""
        },
        "preciousMaterialGrade": {
            "value": ""
        },
        "price": {
            "value": "55 gp"
        },
        "quantity": {
            "value": 1
        },
        "rules": [],
        "size": {
            "value": "med"
        },
        "source": {
            "value": "Pathfinder Lost Omens: World Guide"
        },
        "stackGroup": {
            "value": ""
        },
        "traits": {
            "custom": "",
            "rarity": {
                "value": "uncommon"
            },
            "value": [
                "enchantment",
                "invested",
                "magical"
            ]
        },
        "usage": {
            "value": "wornepaulet"
        },
        "weight": {
            "value": "L"
        }
    },
    "effects": [],
    "flags": {},
    "img": "systems/pf2e/icons/equipment/worn-items/other-worn-items/golden-legion-epaulet.webp",
    "name": "Golden Legion Epaulet",
    "type": "equipment"
}
