{
    "_id": "Hu9n7JNutzFarHe7",
    "data": {
        "baseItem": null,
        "brokenThreshold": {
            "value": 0
        },
        "bulkCapacity": {
            "value": ""
        },
        "collapsed": {
            "value": false
        },
        "containerId": {
            "value": null
        },
        "description": {
            "value": "<p>This pointy, brimmed hat made up of a rainbow patchwork of various materials seems to sit just a little lopsided on your head, no matter how you adjust it. You gain a +2 item bonus to checks to Earn Income.</p>\n<hr />\n<p><strong>Activate</strong> <span class=\"pf2-icon\">3</span> envision, Interact;</p>\n<p><strong>Frequency</strong> once per day;</p>\n<p><strong>Effect</strong> You tear off a patch of cloth to manifest it into a copy of yourself, dressed in the color and fabric of the patch. The copy follows your specific instructions and performs a single, straightforward task for up to 30 minutes. It takes the copy three times as long to complete the task as it would you, meaning it can perform a task that would take you a maximum of 10 minutes. It doesn't react quickly enough to be of any use during an encounter, and it can't use your spells or other special abilities-just basic actions and skill actions.</p>\n<p>The copy disappears and returns to the hat as a piece of cloth when the given task has been completed, or when you Dismiss the activation.</p>"
        },
        "equipped": {
            "value": false
        },
        "equippedBulk": {
            "value": ""
        },
        "hardness": {
            "value": 0
        },
        "hp": {
            "value": 0
        },
        "identification": {
            "misidentified": {},
            "status": "identified",
            "unidentified": {
                "data": {
                    "description": {
                        "value": ""
                    }
                },
                "img": "",
                "name": ""
            }
        },
        "invested": {
            "value": null
        },
        "level": {
            "value": 12
        },
        "maxHp": {
            "value": 0
        },
        "negateBulk": {
            "value": "0"
        },
        "preciousMaterial": {
            "value": null
        },
        "preciousMaterialGrade": {
            "value": null
        },
        "price": {
            "value": "1800 gp"
        },
        "quantity": {
            "value": 1
        },
        "rules": [
            {
                "key": "FlatModifier",
                "predicate": {
                    "all": [
                        "action:earn-income"
                    ]
                },
                "selector": "skill-check",
                "type": "item",
                "value": 2
            }
        ],
        "size": {
            "value": "med"
        },
        "source": {
            "value": "Pathfinder Secrets of Magic"
        },
        "stackGroup": {
            "value": ""
        },
        "traits": {
            "custom": "",
            "rarity": {
                "value": "common"
            },
            "value": [
                "conjuration",
                "magical"
            ]
        },
        "usage": {
            "value": "wornheadwear"
        },
        "weight": {
            "value": "L"
        }
    },
    "effects": [],
    "flags": {},
    "img": "systems/pf2e/icons/default-icons/equipment.svg",
    "name": "Hat of Many Minds",
    "type": "equipment"
}
