{
    "_id": "2QZbG6FUr2AWK6km",
    "data": {
        "baseItem": null,
        "brokenThreshold": {
            "value": 0
        },
        "bulkCapacity": {
            "value": ""
        },
        "collapsed": {
            "value": false
        },
        "containerId": {
            "value": null
        },
        "description": {
            "value": "<p>The flat iron bar of an <em>immovable rod</em> has been worked into the core frame of this prosthetic arm, a small button discreetly placed at the heel of the hand.</p>\n<hr />\n<p><strong>Activate</strong> <span class=\"pf2-icon\">1</span> Interact;</p>\n<p><strong>Effect</strong> You curl your fingers inward to press the button on the heel of your hand, anchoring your prosthetic arm in place. Your arm no longer moves, defying gravity if necessary. You can still move the fingers of this hand and your elbow, shoulder, and rest of your body while the magic is in effect, but you can't move your wrist. If you press the button again, the rod inside your arm is deactivated, ending the magic that anchors it in place. While anchored, the arm can be moved only if 8,000 pounds of pressure is placed upon it or if a creature succeeds at a <span data-pf2-check=\"athletics\" data-pf2-traits=\"magical,transmutation\" data-pf2-label=\"Immovable Arm Athletics DC\" data-pf2-dc=\"40\" data-pf2-show-dc=\"gm\">Athletics</span> check to @Compendium[pf2e.actionspf2e.Force Open]{Force Open} your arm. A creature can notice the button hidden in the hand of the prosthesis with a successful <span data-pf2-check=\"perception\" data-pf2-traits=\"magical,transmutation\" data-pf2-label=\"Immovable Arm Seek DC\" data-pf2-dc=\"25\" data-pf2-show-dc=\"gm\">Perception</span> check to @Compendium[pf2e.actionspf2e.Seek]{Seek}.</p>"
        },
        "equipped": {
            "value": false
        },
        "equippedBulk": {
            "value": ""
        },
        "hardness": {
            "value": 0
        },
        "hp": {
            "value": 0
        },
        "identification": {
            "misidentified": {},
            "status": "identified",
            "unidentified": {
                "data": {
                    "description": {
                        "value": ""
                    }
                },
                "img": "",
                "name": ""
            }
        },
        "invested": {
            "value": null
        },
        "level": {
            "value": 9
        },
        "maxHp": {
            "value": 0
        },
        "negateBulk": {
            "value": "0"
        },
        "preciousMaterial": {
            "value": null
        },
        "preciousMaterialGrade": {
            "value": null
        },
        "price": {
            "value": "700 gp"
        },
        "quantity": {
            "value": 1
        },
        "rules": [],
        "size": {
            "value": "med"
        },
        "source": {
            "value": "Pathfinder Lost Omens: The Grand Bazaar"
        },
        "stackGroup": {
            "value": ""
        },
        "traits": {
            "custom": "",
            "rarity": {
                "value": "common"
            },
            "value": []
        },
        "usage": {
            "value": "worn"
        },
        "weight": {
            "value": "1"
        }
    },
    "effects": [],
    "flags": {},
    "img": "systems/pf2e/icons/default-icons/equipment.svg",
    "name": "Immovable Arm",
    "type": "equipment"
}
