{
    "_id": "1uwONfUHwHjRJp6o",
    "data": {
        "baseItem": null,
        "brokenThreshold": {
            "value": 0
        },
        "bulkCapacity": {
            "value": ""
        },
        "collapsed": {
            "value": false
        },
        "containerId": {
            "value": null
        },
        "description": {
            "value": "<p>A puzzle box features moving parts, locking mechanisms, and other components designed to confound the user. Solving a puzzle box typically requires three successful DC 25 Games Lore or <span data-pf2-check=\"thievery\" data-pf2-label=\"Puzzle Box DC\" data-pf2-dc=\"25\" data-pf2-show-dc=\"gm\">Thievery</span> checks to Open a Lock, though puzzle boxes come in countless configurations and themes, and the GM can determine which skills are appropriate.</p>\n<hr />\n<p>A hollow puzzle box is designed to have an empty compartment in its center, allowing you to hide an object inside of the box. Only someone that solves the puzzle box can access the item within. A hollow puzzle box can hold an item of negligible Bulk no larger than 1 inch in diameter. Any puzzle box can be made into a hollow puzzle box. Doing so doubles the puzzle box's price.</p>"
        },
        "equipped": {
            "value": false
        },
        "equippedBulk": {
            "value": ""
        },
        "hardness": {
            "value": 0
        },
        "hp": {
            "value": 0
        },
        "identification": {
            "misidentified": {},
            "status": "identified",
            "unidentified": {
                "data": {
                    "description": {
                        "value": ""
                    }
                },
                "img": "",
                "name": ""
            }
        },
        "invested": {
            "value": null
        },
        "level": {
            "value": 3
        },
        "maxHp": {
            "value": 0
        },
        "negateBulk": {
            "value": "0"
        },
        "preciousMaterial": {
            "value": null
        },
        "preciousMaterialGrade": {
            "value": null
        },
        "price": {
            "value": "20 gp"
        },
        "quantity": {
            "value": 1
        },
        "rules": [],
        "size": {
            "value": "med"
        },
        "source": {
            "value": "Pathfinder Lost Omens: The Grand Bazaar"
        },
        "stackGroup": {
            "value": ""
        },
        "traits": {
            "custom": "",
            "rarity": {
                "value": "common"
            },
            "value": []
        },
        "usage": {
            "value": "held-in-one-hand"
        },
        "weight": {
            "value": "L"
        }
    },
    "effects": [],
    "flags": {},
    "img": "systems/pf2e/icons/default-icons/equipment.svg",
    "name": "Puzzle Box (Challenging) (Hollow)",
    "type": "equipment"
}
