{
    "_id": "aPD0z9dBsHqgiCW0",
    "data": {
        "armor": {
            "value": 1
        },
        "armorType": {
            "value": "shield"
        },
        "baseItem": null,
        "brokenThreshold": {
            "value": 60
        },
        "bulkCapacity": {
            "value": ""
        },
        "check": {
            "value": 0
        },
        "collapsed": {
            "value": false
        },
        "containerId": {
            "value": ""
        },
        "description": {
            "value": "<p>This steel shield contains a smoldering core of magma that never cools. Whenever the reforging shield's current Hit Points are below its Break Threshold, the shield recovers 5 Hit Points at the start of its wielder's turn each round until it is no longer broken. Each time a character Repairs the shield, the shield recovers double the number of Hit Points. The shield has Hardness 15, HP 120, and BT 60.</p>"
        },
        "dex": {
            "value": 0
        },
        "equipped": {
            "value": false
        },
        "equippedBulk": {
            "value": ""
        },
        "group": {
            "value": ""
        },
        "hardness": {
            "value": 15
        },
        "hp": {
            "value": 120
        },
        "identification": {
            "misidentified": {},
            "status": "identified",
            "unidentified": {
                "data": {
                    "description": {
                        "value": ""
                    }
                },
                "img": "",
                "name": ""
            }
        },
        "invested": {
            "value": false
        },
        "level": {
            "value": 15
        },
        "maxHp": {
            "value": 120
        },
        "negateBulk": {
            "value": "0"
        },
        "potencyRune": {
            "value": 0
        },
        "preciousMaterial": {
            "value": ""
        },
        "preciousMaterialGrade": {
            "value": ""
        },
        "price": {
            "value": "6,000 gp"
        },
        "propertyRune1": {
            "value": ""
        },
        "propertyRune2": {
            "value": ""
        },
        "propertyRune3": {
            "value": ""
        },
        "propertyRune4": {
            "value": ""
        },
        "quantity": {
            "value": 1
        },
        "resiliencyRune": {
            "value": ""
        },
        "rules": [],
        "size": {
            "value": "med"
        },
        "source": {
            "value": "Pathfinder #148: Fires of the Haunted City"
        },
        "speed": {
            "value": 0
        },
        "stackGroup": {
            "value": ""
        },
        "strength": {
            "value": 0
        },
        "traits": {
            "custom": "",
            "rarity": {
                "value": "rare"
            },
            "value": [
                "abjuration",
                "magical"
            ]
        },
        "usage": {
            "value": "held-in-one-hand"
        },
        "weight": {
            "value": "1"
        }
    },
    "effects": [],
    "flags": {},
    "img": "systems/pf2e/icons/equipment/shields/specific-shields/reforging-shield.webp",
    "name": "Reforging Shield",
    "type": "armor"
}
