{
    "_id": "8y3c9suf90ww60gU",
    "data": {
        "baseItem": null,
        "brokenThreshold": {
            "value": 0
        },
        "bulkCapacity": {
            "value": ""
        },
        "collapsed": {
            "value": false
        },
        "containerId": {
            "value": null
        },
        "description": {
            "value": "<p>This prosthetic arm is imbued with transmutation magic that can transform it into a weapon.</p>\n<hr />\n<p><strong>Activate</strong> <span class=\"pf2-icon\">3</span> command, Interact;</p>\n<p><strong>Requirements</strong> You are holding a one-handed weapon;</p>\n<p><strong>Effect</strong> The prosthesis engulfs the weapon and absorbs it entirely. The weapon is unavailable until you use this Activation to release it from the prosthesis. The prosthesis can hold up to two items at a time.</p>\n<hr />\n<p><strong>Activate</strong> <span class=\"pf2-icon\">F</span> envision;</p>\n<p><strong>Frequency</strong> once per minute;</p>\n<p><strong>Effect</strong> The prosthesis reshapes into the form of a weapon it has absorbed. The prosthesis has all of the statistics of the weapon, including the effects of any etched runes. The prosthesis remains in this weapon's form until you use this Activation again to revert it back to a prosthesis.</p>"
        },
        "equipped": {
            "value": false
        },
        "equippedBulk": {
            "value": ""
        },
        "hardness": {
            "value": 0
        },
        "hp": {
            "value": 0
        },
        "identification": {
            "misidentified": {},
            "status": "identified",
            "unidentified": {
                "data": {
                    "description": {
                        "value": ""
                    }
                },
                "img": "",
                "name": ""
            }
        },
        "invested": {
            "value": null
        },
        "level": {
            "value": 6
        },
        "maxHp": {
            "value": 0
        },
        "negateBulk": {
            "value": "0"
        },
        "preciousMaterial": {
            "value": null
        },
        "preciousMaterialGrade": {
            "value": null
        },
        "price": {
            "value": "210 gp"
        },
        "quantity": {
            "value": 1
        },
        "rules": [],
        "size": {
            "value": "med"
        },
        "source": {
            "value": "Pathfinder Lost Omens: The Grand Bazaar"
        },
        "stackGroup": {
            "value": ""
        },
        "traits": {
            "custom": "",
            "rarity": {
                "value": "common"
            },
            "value": []
        },
        "usage": {
            "value": "worn"
        },
        "weight": {
            "value": "1"
        }
    },
    "effects": [],
    "flags": {},
    "img": "systems/pf2e/icons/default-icons/equipment.svg",
    "name": "Shifter Prosthesis",
    "type": "equipment"
}
