{
    "_id": "NldgVUIHB3asozHm",
    "data": {
        "abilities": {
            "cha": {
                "mod": 9
            },
            "con": {
                "mod": 0
            },
            "dex": {
                "mod": 9
            },
            "int": {
                "mod": 7
            },
            "str": {
                "mod": -5
            },
            "wis": {
                "mod": 7
            }
        },
        "attributes": {
            "ac": {
                "details": "",
                "value": 39
            },
            "allSaves": {
                "value": null
            },
            "hp": {
                "details": "negative healing",
                "max": 280,
                "temp": 0,
                "value": 280
            },
            "initiative": {
                "ability": "perception"
            },
            "perception": {
                "value": 29
            },
            "shield": {
                "ac": 2,
                "brokenThreshold": 0,
                "hardness": 0,
                "max": 0,
                "value": 0
            },
            "speed": {
                "otherSpeeds": [
                    {
                        "exceptions": "",
                        "label": "Fly",
                        "type": "fly",
                        "value": "80"
                    }
                ],
                "value": "50"
            }
        },
        "details": {
            "alignment": {
                "value": "CE"
            },
            "blurb": "",
            "creatureType": "",
            "level": {
                "value": 17
            },
            "privateNotes": "",
            "publicNotes": "<p>Wyrmwraiths rise from the souls of dragons who refuse to accept death or have an irrational fear of the afterlife.</p>\n<hr />\n<p>Though they refused to accept death, wyrmwraiths nonetheless despise their new undead condition. Indeed, lacking in all motivation to collect treasure, a wyrmwraith instead fixates on their hatred of all living things (especially dragons)&nbsp;and their own self-loathing. A wyrmwraith blights the land with their very presence, spreading slowly until their lair becomes a lifeless wasteland haunted by other undead.</p>",
            "source": {
                "value": "Pathfinder Bestiary 3"
            }
        },
        "resources": {
            "focus": {
                "max": 1,
                "value": 1
            }
        },
        "saves": {
            "fortitude": {
                "saveDetail": "",
                "value": 29
            },
            "reflex": {
                "saveDetail": "",
                "value": 32
            },
            "will": {
                "saveDetail": "",
                "value": 32
            }
        },
        "traits": {
            "attitude": {
                "value": "hostile"
            },
            "ci": [],
            "di": {
                "custom": "",
                "value": [
                    "death-effects",
                    "disease",
                    "paralyzed",
                    "poison",
                    "precision",
                    "unconscious"
                ]
            },
            "dr": [
                {
                    "exceptions": "except force, ghost touch, or positive; double resistance vs. non-magical",
                    "label": "All",
                    "type": "all",
                    "value": "20"
                }
            ],
            "dv": [],
            "languages": {
                "custom": "",
                "selected": [],
                "value": [
                    "common",
                    "draconic",
                    "necril"
                ]
            },
            "rarity": {
                "value": "rare"
            },
            "senses": {
                "value": "darkvision, lifesense 120 feet"
            },
            "size": {
                "value": "grg"
            },
            "traits": {
                "custom": "",
                "value": [
                    "dragon",
                    "incorporeal",
                    "undead",
                    "wraith"
                ]
            }
        }
    },
    "effects": [],
    "flags": {},
    "img": "systems/pf2e/icons/default-icons/npc.svg",
    "items": [
        {
            "_id": "6B3uI6YS1QdKdle7",
            "data": {
                "ability": {
                    "value": ""
                },
                "autoHeightenLevel": {
                    "value": null
                },
                "description": {
                    "value": ""
                },
                "displayLevels": {},
                "item": {
                    "value": 0
                },
                "prepared": {
                    "value": "innate"
                },
                "proficiency": {
                    "value": 0
                },
                "rules": [],
                "showSlotlessLevels": {
                    "value": true
                },
                "showUnpreparedSpells": {
                    "value": false
                },
                "signatureSpells": {
                    "value": []
                },
                "slots": {
                    "slot0": {
                        "max": 0,
                        "prepared": {},
                        "value": 0
                    },
                    "slot1": {
                        "max": 0,
                        "prepared": {},
                        "value": 0
                    },
                    "slot10": {
                        "max": 0,
                        "prepared": {},
                        "value": 0
                    },
                    "slot11": {
                        "max": 0,
                        "prepared": {},
                        "value": 0
                    },
                    "slot2": {
                        "max": 0,
                        "prepared": {},
                        "value": 0
                    },
                    "slot3": {
                        "max": 1,
                        "prepared": {},
                        "value": 1
                    },
                    "slot4": {
                        "max": 4,
                        "prepared": {
                            "1": {
                                "id": "qCi4JQ3SAi9IyZD8"
                            }
                        },
                        "value": 4
                    },
                    "slot5": {
                        "max": 0,
                        "prepared": {},
                        "value": 0
                    },
                    "slot6": {
                        "max": 1,
                        "prepared": {
                            "0": {
                                "id": "xMKvsSAGnIvhQt9D"
                            }
                        },
                        "value": 1
                    },
                    "slot7": {
                        "max": 4,
                        "prepared": {
                            "0": {
                                "id": "uzwtNXwKS284zb6R"
                            },
                            "1": {
                                "id": "uzwtNXwKS284zb6R"
                            },
                            "2": {
                                "id": "uzwtNXwKS284zb6R"
                            },
                            "3": {
                                "id": "3PI9Znvm6CCxjwMm"
                            }
                        },
                        "value": 4
                    },
                    "slot8": {
                        "max": 1,
                        "prepared": {},
                        "value": 1
                    },
                    "slot9": {
                        "max": 0,
                        "prepared": {},
                        "value": 0
                    }
                },
                "slug": null,
                "source": {
                    "value": ""
                },
                "spelldc": {
                    "dc": 35,
                    "item": 0,
                    "mod": 0,
                    "value": 25
                },
                "tradition": {
                    "value": "divine"
                },
                "traits": {
                    "custom": "",
                    "rarity": {
                        "value": "common"
                    },
                    "value": []
                }
            },
            "effects": [],
            "flags": {},
            "img": "systems/pf2e/icons/default-icons/spellcastingEntry.svg",
            "name": "Divine Innate Spells",
            "sort": 100000,
            "type": "spellcastingEntry"
        },
        {
            "_id": "JC5gBM4hyqvYPLw3",
            "data": {
                "ability": {
                    "value": ""
                },
                "autoHeightenLevel": {
                    "value": null
                },
                "description": {
                    "value": ""
                },
                "displayLevels": {},
                "item": {
                    "value": 0
                },
                "prepared": {
                    "value": "ritual"
                },
                "proficiency": {
                    "value": 0
                },
                "rules": [],
                "showSlotlessLevels": {
                    "value": true
                },
                "showUnpreparedSpells": {
                    "value": true
                },
                "signatureSpells": {
                    "value": []
                },
                "slots": {
                    "slot0": {
                        "max": 0,
                        "prepared": [],
                        "value": 0
                    },
                    "slot1": {
                        "max": 0,
                        "prepared": [],
                        "value": 0
                    },
                    "slot10": {
                        "max": 0,
                        "prepared": [],
                        "value": 0
                    },
                    "slot11": {
                        "max": 0,
                        "prepared": [],
                        "value": 0
                    },
                    "slot2": {
                        "max": 0,
                        "prepared": [],
                        "value": 0
                    },
                    "slot3": {
                        "max": 0,
                        "prepared": [],
                        "value": 0
                    },
                    "slot4": {
                        "max": 0,
                        "prepared": [],
                        "value": 0
                    },
                    "slot5": {
                        "max": 0,
                        "prepared": [],
                        "value": 0
                    },
                    "slot6": {
                        "max": 0,
                        "prepared": [],
                        "value": 0
                    },
                    "slot7": {
                        "max": 0,
                        "prepared": [],
                        "value": 0
                    },
                    "slot8": {
                        "max": 0,
                        "prepared": [],
                        "value": 0
                    },
                    "slot9": {
                        "max": 0,
                        "prepared": [],
                        "value": 0
                    }
                },
                "slug": null,
                "source": {
                    "value": ""
                },
                "spelldc": {
                    "dc": 35,
                    "item": 0,
                    "mod": 0,
                    "value": 25
                },
                "tradition": {
                    "value": ""
                },
                "traits": {
                    "custom": "",
                    "rarity": {
                        "value": "common"
                    },
                    "value": []
                }
            },
            "effects": [],
            "flags": {},
            "img": "systems/pf2e/icons/default-icons/spellcastingEntry.svg",
            "name": "Rituals",
            "sort": 200000,
            "type": "spellcastingEntry"
        },
        {
            "_id": "DcTFFmn94B8jbefZ",
            "data": {
                "ability": {
                    "value": ""
                },
                "area": {
                    "areaType": "",
                    "value": null
                },
                "areasize": {
                    "value": ""
                },
                "autoHeightenLevel": {
                    "value": null
                },
                "category": {
                    "value": "spell"
                },
                "components": {
                    "focus": false,
                    "material": false,
                    "somatic": true,
                    "verbal": true
                },
                "cost": {
                    "value": ""
                },
                "damage": {
                    "value": {}
                },
                "description": {
                    "value": "<p>To the target, your words are honey and your visage seems bathed in a dreamy haze. It must attempt a Will save, with a +4 circumstance bonus if you or your allies recently threatened it or used hostile actions against it.</p>\n<p>You can Dismiss the spell. If you use hostile actions against the target, the spell ends. When the spell ends, the target doesn't necessarily realize it was charmed unless its friendship with you or the actions you convinced it to take clash with its expectations, meaning you could potentially convince the target to continue being your friend via mundane means.</p>\n<hr />\n<p><strong>Critical Success</strong> The target is unaffected and aware you tried to charm it.</p>\n<p><strong>Success</strong> The target is unaffected but thinks your spell was something harmless instead of charm, unless it identifies the spell.</p>\n<p><strong>Failure</strong> The target's attitude becomes @Compendium[pf2e.conditionitems.Friendly]{Friendly} toward you. If it was Friendly, it becomes @Compendium[pf2e.conditionitems.Helpful]{Helpful}. It can't use hostile actions against you.</p>\n<p><strong>Critical Failure</strong> The target's attitude becomes Helpful toward you, and it can't use hostile actions against you.</p>\n<hr />\n<p><strong>Heightened (4th)</strong> The duration lasts until the next time you make your daily preparations.</p>\n<p><strong>Heightened (8th)</strong> The duration lasts until the next time you make your daily preparations, and you can target up to 10 creatures.</p>"
                },
                "duration": {
                    "value": "1 hour"
                },
                "hasCounteractCheck": {
                    "value": false
                },
                "level": {
                    "value": 8
                },
                "location": {
                    "value": "6B3uI6YS1QdKdle7"
                },
                "materials": {
                    "value": ""
                },
                "prepared": {
                    "value": ""
                },
                "primarycheck": {
                    "value": ""
                },
                "range": {
                    "value": "30 feet"
                },
                "rules": [],
                "save": {
                    "basic": "",
                    "value": "will"
                },
                "school": {
                    "value": "enchantment"
                },
                "secondarycasters": {
                    "value": ""
                },
                "secondarycheck": {
                    "value": ""
                },
                "slug": "charm",
                "source": {
                    "value": ""
                },
                "spellType": {
                    "value": "save"
                },
                "sustained": {
                    "value": false
                },
                "target": {
                    "value": "1 undead creature"
                },
                "time": {
                    "value": "2"
                },
                "traditions": {
                    "value": [
                        "arcane",
                        "occult",
                        "primal"
                    ]
                },
                "traits": {
                    "custom": "",
                    "rarity": {
                        "value": "common"
                    },
                    "value": [
                        "emotion",
                        "incapacitation",
                        "mental"
                    ]
                }
            },
            "effects": [],
            "flags": {
                "core": {
                    "sourceId": "Compendium.pf2e.spells-srd.vLA0q0WOK2YPuJs6"
                }
            },
            "img": "systems/pf2e/icons/spells/charm.webp",
            "name": "Charm (Undead Only)",
            "sort": 300000,
            "type": "spell"
        },
        {
            "_id": "i3AkUdnEHCQal334",
            "data": {
                "ability": {
                    "value": ""
                },
                "area": {
                    "areaType": "",
                    "value": null
                },
                "areasize": {
                    "value": ""
                },
                "autoHeightenLevel": {
                    "value": null
                },
                "category": {
                    "value": "ritual"
                },
                "components": {
                    "focus": false,
                    "material": false,
                    "somatic": false,
                    "verbal": false
                },
                "cost": {
                    "value": "black onyx, see Table 7-1"
                },
                "damage": {
                    "value": {}
                },
                "description": {
                    "value": "<p>You transform the target into an undead creature with a level up to that allowed in Table 7-1. There are many versions of this ritual, each specific to a particular type of undead (one ritual for all zombies, one for skeletons, one for ghouls, and so on), and the rituals that create rare undead are also rare. Some forms of undead, such as liches, form using their own unique methods and can't be created with a version of <em>create undead</em>.</p>\n<h2>Table 7-1: Creatures Creation Rituals</h2>\n<table class=\"pf2-table\">\n<thead>\n<tr>\n<th>Creature Level</th>\n<th>Spell Level Required</th>\n<th>Cost</th>\n</tr>\n</thead>\n<tbody>\n<tr>\n<td>-1 or 0</td>\n<td>2</td>\n<td>15 gp</td>\n</tr>\n<tr>\n<td>1</td>\n<td>2</td>\n<td>60 gp</td>\n</tr>\n<tr>\n<td>2</td>\n<td>3</td>\n<td>105 gp</td>\n</tr>\n<tr>\n<td>3</td>\n<td>3</td>\n<td>180 gp</td>\n</tr>\n<tr>\n<td>4</td>\n<td>4</td>\n<td>300 gp</td>\n</tr>\n<tr>\n<td>5</td>\n<td>4</td>\n<td>480 gp</td>\n</tr>\n<tr>\n<td>6</td>\n<td>5</td>\n<td>750 gp</td>\n</tr>\n<tr>\n<td>7</td>\n<td>5</td>\n<td>1,080 gp</td>\n</tr>\n<tr>\n<td>8</td>\n<td>6</td>\n<td>1,500 gp</td>\n</tr>\n<tr>\n<td>9</td>\n<td>6</td>\n<td>2,100 gp</td>\n</tr>\n<tr>\n<td>10</td>\n<td>7</td>\n<td>3,000 gp</td>\n</tr>\n<tr>\n<td>11</td>\n<td>7</td>\n<td>4,200 gp</td>\n</tr>\n<tr>\n<td>12</td>\n<td>8</td>\n<td>6,000 gp</td>\n</tr>\n<tr>\n<td>13</td>\n<td>8</td>\n<td>9,000 gp</td>\n</tr>\n<tr>\n<td>14</td>\n<td>9</td>\n<td>13,500 gp</td>\n</tr>\n<tr>\n<td>15</td>\n<td>9</td>\n<td>19,500 gp</td>\n</tr>\n<tr>\n<td>16</td>\n<td>10</td>\n<td>30,000 gp</td>\n</tr>\n<tr>\n<td>17</td>\n<td>10</td>\n<td>45,000 gp</td>\n</tr>\n</tbody>\n</table>\n<p><strong>Critical Success</strong> The target becomes an undead creature of the appropriate type. If it's at least 4 levels lower than you, you can make it a minion. This gives it the minion trait, meaning it can use 2 actions when you command it, and commanding it is a single action that has the auditory and concentrate traits. You can have a maximum of four minions under your control. If it's intelligent and doesn't become a minion, the undead is helpful to you for awakening it, though it's still a horrid and evil creature. If it's unintelligent and doesn't become a minion, you can give it one simple command. It pursues that goal single-mindedly, ignoring any of your subsequent commands.</p>\n<p><strong>Success</strong> As critical success, except an intelligent undead that doesn't become your minion is only friendly to you, and an unintelligent undead that doesn't become your minion leaves you alone unless you attack it. It marauds the local area rather than following your command.</p>\n<p><strong>Failure</strong> You fail to create the undead.</p>\n<p><strong>Critical Failure</strong> You create the undead, but its soul, tortured by your foul necromancy, is full of nothing but hatred for you. It attempts to destroy you.</p>"
                },
                "duration": {
                    "value": ""
                },
                "hasCounteractCheck": {
                    "value": false
                },
                "level": {
                    "value": 8
                },
                "location": {
                    "value": "JC5gBM4hyqvYPLw3"
                },
                "materials": {
                    "value": ""
                },
                "prepared": {
                    "value": ""
                },
                "primarycheck": {
                    "value": "Arcana (expert), Occultism (expert), or Religion (expert)"
                },
                "range": {
                    "value": "10 feet"
                },
                "rules": [],
                "save": {
                    "basic": "",
                    "value": ""
                },
                "school": {
                    "value": "necromancy"
                },
                "secondarycasters": {
                    "value": "1"
                },
                "secondarycheck": {
                    "value": "Religion"
                },
                "slug": "create-undead",
                "source": {
                    "value": ""
                },
                "spellType": {
                    "value": "utility"
                },
                "sustained": {
                    "value": false
                },
                "target": {
                    "value": "1 dead creature"
                },
                "time": {
                    "value": "1 day"
                },
                "traditions": {
                    "custom": "",
                    "value": []
                },
                "traits": {
                    "custom": "",
                    "rarity": {
                        "value": "uncommon"
                    },
                    "value": [
                        "evil"
                    ]
                }
            },
            "effects": [],
            "flags": {
                "core": {
                    "sourceId": "Compendium.pf2e.spells-srd.c3b6LdLlQDPngNIb"
                }
            },
            "img": "systems/pf2e/icons/spells/create-undead.webp",
            "name": "Create Undead",
            "sort": 400000,
            "type": "spell"
        },
        {
            "_id": "uzwtNXwKS284zb6R",
            "data": {
                "ability": {
                    "value": ""
                },
                "area": {
                    "areaType": "",
                    "value": null
                },
                "areasize": {
                    "value": "20-foot burst"
                },
                "autoHeightenLevel": {
                    "value": null
                },
                "category": {
                    "value": "spell"
                },
                "components": {
                    "focus": false,
                    "material": false,
                    "somatic": true,
                    "verbal": true
                },
                "cost": {
                    "value": ""
                },
                "damage": {
                    "value": {
                        "0": {
                            "type": {
                                "categories": [],
                                "value": "untyped"
                            },
                            "value": "7d10"
                        }
                    }
                },
                "description": {
                    "value": "<p>You can channel the fury of your deity against foes of opposed alignment. Choose an alignment your deity has (chaotic, evil, good, or lawful). You can't cast this spell if you don't have a deity or your deity is true neutral. This spell gains the trait of the alignment you chose. You deal 7d10 damage of the alignment you chose; each creature in the area must attempt a Fortitude save. Creatures that match the alignment you chose are unaffected. Those that neither match nor oppose it treat the result of their saving throw as one degree better.</p>\n<hr />\n<p><strong>Critical Success</strong> The creature is unaffected.</p>\n<p><strong>Success</strong> The creature takes half damage.</p>\n<p><strong>Failure</strong> The creature takes full damage and is @Compendium[pf2e.conditionitems.Sickened]{Sickened 1}.</p>\n<p><strong>Critical Failure</strong> The creature takes full damage and is @Compendium[pf2e.conditionitems.Sickened]{Sickened 2}; while it is sickened, it is also @Compendium[pf2e.conditionitems.Slowed]{Slowed 1}.</p>\n<hr />\n<p><strong>Heightened (+1)</strong> The damage increases by 1d10.</p>"
                },
                "duration": {
                    "value": ""
                },
                "hasCounteractCheck": {
                    "value": false
                },
                "level": {
                    "value": 7
                },
                "location": {
                    "value": "6B3uI6YS1QdKdle7"
                },
                "materials": {
                    "value": ""
                },
                "prepared": {
                    "value": ""
                },
                "primarycheck": {
                    "value": ""
                },
                "range": {
                    "value": "120 feet"
                },
                "rules": [],
                "save": {
                    "basic": "",
                    "value": "fortitude"
                },
                "scaling": {
                    "damage": {
                        "0": "1d10"
                    },
                    "interval": 1
                },
                "school": {
                    "value": "evocation"
                },
                "secondarycasters": {
                    "value": ""
                },
                "secondarycheck": {
                    "value": ""
                },
                "slug": "divine-wrath",
                "source": {
                    "value": ""
                },
                "spellType": {
                    "value": "save"
                },
                "sustained": {
                    "value": false
                },
                "target": {
                    "value": ""
                },
                "time": {
                    "value": "2"
                },
                "traditions": {
                    "value": [
                        "divine"
                    ]
                },
                "traits": {
                    "custom": "",
                    "rarity": {
                        "value": "common"
                    },
                    "value": []
                }
            },
            "effects": [],
            "flags": {
                "core": {
                    "sourceId": "Compendium.pf2e.spells-srd.hVU9msO9yGkxKZ3J"
                }
            },
            "img": "systems/pf2e/icons/spells/divine-wrath.webp",
            "name": "Divine Wrath",
            "sort": 500000,
            "type": "spell"
        },
        {
            "_id": "xiU37Sd3vBUIFF3J",
            "data": {
                "ability": {
                    "value": ""
                },
                "area": {
                    "areaType": "",
                    "value": null
                },
                "areasize": {
                    "value": "20-foot burst"
                },
                "autoHeightenLevel": {
                    "value": null
                },
                "category": {
                    "value": "spell"
                },
                "components": {
                    "focus": false,
                    "material": false,
                    "somatic": true,
                    "verbal": true
                },
                "cost": {
                    "value": ""
                },
                "damage": {
                    "value": {
                        "0": {
                            "type": {
                                "categories": [],
                                "value": "untyped"
                            },
                            "value": "7d10"
                        }
                    }
                },
                "description": {
                    "value": "<p>You can channel the fury of your deity against foes of opposed alignment. Choose an alignment your deity has (chaotic, evil, good, or lawful). You can't cast this spell if you don't have a deity or your deity is true neutral. This spell gains the trait of the alignment you chose. You deal 7d10 damage of the alignment you chose; each creature in the area must attempt a Fortitude save. Creatures that match the alignment you chose are unaffected. Those that neither match nor oppose it treat the result of their saving throw as one degree better.</p>\n<hr />\n<p><strong>Critical Success</strong> The creature is unaffected.</p>\n<p><strong>Success</strong> The creature takes half damage.</p>\n<p><strong>Failure</strong> The creature takes full damage and is @Compendium[pf2e.conditionitems.Sickened]{Sickened 1}.</p>\n<p><strong>Critical Failure</strong> The creature takes full damage and is @Compendium[pf2e.conditionitems.Sickened]{Sickened 2}; while it is sickened, it is also @Compendium[pf2e.conditionitems.Slowed]{Slowed 1}.</p>\n<hr />\n<p><strong>Heightened (+1)</strong> The damage increases by 1d10.</p>"
                },
                "duration": {
                    "value": ""
                },
                "hasCounteractCheck": {
                    "value": false
                },
                "level": {
                    "value": 7
                },
                "location": {
                    "value": "6B3uI6YS1QdKdle7"
                },
                "materials": {
                    "value": ""
                },
                "prepared": {
                    "value": ""
                },
                "primarycheck": {
                    "value": ""
                },
                "range": {
                    "value": "120 feet"
                },
                "rules": [],
                "save": {
                    "basic": "",
                    "value": "fortitude"
                },
                "scaling": {
                    "damage": {
                        "0": "1d10"
                    },
                    "interval": 1
                },
                "school": {
                    "value": "evocation"
                },
                "secondarycasters": {
                    "value": ""
                },
                "secondarycheck": {
                    "value": ""
                },
                "slug": "divine-wrath",
                "source": {
                    "value": ""
                },
                "spellType": {
                    "value": "save"
                },
                "sustained": {
                    "value": false
                },
                "target": {
                    "value": ""
                },
                "time": {
                    "value": "2"
                },
                "traditions": {
                    "value": [
                        "divine"
                    ]
                },
                "traits": {
                    "custom": "",
                    "rarity": {
                        "value": "common"
                    },
                    "value": []
                }
            },
            "effects": [],
            "flags": {
                "core": {
                    "sourceId": "Compendium.pf2e.spells-srd.hVU9msO9yGkxKZ3J"
                }
            },
            "img": "systems/pf2e/icons/spells/divine-wrath.webp",
            "name": "Divine Wrath",
            "sort": 600000,
            "type": "spell"
        },
        {
            "_id": "rF7mxRuWt010zUAu",
            "data": {
                "ability": {
                    "value": ""
                },
                "area": {
                    "areaType": "",
                    "value": null
                },
                "areasize": {
                    "value": "20-foot burst"
                },
                "autoHeightenLevel": {
                    "value": null
                },
                "category": {
                    "value": "spell"
                },
                "components": {
                    "focus": false,
                    "material": false,
                    "somatic": true,
                    "verbal": true
                },
                "cost": {
                    "value": ""
                },
                "damage": {
                    "value": {
                        "0": {
                            "type": {
                                "categories": [],
                                "value": "untyped"
                            },
                            "value": "7d10"
                        }
                    }
                },
                "description": {
                    "value": "<p>You can channel the fury of your deity against foes of opposed alignment. Choose an alignment your deity has (chaotic, evil, good, or lawful). You can't cast this spell if you don't have a deity or your deity is true neutral. This spell gains the trait of the alignment you chose. You deal 7d10 damage of the alignment you chose; each creature in the area must attempt a Fortitude save. Creatures that match the alignment you chose are unaffected. Those that neither match nor oppose it treat the result of their saving throw as one degree better.</p>\n<hr />\n<p><strong>Critical Success</strong> The creature is unaffected.</p>\n<p><strong>Success</strong> The creature takes half damage.</p>\n<p><strong>Failure</strong> The creature takes full damage and is @Compendium[pf2e.conditionitems.Sickened]{Sickened 1}.</p>\n<p><strong>Critical Failure</strong> The creature takes full damage and is @Compendium[pf2e.conditionitems.Sickened]{Sickened 2}; while it is sickened, it is also @Compendium[pf2e.conditionitems.Slowed]{Slowed 1}.</p>\n<hr />\n<p><strong>Heightened (+1)</strong> The damage increases by 1d10.</p>"
                },
                "duration": {
                    "value": ""
                },
                "hasCounteractCheck": {
                    "value": false
                },
                "level": {
                    "value": 7
                },
                "location": {
                    "value": "6B3uI6YS1QdKdle7"
                },
                "materials": {
                    "value": ""
                },
                "prepared": {
                    "value": ""
                },
                "primarycheck": {
                    "value": ""
                },
                "range": {
                    "value": "120 feet"
                },
                "rules": [],
                "save": {
                    "basic": "",
                    "value": "fortitude"
                },
                "scaling": {
                    "damage": {
                        "0": "1d10"
                    },
                    "interval": 1
                },
                "school": {
                    "value": "evocation"
                },
                "secondarycasters": {
                    "value": ""
                },
                "secondarycheck": {
                    "value": ""
                },
                "slug": "divine-wrath",
                "source": {
                    "value": ""
                },
                "spellType": {
                    "value": "save"
                },
                "sustained": {
                    "value": false
                },
                "target": {
                    "value": ""
                },
                "time": {
                    "value": "2"
                },
                "traditions": {
                    "value": [
                        "divine"
                    ]
                },
                "traits": {
                    "custom": "",
                    "rarity": {
                        "value": "common"
                    },
                    "value": []
                }
            },
            "effects": [],
            "flags": {
                "core": {
                    "sourceId": "Compendium.pf2e.spells-srd.hVU9msO9yGkxKZ3J"
                }
            },
            "img": "systems/pf2e/icons/spells/divine-wrath.webp",
            "name": "Divine Wrath",
            "sort": 700000,
            "type": "spell"
        },
        {
            "_id": "3PI9Znvm6CCxjwMm",
            "data": {
                "ability": {
                    "value": ""
                },
                "area": {
                    "areaType": "",
                    "value": null
                },
                "areasize": {
                    "value": ""
                },
                "autoHeightenLevel": {
                    "value": null
                },
                "category": {
                    "value": "spell"
                },
                "components": {
                    "focus": false,
                    "material": false,
                    "somatic": true,
                    "verbal": true
                },
                "cost": {
                    "value": ""
                },
                "damage": {
                    "value": {
                        "0": {
                            "type": {
                                "categories": [],
                                "value": "untyped"
                            },
                            "value": "70"
                        }
                    }
                },
                "description": {
                    "value": "<p>You point your finger toward the target and speak a word of slaying. You deal 70 negative damage to the target. If the damage from finger of death reduces the target to 0 Hit Points, the target dies instantly.</p>\n<hr />\n<p><strong>Heightened (+1)</strong> The damage increases by 10.</p>"
                },
                "duration": {
                    "value": ""
                },
                "hasCounteractCheck": {
                    "value": false
                },
                "level": {
                    "value": 7
                },
                "location": {
                    "value": "6B3uI6YS1QdKdle7"
                },
                "materials": {
                    "value": ""
                },
                "prepared": {
                    "value": ""
                },
                "primarycheck": {
                    "value": ""
                },
                "range": {
                    "value": "30 feet"
                },
                "rules": [],
                "save": {
                    "basic": "basic",
                    "value": "fortitude"
                },
                "school": {
                    "value": "necromancy"
                },
                "secondarycasters": {
                    "value": ""
                },
                "secondarycheck": {
                    "value": ""
                },
                "slug": "finger-of-death",
                "source": {
                    "value": ""
                },
                "spellType": {
                    "value": "save"
                },
                "sustained": {
                    "value": false
                },
                "target": {
                    "value": "1 living creature"
                },
                "time": {
                    "value": "2"
                },
                "traditions": {
                    "value": [
                        "divine",
                        "primal"
                    ]
                },
                "traits": {
                    "custom": "",
                    "rarity": {
                        "value": "common"
                    },
                    "value": [
                        "death"
                    ]
                }
            },
            "effects": [],
            "flags": {
                "core": {
                    "sourceId": "Compendium.pf2e.spells-srd.Z9OrRXKgAPv6Hn5l"
                }
            },
            "img": "systems/pf2e/icons/spells/finger-of-death.webp",
            "name": "Finger of Death",
            "sort": 800000,
            "type": "spell"
        },
        {
            "_id": "xMKvsSAGnIvhQt9D",
            "data": {
                "ability": {
                    "value": ""
                },
                "area": {
                    "areaType": "",
                    "value": null
                },
                "areasize": {
                    "value": "30-foot cone"
                },
                "autoHeightenLevel": {
                    "value": null
                },
                "category": {
                    "value": "spell"
                },
                "components": {
                    "focus": false,
                    "material": false,
                    "somatic": true,
                    "verbal": true
                },
                "cost": {
                    "value": ""
                },
                "damage": {
                    "value": {
                        "0": {
                            "type": {
                                "categories": [],
                                "value": "negative"
                            },
                            "value": "12d6"
                        }
                    }
                },
                "description": {
                    "value": "<p>You draw in the blood and life force of other creatures through your outstretched arms. You deal 12d6 negative damage to living creatures in the area. You gain temporary Hit Points equal to half the damage a single creature takes from this spell; calculate these temporary Hit Points using the creature that took the most damage. You lose any remaining temporary Hit Points after 1 minute.</p>\n<hr />\n<p><strong>Heightened (+1)</strong> The damage increases by 2d6.</p>"
                },
                "duration": {
                    "value": ""
                },
                "hasCounteractCheck": {
                    "value": false
                },
                "level": {
                    "value": 6
                },
                "location": {
                    "value": "6B3uI6YS1QdKdle7"
                },
                "materials": {
                    "value": ""
                },
                "prepared": {
                    "value": ""
                },
                "primarycheck": {
                    "value": ""
                },
                "range": {
                    "value": ""
                },
                "rules": [],
                "save": {
                    "basic": "basic",
                    "value": "fortitude"
                },
                "scaling": {
                    "damage": {
                        "0": "2d6"
                    },
                    "interval": 1
                },
                "school": {
                    "value": "necromancy"
                },
                "secondarycasters": {
                    "value": ""
                },
                "secondarycheck": {
                    "value": ""
                },
                "slug": "vampiric-exsanguination",
                "source": {
                    "value": ""
                },
                "spellType": {
                    "value": "save"
                },
                "sustained": {
                    "value": false
                },
                "target": {
                    "value": ""
                },
                "time": {
                    "value": "2"
                },
                "traditions": {
                    "value": [
                        "arcane",
                        "divine",
                        "occult"
                    ]
                },
                "traits": {
                    "custom": "",
                    "rarity": {
                        "value": "common"
                    },
                    "value": [
                        "death",
                        "negative"
                    ]
                }
            },
            "effects": [],
            "flags": {
                "core": {
                    "sourceId": "Compendium.pf2e.spells-srd.fd31tAHSSGXyOxW6"
                }
            },
            "img": "systems/pf2e/icons/spells/vampiric-exsanguination.webp",
            "name": "Vampiric Exsanguination",
            "sort": 900000,
            "type": "spell"
        },
        {
            "_id": "8kbKByrSkNOSFR5n",
            "data": {
                "ability": {
                    "value": ""
                },
                "area": {
                    "areaType": "",
                    "value": null
                },
                "areasize": {
                    "value": ""
                },
                "autoHeightenLevel": {
                    "value": null
                },
                "category": {
                    "value": "spell"
                },
                "components": {
                    "focus": false,
                    "material": false,
                    "somatic": true,
                    "verbal": true
                },
                "cost": {
                    "value": ""
                },
                "damage": {
                    "value": {}
                },
                "description": {
                    "value": "<p>To the target, your words are honey and your visage seems bathed in a dreamy haze. It must attempt a Will save, with a +4 circumstance bonus if you or your allies recently threatened it or used hostile actions against it.</p>\n<p>You can Dismiss the spell. If you use hostile actions against the target, the spell ends. When the spell ends, the target doesn't necessarily realize it was charmed unless its friendship with you or the actions you convinced it to take clash with its expectations, meaning you could potentially convince the target to continue being your friend via mundane means.</p>\n<hr />\n<p><strong>Critical Success</strong> The target is unaffected and aware you tried to charm it.</p>\n<p><strong>Success</strong> The target is unaffected but thinks your spell was something harmless instead of charm, unless it identifies the spell.</p>\n<p><strong>Failure</strong> The target's attitude becomes @Compendium[pf2e.conditionitems.Friendly]{Friendly} toward you. If it was Friendly, it becomes @Compendium[pf2e.conditionitems.Helpful]{Helpful}. It can't use hostile actions against you.</p>\n<p><strong>Critical Failure</strong> The target's attitude becomes Helpful toward you, and it can't use hostile actions against you.</p>\n<hr />\n<p><strong>Heightened (4th)</strong> The duration lasts until the next time you make your daily preparations.</p>\n<p><strong>Heightened (8th)</strong> The duration lasts until the next time you make your daily preparations, and you can target up to 10 creatures.</p>"
                },
                "duration": {
                    "value": "1 hour"
                },
                "hasCounteractCheck": {
                    "value": false
                },
                "level": {
                    "value": 4
                },
                "location": {
                    "value": "6B3uI6YS1QdKdle7"
                },
                "materials": {
                    "value": ""
                },
                "prepared": {
                    "value": ""
                },
                "primarycheck": {
                    "value": ""
                },
                "range": {
                    "value": "30 feet"
                },
                "rules": [],
                "save": {
                    "basic": "",
                    "value": "will"
                },
                "school": {
                    "value": "enchantment"
                },
                "secondarycasters": {
                    "value": ""
                },
                "secondarycheck": {
                    "value": ""
                },
                "slug": "charm",
                "source": {
                    "value": ""
                },
                "spellType": {
                    "value": "save"
                },
                "sustained": {
                    "value": false
                },
                "target": {
                    "value": "1 undead creature"
                },
                "time": {
                    "value": "2"
                },
                "traditions": {
                    "value": [
                        "arcane",
                        "occult",
                        "primal"
                    ]
                },
                "traits": {
                    "custom": "",
                    "rarity": {
                        "value": "common"
                    },
                    "value": [
                        "emotion",
                        "incapacitation",
                        "mental"
                    ]
                }
            },
            "effects": [],
            "flags": {
                "core": {
                    "sourceId": "Compendium.pf2e.spells-srd.vLA0q0WOK2YPuJs6"
                }
            },
            "img": "systems/pf2e/icons/spells/charm.webp",
            "name": "Charm (Undead Only)",
            "sort": 1000000,
            "type": "spell"
        },
        {
            "_id": "eqv2QmpJwVIj2vZN",
            "data": {
                "ability": {
                    "value": ""
                },
                "area": {
                    "areaType": "",
                    "value": null
                },
                "areasize": {
                    "value": ""
                },
                "autoHeightenLevel": {
                    "value": null
                },
                "category": {
                    "value": "spell"
                },
                "components": {
                    "focus": false,
                    "material": false,
                    "somatic": true,
                    "verbal": true
                },
                "cost": {
                    "value": ""
                },
                "damage": {
                    "value": {}
                },
                "description": {
                    "value": "<p>To the target, your words are honey and your visage seems bathed in a dreamy haze. It must attempt a Will save, with a +4 circumstance bonus if you or your allies recently threatened it or used hostile actions against it.</p>\n<p>You can Dismiss the spell. If you use hostile actions against the target, the spell ends. When the spell ends, the target doesn't necessarily realize it was charmed unless its friendship with you or the actions you convinced it to take clash with its expectations, meaning you could potentially convince the target to continue being your friend via mundane means.</p>\n<hr />\n<p><strong>Critical Success</strong> The target is unaffected and aware you tried to charm it.</p>\n<p><strong>Success</strong> The target is unaffected but thinks your spell was something harmless instead of charm, unless it identifies the spell.</p>\n<p><strong>Failure</strong> The target's attitude becomes @Compendium[pf2e.conditionitems.Friendly]{Friendly} toward you. If it was Friendly, it becomes @Compendium[pf2e.conditionitems.Helpful]{Helpful}. It can't use hostile actions against you.</p>\n<p><strong>Critical Failure</strong> The target's attitude becomes Helpful toward you, and it can't use hostile actions against you.</p>\n<hr />\n<p><strong>Heightened (4th)</strong> The duration lasts until the next time you make your daily preparations.</p>\n<p><strong>Heightened (8th)</strong> The duration lasts until the next time you make your daily preparations, and you can target up to 10 creatures.</p>"
                },
                "duration": {
                    "value": "1 hour"
                },
                "hasCounteractCheck": {
                    "value": false
                },
                "level": {
                    "value": 4
                },
                "location": {
                    "value": "6B3uI6YS1QdKdle7"
                },
                "materials": {
                    "value": ""
                },
                "prepared": {
                    "value": ""
                },
                "primarycheck": {
                    "value": ""
                },
                "range": {
                    "value": "30 feet"
                },
                "rules": [],
                "save": {
                    "basic": "",
                    "value": "will"
                },
                "school": {
                    "value": "enchantment"
                },
                "secondarycasters": {
                    "value": ""
                },
                "secondarycheck": {
                    "value": ""
                },
                "slug": "charm",
                "source": {
                    "value": ""
                },
                "spellType": {
                    "value": "save"
                },
                "sustained": {
                    "value": false
                },
                "target": {
                    "value": "1 undead creature"
                },
                "time": {
                    "value": "2"
                },
                "traditions": {
                    "value": [
                        "arcane",
                        "occult",
                        "primal"
                    ]
                },
                "traits": {
                    "custom": "",
                    "rarity": {
                        "value": "common"
                    },
                    "value": [
                        "emotion",
                        "incapacitation",
                        "mental"
                    ]
                }
            },
            "effects": [],
            "flags": {
                "core": {
                    "sourceId": "Compendium.pf2e.spells-srd.vLA0q0WOK2YPuJs6"
                }
            },
            "img": "systems/pf2e/icons/spells/charm.webp",
            "name": "Charm (Undead Only)",
            "sort": 1100000,
            "type": "spell"
        },
        {
            "_id": "ls8Zj5Y8J4reGktz",
            "data": {
                "ability": {
                    "value": ""
                },
                "area": {
                    "areaType": "",
                    "value": null
                },
                "areasize": {
                    "value": ""
                },
                "autoHeightenLevel": {
                    "value": null
                },
                "category": {
                    "value": "spell"
                },
                "components": {
                    "focus": false,
                    "material": false,
                    "somatic": true,
                    "verbal": true
                },
                "cost": {
                    "value": ""
                },
                "damage": {
                    "value": {}
                },
                "description": {
                    "value": "<p>To the target, your words are honey and your visage seems bathed in a dreamy haze. It must attempt a Will save, with a +4 circumstance bonus if you or your allies recently threatened it or used hostile actions against it.</p>\n<p>You can Dismiss the spell. If you use hostile actions against the target, the spell ends. When the spell ends, the target doesn't necessarily realize it was charmed unless its friendship with you or the actions you convinced it to take clash with its expectations, meaning you could potentially convince the target to continue being your friend via mundane means.</p>\n<hr />\n<p><strong>Critical Success</strong> The target is unaffected and aware you tried to charm it.</p>\n<p><strong>Success</strong> The target is unaffected but thinks your spell was something harmless instead of charm, unless it identifies the spell.</p>\n<p><strong>Failure</strong> The target's attitude becomes @Compendium[pf2e.conditionitems.Friendly]{Friendly} toward you. If it was Friendly, it becomes @Compendium[pf2e.conditionitems.Helpful]{Helpful}. It can't use hostile actions against you.</p>\n<p><strong>Critical Failure</strong> The target's attitude becomes Helpful toward you, and it can't use hostile actions against you.</p>\n<hr />\n<p><strong>Heightened (4th)</strong> The duration lasts until the next time you make your daily preparations.</p>\n<p><strong>Heightened (8th)</strong> The duration lasts until the next time you make your daily preparations, and you can target up to 10 creatures.</p>"
                },
                "duration": {
                    "value": "1 hour"
                },
                "hasCounteractCheck": {
                    "value": false
                },
                "level": {
                    "value": 4
                },
                "location": {
                    "value": "6B3uI6YS1QdKdle7"
                },
                "materials": {
                    "value": ""
                },
                "prepared": {
                    "value": ""
                },
                "primarycheck": {
                    "value": ""
                },
                "range": {
                    "value": "30 feet"
                },
                "rules": [],
                "save": {
                    "basic": "",
                    "value": "will"
                },
                "school": {
                    "value": "enchantment"
                },
                "secondarycasters": {
                    "value": ""
                },
                "secondarycheck": {
                    "value": ""
                },
                "slug": "charm",
                "source": {
                    "value": ""
                },
                "spellType": {
                    "value": "save"
                },
                "sustained": {
                    "value": false
                },
                "target": {
                    "value": "1 undead creature"
                },
                "time": {
                    "value": "2"
                },
                "traditions": {
                    "value": [
                        "arcane",
                        "occult",
                        "primal"
                    ]
                },
                "traits": {
                    "custom": "",
                    "rarity": {
                        "value": "common"
                    },
                    "value": [
                        "emotion",
                        "incapacitation",
                        "mental"
                    ]
                }
            },
            "effects": [],
            "flags": {
                "core": {
                    "sourceId": "Compendium.pf2e.spells-srd.vLA0q0WOK2YPuJs6"
                }
            },
            "img": "systems/pf2e/icons/spells/charm.webp",
            "name": "Charm (Undead Only)",
            "sort": 1200000,
            "type": "spell"
        },
        {
            "_id": "qCi4JQ3SAi9IyZD8",
            "data": {
                "ability": {
                    "value": ""
                },
                "area": {
                    "areaType": "burst",
                    "value": 20
                },
                "areasize": {
                    "value": "20-foot burst"
                },
                "autoHeightenLevel": {
                    "value": null
                },
                "category": {
                    "value": "spell"
                },
                "components": {
                    "focus": false,
                    "material": true,
                    "somatic": true,
                    "verbal": true
                },
                "cost": {
                    "value": ""
                },
                "damage": {
                    "value": {}
                },
                "description": {
                    "value": "<p>You create a shroud of darkness that prevents light from penetrating or emanating within the area. Light does not enter the area and any non-magical light sources, such as a torch or lantern, do not emanate any light while inside the area, even if their light radius would extend beyond the darkness. This also suppresses magical light of your darkness spell's level or lower. Light can't pass through, so creatures in the area can't see outside. From outside, it appears as a globe of pure darkness.</p>\n<hr />\n<p><strong>Heightened (4th)</strong> Even creatures with darkvision (but not greater darkvision) can barely see through the darkness. They treat targets seen through the darkness as @Compendium[pf2e.conditionitems.Concealed]{Concealed}.</p>"
                },
                "duration": {
                    "value": "1 minute"
                },
                "hasCounteractCheck": {
                    "value": false
                },
                "level": {
                    "value": 4
                },
                "location": {
                    "value": "6B3uI6YS1QdKdle7"
                },
                "materials": {
                    "value": ""
                },
                "prepared": {
                    "value": ""
                },
                "primarycheck": {
                    "value": ""
                },
                "range": {
                    "value": "120 feet"
                },
                "rules": [],
                "save": {
                    "basic": "",
                    "value": ""
                },
                "school": {
                    "value": "evocation"
                },
                "secondarycasters": {
                    "value": ""
                },
                "secondarycheck": {
                    "value": ""
                },
                "slug": "darkness",
                "source": {
                    "value": ""
                },
                "spellType": {
                    "value": "utility"
                },
                "sustained": {
                    "value": false
                },
                "target": {
                    "value": ""
                },
                "time": {
                    "value": "3"
                },
                "traditions": {
                    "value": [
                        "arcane",
                        "divine",
                        "occult",
                        "primal"
                    ]
                },
                "traits": {
                    "custom": "",
                    "rarity": {
                        "value": "common"
                    },
                    "value": [
                        "darkness"
                    ]
                }
            },
            "effects": [],
            "flags": {
                "core": {
                    "sourceId": "Compendium.pf2e.spells-srd.4GE2ZdODgIQtg51c"
                }
            },
            "img": "systems/pf2e/icons/spells/darkness.webp",
            "name": "Darkness",
            "sort": 1300000,
            "type": "spell"
        },
        {
            "_id": "DMftZrICNwcZcxdz",
            "data": {
                "ability": {
                    "value": ""
                },
                "area": {
                    "areaType": "",
                    "value": null
                },
                "areasize": {
                    "value": ""
                },
                "autoHeightenLevel": {
                    "value": null
                },
                "category": {
                    "value": "spell"
                },
                "components": {
                    "focus": false,
                    "material": false,
                    "somatic": true,
                    "verbal": true
                },
                "cost": {
                    "value": ""
                },
                "damage": {
                    "value": {}
                },
                "description": {
                    "value": "<p>With a word of necromantic power, you seize control of the target. It gains the minion trait. If you or an ally uses any hostile actions against the target, the spell ends.</p>"
                },
                "duration": {
                    "value": "1 day"
                },
                "hasCounteractCheck": {
                    "value": false
                },
                "level": {
                    "value": 3
                },
                "location": {
                    "value": "6B3uI6YS1QdKdle7"
                },
                "materials": {
                    "value": ""
                },
                "prepared": {
                    "value": ""
                },
                "primarycheck": {
                    "value": ""
                },
                "range": {
                    "value": "30 feet"
                },
                "rules": [],
                "save": {
                    "basic": "",
                    "value": ""
                },
                "school": {
                    "value": "necromancy"
                },
                "secondarycasters": {
                    "value": ""
                },
                "secondarycheck": {
                    "value": ""
                },
                "slug": "bind-undead",
                "source": {
                    "value": ""
                },
                "spellType": {
                    "value": "utility"
                },
                "sustained": {
                    "value": false
                },
                "target": {
                    "value": "1 mindless undead creature with a level no greater than bind undead's spell level"
                },
                "time": {
                    "value": "2"
                },
                "traditions": {
                    "value": [
                        "arcane",
                        "divine",
                        "occult"
                    ]
                },
                "traits": {
                    "custom": "",
                    "rarity": {
                        "value": "common"
                    },
                    "value": []
                }
            },
            "effects": [],
            "flags": {
                "core": {
                    "sourceId": "Compendium.pf2e.spells-srd.GUeRTriJkMlMlVrk"
                }
            },
            "img": "systems/pf2e/icons/spells/bind-undead.webp",
            "name": "Bind Undead (At Will)",
            "sort": 1400000,
            "type": "spell"
        },
        {
            "_id": "YbkGuRsw8NVVsIfB",
            "data": {
                "attack": {
                    "value": ""
                },
                "attackEffects": {
                    "custom": "",
                    "value": [
                        "drain-life"
                    ]
                },
                "bonus": {
                    "value": 34
                },
                "damageRolls": {
                    "0": {
                        "damage": "3d12+17",
                        "damageType": "negative"
                    }
                },
                "description": {
                    "value": ""
                },
                "rules": [],
                "slug": null,
                "source": {
                    "value": ""
                },
                "traits": {
                    "custom": "",
                    "rarity": {
                        "value": "common"
                    },
                    "value": [
                        "reach-20"
                    ]
                },
                "weaponType": {
                    "value": "melee"
                }
            },
            "effects": [],
            "flags": {},
            "img": "systems/pf2e/icons/default-icons/melee.svg",
            "name": "Spectral Jaws",
            "sort": 1500000,
            "type": "melee"
        },
        {
            "_id": "hlLjyEJFBxuPfIsH",
            "data": {
                "attack": {
                    "value": ""
                },
                "attackEffects": {
                    "custom": "",
                    "value": [
                        "divine-dispelling",
                        "drain-life"
                    ]
                },
                "bonus": {
                    "value": 34
                },
                "damageRolls": {
                    "0": {
                        "damage": "3d8+17",
                        "damageType": "negative"
                    }
                },
                "description": {
                    "value": ""
                },
                "rules": [],
                "slug": null,
                "source": {
                    "value": ""
                },
                "traits": {
                    "custom": "",
                    "rarity": {
                        "value": "common"
                    },
                    "value": [
                        "agile",
                        "reach-15"
                    ]
                },
                "weaponType": {
                    "value": "melee"
                }
            },
            "effects": [],
            "flags": {},
            "img": "systems/pf2e/icons/default-icons/melee.svg",
            "name": "Spectral Claw",
            "sort": 1600000,
            "type": "melee"
        },
        {
            "_id": "UKAw8CcCGNk7VFkB",
            "data": {
                "actionCategory": {
                    "value": "interaction"
                },
                "actionType": {
                    "value": "passive"
                },
                "actions": {
                    "value": null
                },
                "description": {
                    "value": "<p>@Localize[PF2E.NPC.Abilities.Glossary.AtWillSpells]</p>"
                },
                "requirements": {
                    "value": ""
                },
                "rules": [],
                "slug": "at-will-spells",
                "source": {
                    "value": ""
                },
                "traits": {
                    "custom": "",
                    "rarity": {
                        "value": "common"
                    },
                    "value": []
                },
                "trigger": {
                    "value": ""
                },
                "weapon": {
                    "value": ""
                }
            },
            "effects": [],
            "flags": {
                "core": {
                    "sourceId": "Compendium.pf2e.bestiary-ability-glossary-srd.2YRDYVnC1eljaXKK"
                }
            },
            "img": "systems/pf2e/icons/default-icons/mystery-man.svg",
            "name": "At-Will Spells",
            "sort": 1700000,
            "type": "action"
        },
        {
            "_id": "LcChlrMndc88kp30",
            "data": {
                "actionCategory": {
                    "value": "defensive"
                },
                "actionType": {
                    "value": "passive"
                },
                "actions": {
                    "value": null
                },
                "description": {
                    "value": "<p>A wyrmwraith in sunlight is @Compendium[pf2e.conditionitems.Clumsy]{Clumsy 2} and @Compendium[pf2e.conditionitems.Stunned]{Stunned 2}.</p>"
                },
                "requirements": {
                    "value": ""
                },
                "rules": [],
                "slug": null,
                "source": {
                    "value": ""
                },
                "traits": {
                    "custom": "",
                    "rarity": {
                        "value": "common"
                    },
                    "value": []
                },
                "trigger": {
                    "value": ""
                },
                "weapon": {
                    "value": ""
                }
            },
            "effects": [],
            "flags": {},
            "img": "systems/pf2e/icons/actions/Passive.webp",
            "name": "Sunlight Powerlessness",
            "sort": 1800000,
            "type": "action"
        },
        {
            "_id": "s87z24wrwStP1Ouk",
            "data": {
                "actionCategory": {
                    "value": "defensive"
                },
                "actionType": {
                    "value": "reaction"
                },
                "actions": {
                    "value": null
                },
                "description": {
                    "value": "<p data-visibility=\"gm\"><strong>Trigger</strong> The wyrmwraith succeeds at a saving throw to resist positive damage but still takes damage;</p>\n<p><strong>Effect</strong> The wyrmwraith transfers all positive damage from the effect to a single undead creature of their choice within 120 feet that they control or that's friendly or helpful to them.</p>"
                },
                "requirements": {
                    "value": ""
                },
                "rules": [],
                "slug": null,
                "source": {
                    "value": ""
                },
                "traits": {
                    "custom": "",
                    "rarity": {
                        "value": "common"
                    },
                    "value": [
                        "conjuration",
                        "divine"
                    ]
                },
                "trigger": {
                    "value": ""
                },
                "weapon": {
                    "value": ""
                }
            },
            "effects": [],
            "flags": {},
            "img": "systems/pf2e/icons/actions/Reaction.webp",
            "name": "Positive Energy Transfer",
            "sort": 1900000,
            "type": "action"
        },
        {
            "_id": "pHOf2i3tNwpIeAHs",
            "data": {
                "actionCategory": {
                    "value": "defensive"
                },
                "actionType": {
                    "value": "passive"
                },
                "actions": {
                    "value": null
                },
                "description": {
                    "value": "<p>@Template[type:emanation|distance:90]{90 Feet} @Compendium[pf2e.bestiary-ability-glossary-srd.Aura]{Aura} <span data-pf2-check=\"will\" data-pf2-dc=\"33\" data-pf2-traits=\"aura,emotion,fear,mental\" data-pf2-label=\"Frightful Presence DC\" data-pf2-show-dc=\"gm\">Will</span></p>\n<p>@Localize[PF2E.NPC.Abilities.Glossary.FrightfulPresence]</p>"
                },
                "requirements": {
                    "value": ""
                },
                "rules": [],
                "slug": "frightful-presence",
                "source": {
                    "value": ""
                },
                "traits": {
                    "custom": "",
                    "rarity": {
                        "value": "common"
                    },
                    "value": [
                        "aura",
                        "emotion",
                        "fear",
                        "mental"
                    ]
                },
                "trigger": {
                    "value": ""
                },
                "weapon": {
                    "value": ""
                }
            },
            "effects": [],
            "flags": {
                "core": {
                    "sourceId": "Compendium.pf2e.bestiary-ability-glossary-srd.etMnv73EIdEZrYYu"
                }
            },
            "img": "systems/pf2e/icons/actions/Passive.webp",
            "name": "Frightful Presence",
            "sort": 2000000,
            "type": "action"
        },
        {
            "_id": "mLT5MDiW1VnsaeKk",
            "data": {
                "actionCategory": {
                    "value": "offensive"
                },
                "actionType": {
                    "value": "action"
                },
                "actions": {
                    "value": 2
                },
                "description": {
                    "value": "<p>The wyrmwraith unleashes a burst of negative energy that deals [[/r {18d6}[negative]]]{18d6 negative damage} to all creatures in a 60-foot cone (<span data-pf2-check=\"reflex\" data-pf2-dc=\"38\" data-pf2-traits=\"divine,necromancy,negative,damaging-effect\" data-pf2-label=\"Breath Weapon DC\" data-pf2-show-dc=\"gm\">basic Reflex</span> save). They can't use Breath Weapon again for [[/br 1d4 #rounds]]{1d4 rounds}.</p>"
                },
                "requirements": {
                    "value": ""
                },
                "rules": [],
                "slug": null,
                "source": {
                    "value": ""
                },
                "traits": {
                    "custom": "",
                    "rarity": {
                        "value": "common"
                    },
                    "value": [
                        "divine",
                        "necromancy",
                        "negative"
                    ]
                },
                "trigger": {
                    "value": ""
                },
                "weapon": {
                    "value": ""
                }
            },
            "effects": [],
            "flags": {},
            "img": "systems/pf2e/icons/actions/TwoActions.webp",
            "name": "Breath Weapon",
            "sort": 2100000,
            "type": "action"
        },
        {
            "_id": "Nc31MydJOBHcqpyb",
            "data": {
                "actionCategory": {
                    "value": "offensive"
                },
                "actionType": {
                    "value": "passive"
                },
                "actions": {
                    "value": null
                },
                "description": {
                    "value": "<p>A wyrmwraith's claws rend divine magic. Whenever a wyrmwraith hits a creature with a spectral claws Strike, the wyrmwraith can attempt a Religion check to counteract an ongoing divine spell effect on the creature.</p>"
                },
                "requirements": {
                    "value": ""
                },
                "rules": [],
                "slug": null,
                "source": {
                    "value": ""
                },
                "traits": {
                    "custom": "",
                    "rarity": {
                        "value": "common"
                    },
                    "value": [
                        "abjuration",
                        "divine"
                    ]
                },
                "trigger": {
                    "value": ""
                },
                "weapon": {
                    "value": ""
                }
            },
            "effects": [],
            "flags": {},
            "img": "systems/pf2e/icons/actions/Passive.webp",
            "name": "Divine Dispelling",
            "sort": 2200000,
            "type": "action"
        },
        {
            "_id": "gLK9FYslyozpAyWH",
            "data": {
                "actionCategory": {
                    "value": "offensive"
                },
                "actionType": {
                    "value": "action"
                },
                "actions": {
                    "value": 2
                },
                "description": {
                    "value": "<p>The wyrmwraith makes two claw Strikes and one jaws Strike in any order.</p>"
                },
                "requirements": {
                    "value": ""
                },
                "rules": [],
                "slug": null,
                "source": {
                    "value": ""
                },
                "traits": {
                    "custom": "",
                    "rarity": {
                        "value": "common"
                    },
                    "value": []
                },
                "trigger": {
                    "value": ""
                },
                "weapon": {
                    "value": ""
                }
            },
            "effects": [],
            "flags": {},
            "img": "systems/pf2e/icons/actions/TwoActions.webp",
            "name": "Draconic Frenzy",
            "sort": 2300000,
            "type": "action"
        },
        {
            "_id": "HHS4CPEzSJeRK2TJ",
            "data": {
                "actionCategory": {
                    "value": "offensive"
                },
                "actionType": {
                    "value": "passive"
                },
                "actions": {
                    "value": null
                },
                "description": {
                    "value": "<p>When a wyrmwraith deals damage to a living creature with a spectral jaws or spectral claw Strike, the wyrmwraith gains 18 temporary Hit Points, and the creature must succeed at a <span data-pf2-check=\"fortitude\" data-pf2-dc=\"38\" data-pf2-traits=\"divine,necromancy\" data-pf2-label=\"Drain Life DC\" data-pf2-show-dc=\"gm\">Fortitude</span> save or become @Compendium[pf2e.conditionitems.Drained]{Drained 2}. Further damage dealt by the wyrmwraith's spectral jaws or spectral claws Strikes increases the value of the drained condition by 2 on a failed save, to a maximum of drained 4.</p>"
                },
                "requirements": {
                    "value": ""
                },
                "rules": [],
                "slug": null,
                "source": {
                    "value": ""
                },
                "traits": {
                    "custom": "",
                    "rarity": {
                        "value": "common"
                    },
                    "value": [
                        "divine",
                        "necromancy"
                    ]
                },
                "trigger": {
                    "value": ""
                },
                "weapon": {
                    "value": ""
                }
            },
            "effects": [],
            "flags": {},
            "img": "systems/pf2e/icons/default-icons/mystery-man.svg",
            "name": "Drain Life",
            "sort": 2400000,
            "type": "action"
        },
        {
            "_id": "S8A8KdLa7fpa3GXF",
            "data": {
                "actionCategory": {
                    "value": "offensive"
                },
                "actionType": {
                    "value": "action"
                },
                "actions": {
                    "value": 1
                },
                "description": {
                    "value": "<p>A wyrmwraith can push through the ectoplasmic veil to temporarily assume a physical form made of ectoplasm. The wyrmwraith loses the incorporeal trait for [[/br 1d4 #rounds]]{1d4 rounds}, though they can return to their incorporeal form as a free action before then. Once this ability ends, the wyrmwraith can't use this ability again for [[/br 1d4 #rounds]]{1d4 rounds}. While in their ectoplasmic form, the wyrmwraith's AC increases to 43 and they gain 100 temporary Hit Points. They lose their immunity to precision damage and all of their resistances. Their melee Strikes deal slashing and piercing damage, respectively, instead of negative damage.</p>"
                },
                "requirements": {
                    "value": ""
                },
                "rules": [],
                "slug": null,
                "source": {
                    "value": ""
                },
                "traits": {
                    "custom": "",
                    "rarity": {
                        "value": "common"
                    },
                    "value": [
                        "divine",
                        "necromancy"
                    ]
                },
                "trigger": {
                    "value": ""
                },
                "weapon": {
                    "value": ""
                }
            },
            "effects": [],
            "flags": {},
            "img": "systems/pf2e/icons/actions/OneAction.webp",
            "name": "Ectoplasmic Form",
            "sort": 2500000,
            "type": "action"
        },
        {
            "_id": "MtxKrGdtCxm0wczN",
            "data": {
                "actionCategory": {
                    "value": "offensive"
                },
                "actionType": {
                    "value": "action"
                },
                "actions": {
                    "value": 1
                },
                "description": {
                    "value": "<p><strong>Requirements</strong> The wyrmwraith is in their ectoplasmic form;</p>\n<p><strong>Effect</strong> As the Stride action, but the wyrmwraith can pass through walls or material obstacles as though they were incorporeal. They must begin and end their movement outside of any physical obstacles, and passing through solid material is difficult terrain.</p>"
                },
                "requirements": {
                    "value": ""
                },
                "rules": [],
                "slug": null,
                "source": {
                    "value": ""
                },
                "traits": {
                    "custom": "",
                    "rarity": {
                        "value": "common"
                    },
                    "value": [
                        "divine",
                        "move"
                    ]
                },
                "trigger": {
                    "value": ""
                },
                "weapon": {
                    "value": ""
                }
            },
            "effects": [],
            "flags": {},
            "img": "systems/pf2e/icons/actions/OneAction.webp",
            "name": "Phase Lurch",
            "sort": 2600000,
            "type": "action"
        },
        {
            "_id": "raKISXfbXSFEsWhQ",
            "data": {
                "description": {
                    "value": ""
                },
                "item": {
                    "value": 0
                },
                "mod": {
                    "value": 30
                },
                "proficient": {
                    "value": 0
                },
                "rules": [],
                "slug": null,
                "source": {
                    "value": ""
                },
                "traits": {
                    "custom": "",
                    "rarity": {
                        "value": "common"
                    },
                    "value": []
                }
            },
            "effects": [],
            "flags": {},
            "img": "systems/pf2e/icons/default-icons/lore.svg",
            "name": "Acrobatics",
            "sort": 2700000,
            "type": "lore"
        },
        {
            "_id": "llx3VScxju25njKb",
            "data": {
                "description": {
                    "value": ""
                },
                "item": {
                    "value": 0
                },
                "mod": {
                    "value": 30
                },
                "proficient": {
                    "value": 0
                },
                "rules": [],
                "slug": null,
                "source": {
                    "value": ""
                },
                "traits": {
                    "custom": "",
                    "rarity": {
                        "value": "common"
                    },
                    "value": []
                }
            },
            "effects": [],
            "flags": {},
            "img": "systems/pf2e/icons/default-icons/lore.svg",
            "name": "Arcana",
            "sort": 2800000,
            "type": "lore"
        },
        {
            "_id": "a8VCHV1tI4Sthdo3",
            "data": {
                "description": {
                    "value": ""
                },
                "item": {
                    "value": 0
                },
                "mod": {
                    "value": 33
                },
                "proficient": {
                    "value": 0
                },
                "rules": [],
                "slug": null,
                "source": {
                    "value": ""
                },
                "traits": {
                    "custom": "",
                    "rarity": {
                        "value": "common"
                    },
                    "value": []
                }
            },
            "effects": [],
            "flags": {},
            "img": "systems/pf2e/icons/default-icons/lore.svg",
            "name": "Intimidation",
            "sort": 2900000,
            "type": "lore"
        },
        {
            "_id": "ykDiulOOgLZPh9nF",
            "data": {
                "description": {
                    "value": ""
                },
                "item": {
                    "value": 0
                },
                "mod": {
                    "value": 33
                },
                "proficient": {
                    "value": 0
                },
                "rules": [],
                "slug": null,
                "source": {
                    "value": ""
                },
                "traits": {
                    "custom": "",
                    "rarity": {
                        "value": "common"
                    },
                    "value": []
                }
            },
            "effects": [],
            "flags": {},
            "img": "systems/pf2e/icons/default-icons/lore.svg",
            "name": "Religion",
            "sort": 3000000,
            "type": "lore"
        },
        {
            "_id": "QEsqz1C7ciSbpcd5",
            "data": {
                "description": {
                    "value": ""
                },
                "item": {
                    "value": 0
                },
                "mod": {
                    "value": 33
                },
                "proficient": {
                    "value": 0
                },
                "rules": [],
                "slug": null,
                "source": {
                    "value": ""
                },
                "traits": {
                    "custom": "",
                    "rarity": {
                        "value": "common"
                    },
                    "value": []
                }
            },
            "effects": [],
            "flags": {},
            "img": "systems/pf2e/icons/default-icons/lore.svg",
            "name": "Stealth",
            "sort": 3100000,
            "type": "lore"
        }
    ],
    "name": "Wyrmwraith",
    "token": {
        "disposition": -1,
        "height": 4,
        "img": "systems/pf2e/icons/default-icons/npc.svg",
        "name": "Wyrmwraith",
        "width": 4
    },
    "type": "npc"
}
