{
    "_id": "wzezkgOufQev7BLK",
    "data": {
        "actionCategory": {
            "value": "interaction"
        },
        "actionType": {
            "value": "action"
        },
        "actions": {
            "value": 2
        },
        "description": {
            "value": "<p>The ghost possesses and transforms an adjacent corpse (this requires 2 actions if the ghost is possessing its own corpse; otherwise, it takes an hour).</p>\n<p>The possessed corpse uses the statistics of a non-incorporeal undead 2 levels lower than the ghost, and the ghost possesses it as if using the <em>@Compendium[pf2e.spells-srd.Possession]{Possession}</em> spell. The specific undead is determined by the nature of the ghost and the corpse-@Compendium[pf2e.pathfinder-bestiary.Ghoul]{Ghouls}, @Compendium[pf2e.pathfinder-bestiary.Wight]{Wights}, and @Compendium[pf2e.pathfinder-bestiary.Dullahan]{Dullahans} are all common, but almost any undead is possible.</p>\n<p>If the ghost ceases to possess the corpse, the corporeal undead is immediately destroyed.</p>"
        },
        "requirements": {
            "value": ""
        },
        "rules": [],
        "source": {
            "value": "Pathfinder #165: Eyes of Empty Death"
        },
        "traits": {
            "custom": "",
            "rarity": {
                "value": "common"
            },
            "value": []
        },
        "trigger": {
            "value": ""
        }
    },
    "effects": [],
    "flags": {},
    "img": "systems/pf2e/icons/actions/TwoActions.webp",
    "name": "(Ghost) Revenant",
    "type": "action"
}
