{
    "_id": "qouYGPM8mE4KUCTe",
    "data": {
        "abilities": {
            "cha": {
                "mod": 5
            },
            "con": {
                "mod": 5
            },
            "dex": {
                "mod": 5
            },
            "int": {
                "mod": 4
            },
            "str": {
                "mod": 7
            },
            "wis": {
                "mod": 6
            }
        },
        "attributes": {
            "ac": {
                "details": "",
                "value": 30
            },
            "allSaves": {
                "value": "+1 status to all saves vs. magic"
            },
            "hp": {
                "details": "",
                "max": 155,
                "temp": 0,
                "value": 155
            },
            "initiative": {
                "ability": "perception"
            },
            "perception": {
                "value": 22
            },
            "shield": {
                "ac": 0,
                "brokenThreshold": 0,
                "hardness": 0,
                "max": 0,
                "value": 0
            },
            "speed": {
                "otherSpeeds": [],
                "value": "40 feet"
            }
        },
        "details": {
            "alignment": {
                "value": "LE"
            },
            "blurb": "",
            "creatureType": "Humanoid",
            "level": {
                "value": 10
            },
            "privateNotes": "",
            "publicNotes": "",
            "source": {
                "value": "Pathfinder #147: Tomorrow Must Burn"
            }
        },
        "resources": {
            "focus": {
                "max": 1,
                "value": 1
            }
        },
        "saves": {
            "fortitude": {
                "saveDetail": "",
                "value": 22
            },
            "reflex": {
                "saveDetail": "",
                "value": 16
            },
            "will": {
                "saveDetail": "",
                "value": 19
            }
        },
        "traits": {
            "ci": [],
            "di": {
                "custom": "",
                "value": []
            },
            "dr": [
                {
                    "exceptions": "bludgeoning",
                    "label": "Physical",
                    "type": "physical",
                    "value": "10"
                }
            ],
            "dv": [],
            "languages": {
                "custom": "",
                "selected": [],
                "value": [
                    "aklo",
                    "common",
                    "infernal",
                    "jotun"
                ]
            },
            "rarity": {
                "value": "unique"
            },
            "senses": {
                "value": "darkvision"
            },
            "size": {
                "value": "lg"
            },
            "traits": {
                "custom": "",
                "value": [
                    "hag",
                    "humanoid"
                ]
            }
        }
    },
    "effects": [],
    "flags": {},
    "img": "systems/pf2e/icons/default-icons/npc.svg",
    "items": [
        {
            "_id": "RrKAZA6dOMgc75z1",
            "data": {
                "ability": {
                    "value": ""
                },
                "autoHeightenLevel": {
                    "value": null
                },
                "description": {
                    "value": ""
                },
                "displayLevel": {},
                "displayLevels": {},
                "item": {
                    "value": 0
                },
                "prepared": {
                    "value": "innate"
                },
                "proficiency": {
                    "value": 0
                },
                "rules": [],
                "showSlotlessLevels": {
                    "value": true
                },
                "showUnpreparedSpells": {
                    "value": false
                },
                "signatureSpells": {
                    "value": []
                },
                "slots": {
                    "slot0": {
                        "max": 0,
                        "prepared": [],
                        "value": 0
                    },
                    "slot1": {
                        "max": 0,
                        "prepared": [],
                        "value": 0
                    },
                    "slot10": {
                        "max": 0,
                        "prepared": [],
                        "value": 0
                    },
                    "slot11": {
                        "max": 0,
                        "prepared": [],
                        "value": 0
                    },
                    "slot2": {
                        "max": 0,
                        "prepared": [],
                        "value": 0
                    },
                    "slot3": {
                        "max": 0,
                        "prepared": [],
                        "value": 0
                    },
                    "slot4": {
                        "max": 0,
                        "prepared": [],
                        "value": 0
                    },
                    "slot5": {
                        "max": 0,
                        "prepared": [],
                        "value": 0
                    },
                    "slot6": {
                        "max": 0,
                        "prepared": [],
                        "value": 0
                    },
                    "slot7": {
                        "max": 0,
                        "prepared": [],
                        "value": 0
                    },
                    "slot8": {
                        "max": 0,
                        "prepared": [],
                        "value": 0
                    },
                    "slot9": {
                        "max": 0,
                        "prepared": [],
                        "value": 0
                    }
                },
                "slug": null,
                "source": {
                    "value": ""
                },
                "spelldc": {
                    "dc": "29",
                    "item": 0,
                    "mod": 0,
                    "value": 19
                },
                "tradition": {
                    "value": "divine"
                },
                "traits": {
                    "custom": "",
                    "rarity": {
                        "value": "common"
                    },
                    "value": []
                }
            },
            "effects": [],
            "flags": {},
            "img": "systems/pf2e/icons/default-icons/spellcastingEntry.svg",
            "name": "Divine Rituals",
            "sort": 100000,
            "type": "spellcastingEntry"
        },
        {
            "_id": "VSwJOSOjj5l7iEVC",
            "data": {
                "ability": {
                    "value": ""
                },
                "area": {
                    "areaType": "",
                    "value": null
                },
                "areasize": {
                    "value": ""
                },
                "autoHeightenLevel": {
                    "value": null
                },
                "category": {
                    "value": "ritual"
                },
                "components": {
                    "focus": false,
                    "material": false,
                    "somatic": false,
                    "verbal": false
                },
                "cost": {
                    "value": "rare incense and offerings worth a total value of 2 gp × the spell level × the target's level"
                },
                "damage": {
                    "value": {}
                },
                "description": {
                    "value": "<p>You call upon your deity to grant you aid in the form of a divine servitor of your deity's choice of a level no greater than double <em>planar ally's</em> spell level. While performing this ritual, the secondary casters entreat your deity, explaining what sort of assistance you need and why you need it; if the task is incredibly fitting to your deity, the GM can grant a circumstance bonus to the secondary Diplomacy check or rule that the check is automatically a critical success. If the ritual succeeds, you must offer the servitor payment depending on factors such as the duration and danger of the task. Payment always costs at least as much as a consumable item of the creature's level, even for a short and simple task, and it often costs as much as a permanent magic item of the creature's level to persuade a creature to fight alongside you. If you use the ritual without good reason, the result is automatically a critical failure.</p>\n<hr />\n<p><strong>Critical Success</strong> Your deity sends a servitor, and the servitor's payment costs only half as much as normal. If you ask for a particular servitor by name, your deity is likely to send that servitor unless the servitor is busy.</p>\n<p><strong>Success</strong> Your deity sends a servitor.</p>\n<p><strong>Failure</strong> Your deity does not send a servitor.</p>\n<p><strong>Critical Failure</strong> Your deity is offended and sends a sign of displeasure or possibly even a servitor to scold or attack you, depending on your deity's nature. You must conduct an <em>@Compendium[pf2e.spells-srd.Atone]{Atone}</em> ritual to regain your former standing with your deity.</p>"
                },
                "duration": {
                    "value": "see text"
                },
                "hasCounteractCheck": {
                    "value": false
                },
                "level": {
                    "value": 5
                },
                "location": {
                    "value": "RrKAZA6dOMgc75z1"
                },
                "materials": {
                    "value": ""
                },
                "prepared": {
                    "value": ""
                },
                "primarycheck": {
                    "value": "Religion "
                },
                "range": {
                    "value": ""
                },
                "rules": [],
                "save": {
                    "basic": "",
                    "value": ""
                },
                "school": {
                    "value": "conjuration"
                },
                "secondarycasters": {
                    "value": "2, must share your religion"
                },
                "secondarycheck": {
                    "value": "Diplomacy"
                },
                "slug": null,
                "source": {
                    "value": ""
                },
                "spellType": {
                    "value": "utility"
                },
                "sustained": {
                    "value": false
                },
                "target": {
                    "value": ""
                },
                "time": {
                    "value": "1 day"
                },
                "traditions": {
                    "custom": "",
                    "value": []
                },
                "traits": {
                    "custom": "",
                    "rarity": {
                        "value": "uncommon"
                    },
                    "value": []
                }
            },
            "effects": [],
            "flags": {},
            "img": "systems/pf2e/icons/spells/planar-ally.webp",
            "name": "Planar Ally",
            "sort": 200000,
            "type": "spell"
        },
        {
            "_id": "WIq9iFyHE2YJoFwA",
            "data": {
                "attack": {
                    "value": ""
                },
                "attackEffects": {
                    "value": [
                        "grab",
                        "rust"
                    ]
                },
                "bonus": {
                    "value": 23
                },
                "damageRolls": {
                    "j5a6ut7s8kcjy3fr9fsu": {
                        "damage": "2d8+13",
                        "damageType": "coldironslashing"
                    }
                },
                "description": {
                    "value": ""
                },
                "rules": [],
                "slug": null,
                "source": {
                    "value": ""
                },
                "traits": {
                    "custom": "",
                    "rarity": {
                        "value": "common"
                    },
                    "value": [
                        "agile",
                        "cold iron",
                        "magical",
                        "reach-10"
                    ]
                },
                "weaponType": {
                    "value": "melee"
                }
            },
            "effects": [],
            "flags": {},
            "img": "systems/pf2e/icons/default-icons/melee.svg",
            "name": "Claw",
            "sort": 300000,
            "type": "melee"
        },
        {
            "_id": "w481TRk2bURCXIxx",
            "data": {
                "actionCategory": {
                    "value": "interaction"
                },
                "actionType": {
                    "value": "passive"
                },
                "actions": {
                    "value": null
                },
                "description": {
                    "value": "<p>Rusty Mae adds <em>@Compendium[pf2e.spells-srd.Earthbind]{Earthbind}</em>, <em>@Compendium[pf2e.spells-srd.Passwall]{Passwall}</em>, and <em>@Compendium[pf2e.spells-srd.Spellwrack]{Spellwrack}</em> to her coven's spells.</p>\n<hr />\n<p>@Localize[PF2E.NPC.Abilities.Glossary.Coven]</p>"
                },
                "requirements": {
                    "value": ""
                },
                "rules": [],
                "slug": null,
                "source": {
                    "value": ""
                },
                "traits": {
                    "custom": "",
                    "rarity": {
                        "value": "common"
                    },
                    "value": [
                        "divination",
                        "mental",
                        "occult"
                    ]
                },
                "trigger": {
                    "value": ""
                },
                "weapon": {
                    "value": ""
                }
            },
            "effects": [],
            "flags": {},
            "img": "systems/pf2e/icons/default-icons/action.svg",
            "name": "Coven",
            "sort": 400000,
            "type": "action"
        },
        {
            "_id": "p42ULbzevNks3EL9",
            "data": {
                "actionCategory": {
                    "value": "offensive"
                },
                "actionType": {
                    "value": "action"
                },
                "actions": {
                    "value": 2
                },
                "description": {
                    "value": "<p>Once per day, an annis hag can cause a cage built of cold iron fingernails to spring out of nothingness at a range of up to 30 feet, attempting an Athletics check to Grapple against the target's Fortitude DC; if the target has a weakness to cold iron, the annis hag gains a +2 circumstance bonus to this check. Unlike a normal Grapple, the annis hag doesn't need to be within reach and can move as she pleases, and a successful attempt lasts until the creature escapes (DC 29), causing the cage to crumble into rust. Any creature can attempt to destroy the cage by attacking it. It has an AC of 25, Hardness 14, and 56 Hit Points.</p>"
                },
                "requirements": {
                    "value": ""
                },
                "rules": [],
                "slug": null,
                "source": {
                    "value": ""
                },
                "traits": {
                    "custom": "",
                    "rarity": {
                        "value": "common"
                    },
                    "value": [
                        "attack",
                        "conjuration",
                        "occult"
                    ]
                },
                "trigger": {
                    "value": ""
                },
                "weapon": {
                    "value": ""
                }
            },
            "effects": [],
            "flags": {},
            "img": "systems/pf2e/icons/default-icons/action.svg",
            "name": "Bonds of Iron",
            "sort": 500000,
            "type": "action"
        },
        {
            "_id": "cbPu8oOW9pxzCZmd",
            "data": {
                "actionCategory": {
                    "value": "offensive"
                },
                "actionType": {
                    "value": "action"
                },
                "actions": {
                    "value": 1
                },
                "description": {
                    "value": "<p>The hag can take on the appearance of any Medium female humanoid. This doesn't change her Speed or her attack and damage bonuses with her Strikes but might change the damage type her Strikes deal (typically to bludgeoning).</p>\n<hr />\n<p>@Localize[PF2E.NPC.Abilities.Glossary.ChangeShape]</p>"
                },
                "requirements": {
                    "value": ""
                },
                "rules": [],
                "slug": null,
                "source": {
                    "value": ""
                },
                "traits": {
                    "custom": "",
                    "rarity": {
                        "value": "common"
                    },
                    "value": [
                        "concentrate",
                        "occult",
                        "transmutation",
                        "polymorph"
                    ]
                },
                "trigger": {
                    "value": ""
                },
                "weapon": {
                    "value": ""
                }
            },
            "effects": [],
            "flags": {},
            "img": "systems/pf2e/icons/default-icons/action.svg",
            "name": "Change Shape",
            "sort": 600000,
            "type": "action"
        },
        {
            "_id": "IWOny3r7P167bZBz",
            "data": {
                "actionCategory": {
                    "value": "offensive"
                },
                "actionType": {
                    "value": "action"
                },
                "actions": {
                    "value": 1
                },
                "description": {
                    "value": "<p><strong>Requirements</strong> The monster's last action was a success with a Strike that lists Grab in its damage entry, or it has a creature grabbed using this action. <strong>Effect</strong> The monster automatically Grabs the target until the end of the monster's next turn. The creature is grabbed by whichever body part the monster attacked with, and that body part can't be used to Strike creatures until the grab is ended. Using Grab extends the duration of the monster's Grab until the end of its next turn for all creatures grabbed by it. A grabbed creature can use the Escape action to get out of the grab, and the Grab ends for a grabbed creatures if the monster moves away from it.</p>"
                },
                "requirements": {
                    "value": ""
                },
                "rules": [],
                "slug": null,
                "source": {
                    "value": ""
                },
                "traits": {
                    "custom": "",
                    "rarity": {
                        "value": "common"
                    },
                    "value": []
                },
                "trigger": {
                    "value": ""
                },
                "weapon": {
                    "value": ""
                }
            },
            "effects": [],
            "flags": {},
            "img": "systems/pf2e/icons/default-icons/action.svg",
            "name": "Grab",
            "sort": 700000,
            "type": "action"
        },
        {
            "_id": "CvnVs0ipuR0XtvUA",
            "data": {
                "actionCategory": {
                    "value": "offensive"
                },
                "actionType": {
                    "value": "action"
                },
                "actions": {
                    "value": 1
                },
                "description": {
                    "value": "<p>Claw</p>\n<hr />\n<p>@Localize[PF2E.NPC.Abilities.Glossary.Rend]</p>"
                },
                "requirements": {
                    "value": ""
                },
                "rules": [],
                "slug": null,
                "source": {
                    "value": ""
                },
                "traits": {
                    "custom": "",
                    "rarity": {
                        "value": "common"
                    },
                    "value": []
                },
                "trigger": {
                    "value": ""
                },
                "weapon": {
                    "value": ""
                }
            },
            "effects": [],
            "flags": {},
            "img": "systems/pf2e/icons/default-icons/action.svg",
            "name": "Rend",
            "sort": 800000,
            "type": "action"
        },
        {
            "_id": "5u3kmAxxmZTv9WkW",
            "data": {
                "actionCategory": {
                    "value": "offensive"
                },
                "actionType": {
                    "value": "action"
                },
                "actions": {
                    "value": 1
                },
                "description": {
                    "value": "<p>Rusty Mae's claws cause metal to rapidly rust and corrode. If she succeeds at a claws Strike or Disarm attempt, she deals [[/r {2d6}]]{2d6 damage} (doubled on a critical hit) to a metal item the target is wearing or holding, ignoring its Hardness, in addition to the damage she deals to the target with her claws. If she hits an unattended metal item, the item takes [[/r {2d6}]]{2d6 damage} automatically. If a creature uses the Shield Block reaction with a metal shield against Rusty Mae's claw attack, the shield is automatically broken, but no other item is affected on that attack.</p>"
                },
                "requirements": {
                    "value": ""
                },
                "rules": [],
                "slug": null,
                "source": {
                    "value": ""
                },
                "traits": {
                    "custom": "",
                    "rarity": {
                        "value": "common"
                    },
                    "value": []
                },
                "trigger": {
                    "value": ""
                },
                "weapon": {
                    "value": ""
                }
            },
            "effects": [],
            "flags": {},
            "img": "systems/pf2e/icons/default-icons/action.svg",
            "name": "Rend",
            "sort": 900000,
            "type": "action"
        },
        {
            "_id": "eesqfYHmulSIQ5dm",
            "data": {
                "description": {
                    "value": ""
                },
                "item": {
                    "value": 0
                },
                "mod": {
                    "value": 17
                },
                "proficient": {
                    "value": 0
                },
                "rules": [],
                "slug": null,
                "source": {
                    "value": ""
                },
                "traits": {
                    "custom": "",
                    "rarity": {
                        "value": "common"
                    },
                    "value": []
                }
            },
            "effects": [],
            "flags": {},
            "img": "systems/pf2e/icons/default-icons/lore.svg",
            "name": "Acrobatics",
            "sort": 1000000,
            "type": "lore"
        },
        {
            "_id": "E9FrySzNqUR0B1Hm",
            "data": {
                "description": {
                    "value": ""
                },
                "item": {
                    "value": 0
                },
                "mod": {
                    "value": 21
                },
                "proficient": {
                    "value": 0
                },
                "rules": [],
                "slug": null,
                "source": {
                    "value": ""
                },
                "traits": {
                    "custom": "",
                    "rarity": {
                        "value": "common"
                    },
                    "value": []
                }
            },
            "effects": [],
            "flags": {},
            "img": "systems/pf2e/icons/default-icons/lore.svg",
            "name": "Athletics",
            "sort": 1100000,
            "type": "lore"
        },
        {
            "_id": "xKxS8YtWi7NSeo4t",
            "data": {
                "description": {
                    "value": ""
                },
                "item": {
                    "value": 0
                },
                "mod": {
                    "value": 19
                },
                "proficient": {
                    "value": 0
                },
                "rules": [],
                "slug": null,
                "source": {
                    "value": ""
                },
                "traits": {
                    "custom": "",
                    "rarity": {
                        "value": "common"
                    },
                    "value": []
                }
            },
            "effects": [],
            "flags": {},
            "img": "systems/pf2e/icons/default-icons/lore.svg",
            "name": "Deception",
            "sort": 1200000,
            "type": "lore"
        },
        {
            "_id": "SghpoHme0YuDLHIg",
            "data": {
                "description": {
                    "value": ""
                },
                "item": {
                    "value": 0
                },
                "mod": {
                    "value": 21
                },
                "proficient": {
                    "value": 0
                },
                "rules": [],
                "slug": null,
                "source": {
                    "value": ""
                },
                "traits": {
                    "custom": "",
                    "rarity": {
                        "value": "common"
                    },
                    "value": []
                }
            },
            "effects": [],
            "flags": {},
            "img": "systems/pf2e/icons/default-icons/lore.svg",
            "name": "Diplomacy",
            "sort": 1300000,
            "type": "lore"
        },
        {
            "_id": "aliHtkxpquCqTLUn",
            "data": {
                "description": {
                    "value": ""
                },
                "item": {
                    "value": 0
                },
                "mod": {
                    "value": 17
                },
                "proficient": {
                    "value": 0
                },
                "rules": [],
                "slug": null,
                "source": {
                    "value": ""
                },
                "traits": {
                    "custom": "",
                    "rarity": {
                        "value": "common"
                    },
                    "value": []
                }
            },
            "effects": [],
            "flags": {},
            "img": "systems/pf2e/icons/default-icons/lore.svg",
            "name": "Intimidation",
            "sort": 1400000,
            "type": "lore"
        },
        {
            "_id": "phMaXjOjv1hKUDGY",
            "data": {
                "description": {
                    "value": ""
                },
                "item": {
                    "value": 0
                },
                "mod": {
                    "value": 22
                },
                "proficient": {
                    "value": 0
                },
                "rules": [],
                "slug": null,
                "source": {
                    "value": ""
                },
                "traits": {
                    "custom": "",
                    "rarity": {
                        "value": "common"
                    },
                    "value": []
                }
            },
            "effects": [],
            "flags": {},
            "img": "systems/pf2e/icons/default-icons/lore.svg",
            "name": "Religion",
            "sort": 1500000,
            "type": "lore"
        },
        {
            "_id": "xLtmJYzn8e2QiXmB",
            "data": {
                "description": {
                    "value": ""
                },
                "item": {
                    "value": 0
                },
                "mod": {
                    "value": 19
                },
                "proficient": {
                    "value": 0
                },
                "rules": [],
                "slug": null,
                "source": {
                    "value": ""
                },
                "traits": {
                    "custom": "",
                    "rarity": {
                        "value": "common"
                    },
                    "value": []
                }
            },
            "effects": [],
            "flags": {},
            "img": "systems/pf2e/icons/default-icons/lore.svg",
            "name": "Stealth",
            "sort": 1600000,
            "type": "lore"
        }
    ],
    "name": "Rusty Mae",
    "token": {
        "disposition": -1,
        "height": 2,
        "img": "systems/pf2e/icons/default-icons/npc.svg",
        "name": "Rusty Mae",
        "width": 2
    },
    "type": "npc"
}
