{
    "_id": "v7aUL4DIk7lkw1EO",
    "content": "<table class=\"pf2-table\">\n<thead>\n<tr>\n<th>\n<h3><strong>Name</strong></h3>\n</th>\n<th>\n<h3><strong>Crit Effect</strong></h3>\n</th>\n<th>\n<h3><strong>Type</strong></h3>\n</th>\n</tr>\n</thead>\n<tbody>\n<tr>\n<td>\n<h3>Knockback</h3>\n</td>\n<td>\n<h3>The target is pushed 1d4x5 feet away.</h3>\n</td>\n<td>\n<h3>Bludgeoning</h3>\n</td>\n</tr>\n<tr>\n<td>\n<h3>Deep Hurting</h3>\n</td>\n<td>\n<h3>The target is fatigued.</h3>\n</td>\n<td>\n<h3>Piercing</h3>\n</td>\n</tr>\n<tr>\n<td>\n<h3>Gut Slash</h3>\n</td>\n<td>\n<h3>The target takes 1d4 persistent bleed damage and any creature it Swallows Whole is immediately released.</h3>\n</td>\n<td>\n<h3>Slashing</h3>\n</td>\n</tr>\n<tr>\n<td>\n<h3>Intense Splash</h3>\n</td>\n<td>\n<h3>The target takes normal damage, and all creatures adjacent to the target take half damage of the same type.</h3>\n</td>\n<td>\n<h3>Bomb or Spell</h3>\n</td>\n</tr>\n</tbody>\n</table>\n<h3 style=\"text-align: left;\"> </h3>",
    "flags": {},
    "name": "Critical Hit Deck #44",
    "permission": {
        "default": 0
    }
}
