{
    "_id": "0tG5q8JkCaG1EY5s",
    "content": "<table class=\"pf2-table\" style=\"width:93.1133%\">\n<thead>\n<tr>\n<th style=\"width:18.1818%\">\n<h3><strong>Name</strong></h3>\n</th>\n<th style=\"width:64.3737%\">\n<h3><strong>Crit Effect</strong></h3>\n</th>\n<th style=\"width:17.2904%\">\n<h3><strong>Type</strong></h3>\n</th>\n</tr>\n</thead>\n<tbody>\n<tr>\n<td style=\"width:18.1818%\">Meant to do That</td>\n<td style=\"width:64.3737%\">\n<p style=\"text-align:justify\">You are moved 10 feet in a random direction (determined by the GM). This movement triggers reactions.</p>\n</td>\n<td style=\"width:17.2904%\">\n<h3>Melee</h3>\n</td>\n</tr>\n<tr>\n<td style=\"width:18.1818%\">Misjudged the Distance</td>\n<td style=\"text-align:justify;width:64.3737%\">Until the end of your next turn, all your range increment penalties are doubled.</td>\n<td style=\"width:17.2904%\">\n<h3>Ranged</h3>\n</td>\n</tr>\n<tr>\n<td style=\"width:18.1818%\">Not the Weak Point</td>\n<td style=\"text-align:justify;width:64.3737%\">You take 1d6 persistent bleed damage and can't use this attack until the end of your next turn.</td>\n<td style=\"width:17.2904%\">\n<h3>Unarmed</h3>\n</td>\n</tr>\n<tr>\n<td style=\"width:18.1818%\">How did that Happen?</td>\n<td style=\"text-align:justify;width:64.3737%\">You call forth a mist with the effects of <em>stinking cloud </em>centered on a corner of your space (determined by the GM).</td>\n<td style=\"width:17.2904%\">\n<h3>Spell</h3>\n</td>\n</tr>\n</tbody>\n</table>",
    "flags": {},
    "name": "Critical Fumble Deck #1",
    "permission": {
        "default": 0
    }
}
