{
    "_id": "akmQzZoNhyfCKFpL",
    "data": {
        "actionCategory": {
            "value": "defensive"
        },
        "actionType": {
            "value": "reaction"
        },
        "actions": {
            "value": null
        },
        "description": {
            "value": "<p><strong>Frequency</strong> Once per day</p>\n<p><strong>Trigger</strong> A creature targets you with an attack or other targeted effect, and you can see the attacker.</p>\n<hr />\n<p>You create a blanket of fog in a 5–foot burst centered on one corner of your space. All creatures within that area are concealed, and all others are concealed to them. This concealment applies to the triggering effect, and the fog lasts for 1 minute or until dispersed by a strong wind. After resolving the triggering effect, you Step. If an effect prevents you from Stepping, you attempt to @Compendium[pf2e.actionspf2e.Escape]{Escape} the effect and Step if you succeed.</p>"
        },
        "requirements": {
            "value": ""
        },
        "rules": [],
        "source": {
            "value": "Pathfinder Lost Omens: Ancestry Guide"
        },
        "traits": {
            "custom": "",
            "rarity": {
                "value": "common"
            },
            "value": [
                "sylph"
            ]
        },
        "trigger": {
            "value": ""
        }
    },
    "effects": [],
    "flags": {},
    "img": "systems/pf2e/icons/actions/Reaction.webp",
    "name": "Airy Step",
    "type": "action"
}
