{
    "_id": "yOtu5X3qWfjuX8Vy",
    "data": {
        "actionCategory": {
            "value": ""
        },
        "actionType": {
            "value": "passive"
        },
        "actions": {
            "value": null
        },
        "description": {
            "value": "<p>You spend a week trying to discover and learn a creature's name. The exact form of your effort varies depending on the skill you use, the resources you have available, and other circumstances. Decide if you are searching for the name of a specific individual or for names in general. If you're looking for the name of an individual, you must be able to clearly identify that individual; for example, \"the general leading the invasion\" is enough, but \"the person who killed the duchess\" isn't, if you don't know who killed the duchess. If you're searching for names more generally, name one creature type.</p>\n<p>The GM chooses a DC, typically based on the level of the creature in question. If you're seeking names more generally, the DC is typically based on the level of the creature whose name the GM decides to provide, usually a creature from the chosen type of your level or lower. The GM might modify the DC of the task based on the resources you have available, or on using an unusually appropriate or inappropriate skill, or on other circumstances. Attempt a check with a skill that could be used to Recall Knowledge about the creature's type. After attempting to Learn a Name, you typically can't try to learn the name of the same individual again unless you gain access to a substantial new source of information, as determined by the GM.</p>\n<hr />\n<p><strong>Critical Success</strong> You find one or more private names of the specific individual you chose, or the private name of a creature with the type you chose and a level equal to the task level. You also find hidden fragments of their true name and, at the GM's discretion, you might find a clue leading to an adventure where you can learn the rest of the true name.</p>\n<p><strong>Success</strong> As critical success, except you find only one private name and don't find hidden fragments of their true name.</p>\n<p><strong>Critical Failure</strong> If you were searching for the name of a specific individual, you find no new information and that individual becomes aware of your efforts. If you were searching for a general name of a specific type, you find a creature's name or names likely to get you in trouble, possibly the names of a different type of creature entirely.</p>"
        },
        "requirements": {
            "value": ""
        },
        "rules": [],
        "source": {
            "value": ""
        },
        "traits": {
            "custom": "",
            "rarity": {
                "value": "common"
            },
            "value": [
                "downtime",
                "secret"
            ]
        },
        "trigger": {
            "value": ""
        }
    },
    "effects": [],
    "flags": {},
    "img": "systems/pf2e/icons/actions/Passive.webp",
    "name": "Learn Name",
    "type": "action"
}
