{
    "_id": "9gDMkIfDifh61yLz",
    "data": {
        "actionCategory": {
            "value": "interaction"
        },
        "actionType": {
            "value": "action"
        },
        "actions": {
            "value": 1
        },
        "description": {
            "value": "<p><strong>Requirements</strong> You are piloting a vehicle in motion.</p>\n<p>You bring the vehicle to a stop.</p>"
        },
        "requirements": {
            "value": ""
        },
        "rules": [],
        "source": {
            "value": "Pathfinder Gamemastery Guide"
        },
        "traits": {
            "custom": "",
            "rarity": {
                "value": "common"
            },
            "value": [
                "manipulate"
            ]
        },
        "trigger": {
            "value": ""
        },
        "weapon": {
            "value": ""
        }
    },
    "effects": [],
    "flags": {},
    "img": "systems/pf2e/icons/actions/OneAction.webp",
    "name": "Stop",
    "type": "action"
}
