{
    "_id": "uNUQujgmyavb52Xa",
    "data": {
        "attributes": {
            "ac": {
                "value": 0
            },
            "hardness": 0,
            "hasHealth": true,
            "hp": {
                "details": "",
                "max": 0,
                "temp": 0,
                "value": 0
            },
            "stealth": {
                "details": "<p>(trained)</p>",
                "value": 10
            }
        },
        "creatureType": "",
        "details": {
            "description": "<p>The face of the Azlanti supervisor on the wall animates and begins scolding those in the room for their poor attitudes at work.</p>",
            "disable": "<p><span data-pf2-check=\"deception\" data-pf2-traits=\"complex,haunt\" data-pf2-label=\"Fake a Smile DC\" data-pf2-dc=\"20\" data-pf2-show-dc=\"gm\">Deception</span> to fake a cheerful, positive attitude, or <span data-pf2-check=\"crafting\" data-pf2-traits=\"complex,haunt\" data-pf2-label=\"Show Skill at a Task DC\" data-pf2-dc=\"21\" data-pf2-show-dc=\"gm\">Crafting</span> (trained) to show skill at a task; three successful checks are required to disable the haunt.</p>",
            "isComplex": true,
            "level": {
                "value": 3
            },
            "reset": "<p>The ghostly voice ceases its routine 2 rounds after all living creatures leave the room and resets after 6 hours.</p>",
            "routine": "<p><span class=\"pf2-icon\">3</span> The supervisor's voice fills the room and compels everyone within to start smiling. Each creature in the room takes [[/r {1d8+4}[mental]]]{1d8+4 mental damage} and must attempt a <span data-pf2-check=\"will\" data-pf2-traits=\"complex,haunt\" data-pf2-label=\"Try Not to Smile too Hard DC\" data-pf2-dc=\"20\" data-pf2-show-dc=\"gm\">Will</span> save.</p>\n<div data-visibility=\"gm\"><hr />\n<p><strong>Critical Success</strong> The target takes no damage.</p>\n<p><strong>Success</strong> The target takes half damage.</p>\n<p><strong>Failure</strong> The creature takes full damage.</p>\n<p><strong>Critical Failure</strong> The creature takes full damage and is @Compendium[pf2e.conditionitems.Drained]{Drained 1}.</p>\n</div>"
        },
        "saves": {
            "fortitude": {
                "saveDetail": "",
                "value": 0
            },
            "reflex": {
                "saveDetail": "",
                "value": 0
            },
            "will": {
                "saveDetail": "",
                "value": 0
            }
        },
        "source": {
            "value": ""
        },
        "statusEffects": [],
        "traits": {
            "ci": [],
            "di": {
                "custom": "",
                "selected": {},
                "value": []
            },
            "dr": [],
            "dv": [],
            "rarity": {
                "value": "common"
            },
            "size": {
                "value": "med"
            },
            "traits": {
                "custom": "",
                "value": [
                    "haunt"
                ]
            }
        }
    },
    "effects": [],
    "flags": {},
    "img": "systems/pf2e/icons/default-icons/hazard.svg",
    "items": [
        {
            "_id": "krjZ9lqVkGcDTbNl",
            "data": {
                "actionCategory": {
                    "value": "offensive"
                },
                "actionType": {
                    "value": "reaction"
                },
                "actions": {
                    "value": null
                },
                "description": {
                    "value": "<p data-visibility=\"gm\"><strong>Trigger</strong> A living creature approaches within 10 feet of the smiling face in the center of the north wall;</p>\n<p><strong>Effect</strong> The face shouts in Azlanti at the creature to put a smile on their face and get back to work. The creature takes [[/r {1d8+4}[mental]]]{1d8+4 mental damage} and must attempt a <span data-pf2-check=\"will\" data-pf2-traits=\"complex,haunt,fear,mental,occult\" data-pf2-label=\"Resist Loud Yelling DC\" data-pf2-dc=\"20\" data-pf2-show-dc=\"gm\">Will</span> save. The haunt then rolls initiative.</p>\n<div data-visibility=\"gm\"><hr />\n<p><strong>Critical Success</strong> The target takes no damage.</p>\n<p><strong>Success</strong> The creature takes half damage.</p>\n<p><strong>Failure</strong> The creature takes full damage.</p>\n<p><strong>Critical Failure</strong> The creature takes full damage and is @Compendium[pf2e.conditionitems.Stunned]{Stunned 1}.</p>\n</div>"
                },
                "requirements": {
                    "value": ""
                },
                "rules": [],
                "slug": null,
                "source": {
                    "value": ""
                },
                "traits": {
                    "custom": "",
                    "rarity": {
                        "value": "common"
                    },
                    "value": [
                        "fear",
                        "mental",
                        "occult"
                    ]
                },
                "trigger": {
                    "value": ""
                }
            },
            "effects": [],
            "flags": {},
            "img": "systems/pf2e/icons/actions/Reaction.webp",
            "name": "Smile! Smile!",
            "sort": 100000,
            "type": "action"
        }
    ],
    "name": "Encouraging Supervision",
    "token": {
        "disposition": 0,
        "height": 1,
        "img": "systems/pf2e/icons/default-icons/hazard.svg",
        "name": "Encouraging Supervision",
        "width": 1
    },
    "type": "hazard"
}
