{
    "_id": "JRP2bdkdCdj2JDrq",
    "data": {
        "description": {
            "value": "<p>Your familiar can change shape as a single action, transforming into a humanoid of your ancestry with the same age, gender, and build of its true form, though it always maintains a clearly unnatural remnant of its nature, such as a cat's eyes or a serpent's tongue. This form is always the same each time it uses this ability. This otherwise uses the effects of <em>humanoid form</em>, except the change is purely cosmetic. It only appears humanoid and gains no new capabilities. Your familiar must have the manual dexterity and speech abilities to select this.</p>"
        },
        "duration": {
            "expiry": "turn-start",
            "sustained": false,
            "unit": "unlimited",
            "value": -1
        },
        "level": {
            "value": 1
        },
        "rules": [],
        "source": {
            "value": ""
        },
        "start": {
            "initiative": null,
            "value": 0
        },
        "target": null,
        "tokenIcon": {
            "show": false
        },
        "traits": {
            "custom": "",
            "rarity": {
                "value": "common"
            },
            "value": []
        }
    },
    "effects": [],
    "flags": {},
    "img": "systems/pf2e/icons/actions/Passive.webp",
    "name": "Master's Form",
    "type": "effect"
}
