{
    "_id": "IUAbDA2cbIB4ONlD",
    "data": {
        "attributes": {
            "ac": {
                "value": 0
            },
            "hardness": 0,
            "hasHealth": true,
            "hp": {
                "details": "",
                "max": 10,
                "temp": 0,
                "tempmax": 0,
                "value": 10
            },
            "stealth": {
                "details": "(Expert)",
                "value": 15
            }
        },
        "creatureType": "",
        "details": {
            "description": "The sand conceals a rune that summons an ninvisible stalker into this yard.",
            "disable": "<p>Acrobatics DC 25 to approach without triggering the trap followed by Arcana DC 25 (expert) or Thievery DC 27 (expert) to erase the rune, or <em>@Compendium[pf2e.spells-srd.Dispel Magic]{Dispel Magic}</em> (4th level; counteract DC 25) to counteract the rune</p>",
            "isComplex": true,
            "level": {
                "value": 7
            },
            "reset": "The trap resets after 24 hours.",
            "routine": ""
        },
        "saves": {
            "fortitude": {
                "saveDetail": "",
                "value": 0
            },
            "reflex": {
                "saveDetail": "",
                "value": 0
            },
            "will": {
                "saveDetail": "",
                "value": 0
            }
        },
        "source": {
            "value": "Pathfinder Adventure: The Slithering"
        },
        "statusEffects": [],
        "traits": {
            "ci": [],
            "di": {
                "custom": "",
                "selected": {},
                "value": []
            },
            "dr": [],
            "dv": [],
            "rarity": {
                "value": "uncommon"
            },
            "size": {
                "value": "med"
            },
            "traits": {
                "custom": "",
                "value": [
                    "magical",
                    "trap"
                ]
            }
        }
    },
    "effects": [],
    "flags": {},
    "img": "systems/pf2e/icons/default-icons/hazard.svg",
    "items": [
        {
            "_id": "BpGTOxzPDky6DhhE",
            "data": {
                "actionCategory": {
                    "value": ""
                },
                "actionType": {
                    "value": "reaction"
                },
                "actions": {
                    "value": null
                },
                "description": {
                    "value": "<p data-visibility=\"gm\"><strong>Trigger</strong>: A creature that isn't openly bearing an Aspis Consortium badge crosses the center of the yard;</p>\n<p><strong>Effect</strong>: The trap summons an @Compendium[pf2e.pathfinder-bestiary.Invisible Stalker]{Invisible Stalker}. The invisible stalker rolls initiative and remains for [[/br 2d6 #rounds]]{2d6 rounds}, after which the spell ends and the invisible stalker disappears. The invisible stalker also disappears if someone disables the trap before the duration expires.</p>\n<p>The invisible stalker can use 3 actions each round and can use reactions, unlike most summoned creatures.</p>"
                },
                "requirements": {
                    "value": ""
                },
                "rules": [],
                "slug": null,
                "source": {
                    "value": ""
                },
                "traits": {
                    "custom": "Summon",
                    "rarity": {
                        "value": "common"
                    },
                    "value": [
                        "arcane",
                        "conjuration",
                        "summon"
                    ]
                },
                "trigger": {
                    "value": ""
                },
                "weapon": {
                    "value": ""
                }
            },
            "effects": [],
            "flags": {},
            "img": "systems/pf2e/icons/actions/Reaction.webp",
            "name": "Summon Monster",
            "sort": 100000,
            "type": "action"
        }
    ],
    "name": "Stalker Summoning Rune",
    "token": {
        "disposition": 0,
        "height": 1,
        "img": "systems/pf2e/icons/default-icons/hazard.svg",
        "name": "Stalker Summoning Rune",
        "width": 1
    },
    "type": "hazard"
}
