{
    "_id": "CzHjFLx4hpIEIoWt",
    "content": "<h1>Dispater (Iron Lord) [LE]</h1><p>Hell's second layer is the Infernal City, Dis, and its ruler is the archdevil Dispater. The Iron Lord is the architect of the orderly perfection of Hell as a blueprint for the rest of the multiverse, responsible for Dis's own dark and startling perfection. He remains distant from the scheming and machinations of the other archdevils and the Material Plane, instead modeling calm and deliberate action combined with ruthless, merciless arrogance. As the most urbane of the archdevils, he attracts many followers among those who wish to see Hell's dark majesty spread across the universe.</p><p><strong>Edicts</strong> Uphold absolute law, pursue perfection in your surroundings, speak with refinement</p><p><strong>Anathema</strong> Act above your station, neglect your defenses, betray a lover</p><p><strong>Follower Alignments</strong> LN, LE</span></p><p></span></p><h2>Devotee Benefits</h2><div><div><strong>Divine Ability</strong> Strength or Charisma</div><div><strong>Divine Font</strong> harm</div><div><strong>Divine Skill</strong> Society</div><div><strong>Favored Weapon</strong> mace</div><div><strong>Domains</strong> cities, confidence, duty, tyranny</div><div><strong>Cleric Spells</strong> 1st: tether, 4th: suggestion, 6th: flesh to stone</div></div>",
    "flags": {},
    "name": "Dispater",
    "permission": {
        "default": 0
    }
}
