{
    "_id": "oRvuLq3o2FxXizt9",
    "content": "<h1 class=\"title\">Ghlaunder (The Gossamer King) [CE]</h1>\n<p class=\"title\"><span id=\"ctl00_MainContent_DetailedOutput\"><span id=\"ctl00_MainContent_DetailedOutput\"><img style=\"float: right;\" src=\"https://2e.aonprd.com/Images/Deities/Ghlaunder.png\" alt=\"\" width=\"119\" height=\"119\" /></span><span id=\"ctl00_MainContent_DetailedOutput\">Ghlaunder is the god of pestilence, infection, and insects. His form resembles that of a giant mosquito, warped and distended by the parasites he hosts. He leaves malaise in his wake, laying waste to everything he can. Ghlaunder revels in suffering, especially that caused by sickness: the last gasp of air into fluid-filled lungs, the terrorizing dreams that come only from the hottest of fevers. It is said that the Gossamer King was once swaddled in a cocoon, but was released by the curious Desna into the world with a cleave of her starknife. Since then, the goddess has pursued him in a macabre dance, hoping to kill him as they flit between planes.</p>\n<p><strong>Edicts</strong> corrupt pieces of land, water sources, and communities; infect the weak; spread and nurture disease</p>\n<p><strong>Anathema</strong> aid in ending a plague or infection, destroy something out of hand when you could have instead corrupted it or leeched off it first</p>\n<p><strong>Areas of Concern</strong> infection, insects, parasites, and stagnation</p>\n<p><strong>Follower Alignments</strong> NE, CE</span></p>\n<p></span></p>\n<h2 class=\"title\">Devotee Benefits</h2>\n<div>\n<div><strong>Divine Ability</strong> Constitution or Wisdom</div>\n<div><strong>Divine Font</strong> <em>@Compendium[pf2e.spells-srd.Harm]{Harm}</em></div>\n<div><strong>Divine Skill</strong> Nature</div>\n<div><strong>Favored Weapon</strong> @Compendium[pf2e.equipment-srd.Spear]{Spear}</div>\n<div><strong>Domains</strong> air, decay, plague, swarm</div>\n<div><strong>Cleric Spells</strong> 1st: <em>@Compendium[pf2e.spells-srd.Goblin Pox]{Goblin Pox}</em>, 2nd: <em>@Compendium[pf2e.spells-srd.Abyssal Plague]{Abyssal Plague}</em>, (vomit swarm (Advanced Player's Guide, coming soon)), 3rd:<em>@Compendium[pf2e.spells-srd.Insect Form]{Insect Form}</em></div>\n</div>\n<h2>Divine Intercession</h2>\n<p><span id=\"ctl00_MainContent_DetailedOutput\">The Gossamer King's gifts seem bizarre and cruel to those outside of his following, but his faithful crave his gifts zealously and fear his punishments.</p>\n<p><strong>Minor Boon</strong>: Your commitment to filth draws a small cloud of disease-laden insects. Once, you can summon a cloud of midges, mosquitos, and flies to surround you for 1 minute. Creatures adjacent to you at any point during that time become drained 1, sickened 1, and exposed to a blood-borne illness. Ghlaunder typically grants this boon when you can infect a significant number of creatures.</p>\n<p><strong>Moderate Boon</strong>: Ghlaunder teaches you to bide your time, corrupting and infecting until the time is right. When you expose a creature to a disease and it succeeds at its Fortitude save, it is still infected unless it critically succeeds. However, such a creature experiences no effects and the disease does not progress for the first 24 hours, even if the disease is normally fast-acting or someone uses another ability to progress the disease. It's very difficult to detect the infection in the first day; the DC for Medicine checks to do so is 5 higher.</p>\n<p><strong>Major Boon</strong>: Ghlaunder rewards his followers with the ability to safely spread illness-or on occasion, offers respite to desperate petitioners who please him. You do not take negative effects from any disease you are infected with unless or until Ghlaunder rescinds this benefit.</p>\n<p><strong>Minor Curse</strong>: Ghlaunder drains away your life force for himself. You become drained 1 and can't reduce your drained condition below 1.</p>\n<p><strong>Moderate Curse</strong>: Ghlaunder leeches your energy from you as easily as blood. Any time you fail a Fortitude save, you become fatigued in addition to all other effects.</p>\n<p><strong>Major Curse</strong>: You are struck with a contagious disease of the GM's choice. You and anyone else you infect can't be cured of the disease or improve its condition to an earlier stage in any way until you infect two other sapient beings with the disease.</span></p>",
    "flags": {},
    "name": "Ghlaunder",
    "permission": {
        "default": 0
    }
}
