{
    "_id": "nsiDGdgbAzkTQzOt",
    "content": "<h1>Magrim (The Taskmaster) [LN]</h1><p>Magrim is the demigod&dagger; overseer of the dwarven afterlife who first taught the dwarves how to commune with their gods. He is responsible for restoring wracked souls to be ready to return to the Material Plane of mortals. Together with Angradd, Magrim watches over battles. Torag, creator of the mortal dwarven race, is his younger brother.</p><p></span><strong>Edicts</strong> Perfect a craft or trade, carve runes, destroy undead, aid others with completing unfinished tasks</p><p><strong>Anathema</strong> Treat gravesites irreverently, mistreat your tools, create undead, damage a soul</p><p><strong>Follower Alignments</strong> LG, LN, N</span></p><p></span></p><h2>Devotee Benefits</h2><div><div><strong>Divine Ability</strong> Constitution or Wisdom</div><div><strong>Divine Font</strong> heal</div><div><strong>Divine Skill</strong> Crafting</div><div><strong>Favored Weapon</strong> warhammer</div><div><strong>Domains</strong> death, duty, fate, glyph</div><div><strong>Cleric Spells</strong> 1st: temporary tool, 2nd: expeditious excavation, 9th: earthquake</div></div>",
    "flags": {},
    "name": "Magrim",
    "permission": {
        "default": 0
    }
}
