{
    "_id": "hWTTS0e7J9hJfsp3",
    "content": "<h1>Matravash (The Wide Water) [LN]</h1><p><strong>Edicts</strong> Aid the persecuted, accommodate and facilitate others, practice contemplation and restraint</p><p><strong>Anathema</strong> Destroy lotus fields, interfere with the flow of the Matra river, pollute clean water, reveal the location of nonevil fugitives</p><p><strong>Follower Alignments</strong> LG, LN, N</span></p><p></span></p><h2>Devotee Benefits</h2><div><div><strong>Divine Ability</strong> Constitution or Wisdom</div><div><strong>Divine Font</strong> heal</div><div><strong>Divine Skill</strong> Survival</div><div><strong>Favored Weapon</strong> whip</div><div><strong>Domains</strong> cities, nature, travel, water</div><div><strong>Cleric Spells</strong> 1st: share lore, 3rd: slow, 4th: speak with plants</div></div>",
    "flags": {},
    "name": "Matravash",
    "permission": {
        "default": 0
    }
}
