{
    "_id": "s9opv94lGDRKnw6W",
    "content": "<h1>Shizuru (The Empress of Heaven) [LG]</h1><p></span>The Empress of Heaven is worshipped across all of Tian Xia by people of all walks of life, from commoner to lord, farmer to samurai, human to dragon. She is revered as the ruler of the Tian pantheon, respected as the finest samurai in Heaven or Golarion, and honored as the patron of nature and emperors alike. Perhaps the most famous tale about her is that of Shizuru and her lover @Compendium[pf2e.deities.Tsukiyo]{Tsukiyo}, the moon god. After Tsukiyo was slain by his brother @Compendium[pf2e.deities.Fumeiyoshi]{Fumeiyoshi} in a fit of jealousy, Shizuru brought the moon god back to life with the aid of @Compendium[pf2e.deities.Qi Zhong]{Qi Zhong}, the god of medicine. Sadly, Tsukiyo was deeply affected by his experience with death, and though he and Shizuru still love each other, the event created a rift between them. Even so, on the days of an eclipse, they embrace as one.</p><p><strong>Edicts</strong> practice with a weapon every day, honor your ancestors, protect nature and society from corruption and destruction</p><p><strong>Anathema</strong> abandon a companion in need, dishonor yourself, parlay with truce breakers, separate lovers</p><p><strong>Areas of Concern</strong> ancestors, honor, the sun, and swordplay</p><p><strong>Follower Alignments</strong> LG, NG, LN</span></p><p></span></p><h2>Devotee Benefits</h2><div><div><strong>Divine Ability</strong> Strength or Wisdom</div><div><strong>Divine Font</strong> heal</div><div><strong>Divine Skill</strong> Society</div><div><strong>Favored Weapon</strong> katana</div><div><strong>Domains</strong> duty, perfection, sun, vigil</div><div><strong>Alternate Domains</strong> sorrow</div><div><strong>Cleric Spells</strong> 1st: true strike, 4th: reflective scales, 5th: summon dragon</div></div><h2>Divine Intercession</h2><p>The Empress of Heaven wastes little time acting coy about her favor. Her boons are often accompanied by beams of sunlight or calligraphic symbols, while her wrath is often signaled by the cracking of precious items and armor.</p><p><strong>Minor Boon</strong>: Your attacks help eradicate darkness. When you successfully Strike a foe, your weapon glows with bright light out to 60 feet for 1 minute. This is a light effect with a counteract level equal to half your level rounded up.</p><p><strong>Moderate Boon</strong>: Shizuru's light flows through your blade. Your weapons and unarmed attacks deal an additional 1d6 fire damage or 1d6 good damage; you choose each time you make an attack.</p><p><strong>Major Boon</strong>: Shizuru bestows upon you a golden suit of armor made from sunlight, or transforms your favorite armor to gain that aspect. Once per hour while you are wearing the armor, if an attack would reduce your Hit Points to 0, the attack is instead completely negated.</p><p><strong>Minor Curse</strong>: Your equipment turns on you for a disgraceful act. The next time you make an attack, your weapon or armor gains the broken condition.</p><p><strong>Moderate Curse</strong>: Shizuru decrees that her light is no longer your ally. You gain light blindness.</p><p><strong>Major Curse</strong>: Those who incite Shizuru's personal wrath earn the hatred of all of her subjects. All imperial dragons and animals you encounter are automatically hostile to you, and you gain weakness 15 to draconic breath weapons.</span></p>",
    "flags": {},
    "name": "Shizuru",
    "permission": {
        "default": 0
    }
}
