{
    "_id": "6nq25AjImkT5GxDT",
    "content": "<h1>The Prismatic Ray [NG]</h1><p><strong>Edicts</strong> Create works that inspire good acts, defend those who cannot defend themselves, pursue evil</p><p><strong>Anathema</strong> allow evil to spread, destroy that which brings joy to others, fail to offer evil a chance to surrender</p><p><strong>Areas of Concern</strong> Defeating evil, guarding innocents, and wholesome creations</p><p><strong>Follower Alignments</strong> LG, NG, CG</p><p><strong>Pantheon Members</strong> @Compendium[pf2e.deities.Desna]{Desna}, @Compendium[pf2e.deities.Sarenrae]{Sarenrae}, @Compendium[pf2e.deities.Shelyn]{Shelyn}<u></u></span></p><h2>Devotee Benefits</h2><p><strong>Divine Ability</strong> Wisdom or Charisma</p><p><strong>Divine Font </strong><em>Heal</em></p><p><strong>Divine Skill</strong> Diplomacy</p><p><strong>Favored Weapon</strong> shortsword<u></u></p><p><strong>Domains</strong> creation, moon, protection, sun</p><p><strong>Alternate Domains&nbsp;</strong>family, healing, travel</p><p><strong>Cleric Spells</strong> 1st: <em>sleep</em><u></u>, 3rd: <em>fireball</em>, 4th: <em>creation</em><u></u></p>",
    "flags": {},
    "name": "The Prismatic Ray",
    "permission": {
        "default": 0
    }
}
