{
    "_id": "8ZSywyo8YQPduo92",
    "content": "<h1>Zura (The Vampire Queen) [CE]</h1><p>Zura, the Vampire Queen, is the demon lord of blood, cannibalism, and vampires. According to legend, she is the reincarnated form of an Azlanti queen who indulged in blood rites and acts of cannibalism in a quest for eternal life. After death, she was reborn as a unique vampiric succubus who quickly ascended to the status of demon lord. Though many of her cults died out with the Azlanti empire, Zura is still worshipped by vampires and those aspiring to become vampires, particularly within Cheliax and Ustalav, as well as among the drow of the Darklands.</p><p><strong>Edicts</strong> Drink blood, seek vampirism, cause bleed damage</p><p><strong>Anathema</strong> Expose vampires, heal a bloody wound without drinking blood from it first</p><p><strong>Areas of Concern</strong> blood, cannibalism, and vampires</p><p><strong>Follower Alignments</strong> NE, CE</span></p><h2>Devotee Benefits</h2><div><div><div><strong>Divine Ability</strong> Strength or Charisma</div><div><strong>Divine Font</strong> harm</div><div><strong>Divine Skill</strong> Diplomacy</div><div><strong>Favored Weapon</strong> rapier</div><div><strong>Domains</strong> delirium, indulgence, nightmares, undeath</div><div><strong>Cleric Spells</strong> 1st: charm, 4th: gaseous form, 6th: dominate</div></div></div>",
    "flags": {},
    "name": "Zura",
    "permission": {
        "default": 0
    }
}
