{
    "_id": "41qaGiMit8nDP4xv",
    "content": "<p><strong>Deities&nbsp;</strong>@Compendium[pf2e.deities.Nhimbaloth]{Nhimbaloth}</p><p><strong>Domain Spell</strong> @Compendium[pf2e.spells-srd.Lift Nature's Caul]{Lift Nature's Caul}<u></u>; <strong>Advanced Domain Spell</strong> @Compendium[pf2e.spells-srd.Fearful Feast]{Fearful Feast}</p><p>You seek to instill abhorrence and horror in those around you.</p>",
    "flags": {},
    "name": "Abomination Domain",
    "permission": {
        "default": 0
    }
}
