{
    "_id": "ZAx1RUB376BjNdlF",
    "content": "<p><strong>Deities</strong> @Compendium[pf2e.deities.Ashava]{Ashava}, @Compendium[pf2e.deities.Ashukharma]{Ashukharma}, @Compendium[pf2e.deities.Doloras]{Doloras}, @Compendium[pf2e.deities.Folgrit]{Folgrit}, @Compendium[pf2e.deities.Lady Jingxi]{Lady Jingxi}, @Compendium[pf2e.deities.Lymnieris]{Lymnieris}, @Compendium[pf2e.deities.Sarenrae]{Sarenrae}, @Compendium[pf2e.deities.Shelyn]{Shelyn}, @Compendium[pf2e.deities.The Lost Prince]{The Lost Prince}, @Compendium[pf2e.deities.Tsukiyo]{Tsukiyo}</p><p><strong>Domain Spell</strong> @Compendium[pf2e.spells-srd.Share Burden]{Share Burden}; <strong>Advanced Domain Spell</strong> @Compendium[pf2e.spells-srd.Font of Serenity]{Font of Serenity}</p><p><span id=\"ctl00_MainContent_DetailedOutput\">You ease mental burdens.</span></p><p></p>",
    "flags": {},
    "name": "Repose Domain",
    "permission": {
        "default": 0
    }
}
