{
    "_id": "fVfFKKvGocG2JM5q",
    "content": "<p><strong>Deities</strong> @Compendium[pf2e.deities.Chohar]{Chohar}, @Compendium[pf2e.deities.Droskar]{Droskar}, @Compendium[pf2e.deities.Lissala]{Lissala}, @Compendium[pf2e.deities.Mammon]{Mammon}, @Compendium[pf2e.deities.Sairazul]{Sairazul}, @Compendium[pf2e.deities.The Path of the Heavens]{The Path of the Heavens}</p><p><strong>Domain Spell</strong> @Compendium[pf2e.spells-srd.Practice Makes Perfect]{Practice Makes Perfect}; <strong>Advanced Domain Spell</strong> @Compendium[pf2e.spells-srd.Tireless Worker]{Tireless Worker}</p><p><span id=\"ctl00_MainContent_DetailedOutput\">You work constantly and refuse to let anything stand in your way.</span></p><p></p>",
    "flags": {},
    "name": "Toil Domain",
    "permission": {
        "default": 0
    }
}
