{
    "_id": "bJzANqEGTkho1bv6",
    "data": {
        "actionCategory": {
            "value": "defensive"
        },
        "actionType": {
            "value": "passive"
        },
        "actions": {
            "value": null
        },
        "description": {
            "value": "<p>The magic powering you makes it difficult for outside magic to affect you. You gain the Resist Magic reaction.</p>\n<p><strong>Enhancement</strong> Your safeguards improve. When you Resist Magic, you gain a number of temporary Hit Points equal to the spell level of the triggering effect.</p>"
        },
        "featType": {
            "value": "ancestry"
        },
        "level": {
            "value": 5
        },
        "location": "",
        "prerequisites": {
            "value": []
        },
        "rules": [],
        "source": {
            "value": ""
        },
        "traits": {
            "custom": "",
            "rarity": {
                "value": "common"
            },
            "value": [
                "automaton"
            ]
        }
    },
    "effects": [],
    "flags": {},
    "img": "systems/pf2e/icons/default-icons/feats.webp",
    "name": "Arcane Safeguards",
    "type": "feat"
}
