{
    "_id": "nAgAICjPd4BSQlAj",
    "data": {
        "actionCategory": {
            "value": ""
        },
        "actionType": {
            "value": "passive"
        },
        "actions": {
            "value": null
        },
        "description": {
            "value": "<p><strong>Archetype</strong> @Compendium[pf2e.archetypes.Turpin Rowe Lumberjack]{Turpin Rowe Lumberjack}</p>\n<hr />\n<p>When you are climbing a wooden surface and have a @Compendium[pf2e.equipment-srd.Hatchet]{Hatchet} or @Compendium[pf2e.equipment-srd.Battle Axe]{Battle Axe} in each hand, you have a climb Speed equal to half your normal Speed. You must still have both legs available to climb and can't use either of the axes in combat while climbing. This feat can also be used to climb a surface of ice if you have a @Compendium[pf2e.equipment-srd.Light Pick]{Light Pick} in each hand.</p>"
        },
        "featType": {
            "value": "archetype"
        },
        "level": {
            "value": 4
        },
        "prerequisites": {
            "value": [
                {
                    "value": "Turpin Rowe Lumberjack Dedication"
                }
            ]
        },
        "rules": [],
        "source": {
            "value": "Pathfinder #153: Life's Long Shadow"
        },
        "traits": {
            "custom": "",
            "rarity": {
                "value": "common"
            },
            "value": [
                "archetype"
            ]
        }
    },
    "effects": [],
    "flags": {},
    "img": "systems/pf2e/icons/features/feats/feats.webp",
    "name": "Axe Climber",
    "type": "feat"
}
