{
    "_id": "5ZsmRm7HvFAw2XDZ",
    "data": {
        "actionCategory": {
            "value": ""
        },
        "actionType": {
            "value": "passive"
        },
        "actions": {
            "value": null
        },
        "description": {
            "value": "<p>You know how to get the most effort out of your allies on the road.</p>\n<p>When @Compendium[pf2e.actionspf2e.Hustle]{Hustling} in a group during exploration mode, your group can Hustle for as long as the member who could Hustle longest on their own, plus an additional 20 minutes beyond that.</p>"
        },
        "featType": {
            "value": "general"
        },
        "level": {
            "value": 11
        },
        "prerequisites": {
            "value": [
                {
                    "value": "Constitution 18"
                },
                {
                    "value": "Pick Up the Pace"
                }
            ]
        },
        "rules": [],
        "source": {
            "value": "Pathfinder Advanced Player's Guide"
        },
        "traits": {
            "custom": "",
            "rarity": {
                "value": "common"
            },
            "value": [
                "general"
            ]
        }
    },
    "effects": [],
    "flags": {},
    "img": "systems/pf2e/icons/features/feats/feats.webp",
    "name": "Caravan Leader",
    "type": "feat"
}
