{
    "_id": "goFxIDlbWd8GN0kj",
    "data": {
        "actionCategory": {
            "value": ""
        },
        "actionType": {
            "value": "action"
        },
        "actions": {
            "value": 2
        },
        "description": {
            "value": "<p><strong>Requirements</strong> You're wielding a melee weapon in two hands.</p>\n<hr />\n<p>You put your body behind your massive weapon and swing, shoving enemies to clear a wide path.</p>\n<p>You attempt to @Compendium[pf2e.actionspf2e.Shove]{Shove} up to five creatures adjacent to you, rolling a separate Athletics check for each target. Then @Compendium[pf2e.actionspf2e.Stride]{Stride} up to half your Speed. This movement doesn't trigger reactions from any of the creatures you successfully Shoved.</p>"
        },
        "featType": {
            "value": "archetype"
        },
        "level": {
            "value": 6
        },
        "prerequisites": {
            "value": [
                {
                    "value": "Mauler Dedication"
                }
            ]
        },
        "rules": [],
        "source": {
            "value": "Pathfinder Advanced Player's Guide"
        },
        "traits": {
            "custom": "",
            "rarity": {
                "value": "common"
            },
            "value": [
                "archetype"
            ]
        }
    },
    "effects": [],
    "flags": {},
    "img": "systems/pf2e/icons/features/feats/feats.webp",
    "name": "Clear The Way",
    "type": "feat"
}
