{
    "_id": "d1ktdX1Fk37dG5ms",
    "data": {
        "actionCategory": {
            "value": ""
        },
        "actionType": {
            "value": "action"
        },
        "actions": {
            "value": 1
        },
        "description": {
            "value": "<p>Your faith provides temporary protection in addition to healing. If the next action you use is to cast <em>@Compendium[pf2e.spells-srd.Harm]{Harm}</em> or <em>@Compendium[pf2e.spells-srd.Heal]{Heal}</em> on a single target and the target regains Hit Points from the spell, it also gains a +2 status bonus to AC and saving throws for 1 round.</p>\n<p>@Compendium[pf2e.feat-effects.Effect: Defensive Recovery]{Effect: Defensive Recovery}</p>"
        },
        "featType": {
            "value": "class"
        },
        "level": {
            "value": 12
        },
        "location": "",
        "prerequisites": {
            "value": [
                {
                    "value": "harmful font or healing font"
                }
            ]
        },
        "rules": [],
        "source": {
            "value": "Pathfinder Core Rulebook"
        },
        "traits": {
            "custom": "",
            "rarity": {
                "value": "common"
            },
            "value": [
                "concentrate",
                "cleric",
                "metamagic"
            ]
        }
    },
    "effects": [],
    "flags": {},
    "img": "systems/pf2e/icons/features/feats/feats.webp",
    "name": "Defensive Recovery",
    "type": "feat"
}
