{
    "_id": "VYdZmTifZRkRF7ey",
    "data": {
        "actionCategory": {
            "value": "defensive"
        },
        "actionType": {
            "value": "reaction"
        },
        "actions": {
            "value": null
        },
        "description": {
            "value": "<p><strong>Frequency</strong> once every 10 minutes</p>\n<p><strong>Trigger</strong> You are the target of a ranged attack.</p>\n<p><strong>Requirements</strong> You are aware of the attack and currently have dragon wings active.</p>\n<hr />\n<p>You've mastered a defensive technique unique to the ancient dragons of Bloodsalt: beating your wings to create a billowing cloud of mist. You become momentarily @Compendium[pf2e.conditionitems.Hidden]{Hidden} from the triggering attack if vision is the attacker's only precise sense. Normally this means the attacker must succeed at a <span data-pf2-check=\"flat\" data-pf2-traits=\"hidden\" data-pf2-label=\"Hidden Flat Check DC\" data-pf2-dc=\"11\" data-pf2-show-dc=\"owner\">Flat Check</span> to target you. You also gain a +4 circumstance bonus to AC against the triggering attack.</p>"
        },
        "featType": {
            "value": "archetype"
        },
        "level": {
            "value": 16
        },
        "location": "",
        "prerequisites": {
            "value": [
                {
                    "value": "Dragon Disciple Dedication"
                },
                {
                    "value": "dragon wings sorcerer bloodline spell"
                }
            ]
        },
        "rules": [
            {
                "key": "ToggleProperty",
                "label": "Use Deflecting Cloud",
                "property": "flags.pf2e.rollOptions.all.deflecting-cloud"
            },
            {
                "key": "FlatModifier",
                "predicate": {
                    "all": [
                        "deflecting-cloud"
                    ]
                },
                "selector": "ac",
                "type": "circumstance",
                "value": 4
            }
        ],
        "source": {
            "value": "Pathfinder #171: Hurricane's Howl"
        },
        "traits": {
            "custom": "",
            "rarity": {
                "value": "uncommon"
            },
            "value": []
        }
    },
    "effects": [],
    "flags": {},
    "img": "systems/pf2e/icons/default-icons/feats.webp",
    "name": "Deflecting Cloud",
    "type": "feat"
}
