{
    "_id": "iojlXjVdbzi1fZGt",
    "data": {
        "actionCategory": {
            "value": ""
        },
        "actionType": {
            "value": "passive"
        },
        "actions": {
            "value": null
        },
        "description": {
            "value": "<p>You can shape the energy you channel in a single direction, reaching farther and in a more directed fashion. When you cast a version of <em>@Compendium[pf2e.spells-srd.Harm]{Harm}</em> or <em>@Compendium[pf2e.spells-srd.Heal]{Heal}</em> that has an area, you can make its area a 60-foot cone instead of a 30-foot emanation.</p>"
        },
        "featType": {
            "value": "class"
        },
        "level": {
            "value": 4
        },
        "location": "",
        "prerequisites": {
            "value": []
        },
        "rules": [],
        "source": {
            "value": "Pathfinder Core Rulebook"
        },
        "traits": {
            "custom": "",
            "rarity": {
                "value": "common"
            },
            "value": [
                "cleric"
            ]
        }
    },
    "effects": [],
    "flags": {},
    "img": "systems/pf2e/icons/features/feats/feats.webp",
    "name": "Directed Channel",
    "type": "feat"
}
