{
    "_id": "ZRI1OXaaa4ZC6EK1",
    "data": {
        "actionCategory": {
            "value": ""
        },
        "actionType": {
            "value": "passive"
        },
        "actions": {
            "value": null
        },
        "description": {
            "value": "<p><strong>Access</strong> Chelaxian nationality</p>\n<hr />\n<p>You are practiced at blending into the background of the streets and halls of larger folk to ensure that you are overlooked. When you are in a crowd or well trafficked urban area, you can attempt to @Compendium[pf2e.actionspf2e.Hide]{Hide} and @Compendium[pf2e.actionspf2e.Sneak]{Sneak}, even when observed. On a success, you aren't hidden or undetected, but other creatures simply don't take particular notice of you, even though they can see you. You can't use this ability on observers who have already seen you perform obtrusive or notable actions. If you perform any action other than to Hide or Sneak or otherwise take particularly salient actions (GM's discretion), observers notice you right away.</p>"
        },
        "featType": {
            "value": "ancestry"
        },
        "level": {
            "value": 5
        },
        "location": "",
        "prerequisites": {
            "value": []
        },
        "rules": [],
        "source": {
            "value": "Pathfinder Lost Omens: Character Guide"
        },
        "traits": {
            "custom": "",
            "rarity": {
                "value": "uncommon"
            },
            "value": [
                "halfling"
            ]
        }
    },
    "effects": [],
    "flags": {},
    "img": "systems/pf2e/icons/features/feats/feats.webp",
    "name": "Easily Dismissed",
    "type": "feat"
}
