{
    "_id": "6vwLzzrFfeiR9pm0",
    "data": {
        "actionCategory": {
            "value": ""
        },
        "actionType": {
            "value": "passive"
        },
        "actions": {
            "value": null
        },
        "description": {
            "value": "<p>You have a small group of admirers who tend to follow you around while you're in civilized settlements.</p>\n<p>Your admirers are helpful to you, allowing you to make simple @Compendium[pf2e.actionspf2e.Request]{Requests} of them such as purchasing basic equipment with your funds or finding a room at an inn.</p>\n<p>These admirers do not travel with you to places that are obviously dangerous, including most adventure locations, but they'll wait for you at the nearest settlement. Your admirers never use actions in encounter mode other than to retreat, and they abandon you if you intentionally bring them harm or at the GM's discretion.</p>\n<p>When you @Compendium[pf2e.actionspf2e.Gather Information]{Gather Information}, you can use your admirers to assist you, granting a +1 circumstance bonus to your Diplomacy check and reducing the time it takes even further (typically to 30 minutes, rather than 1 hour with the Hobnobber feat alone). If you have the @Compendium[pf2e.feats-srd.Sow Rumor]{Sow Rumor} feat, you can have your admirers assist you, with the same benefits as Gather Information.</p>"
        },
        "featType": {
            "value": "skill"
        },
        "level": {
            "value": 7
        },
        "location": "",
        "prerequisites": {
            "value": [
                {
                    "value": "master in Diplomacy"
                },
                {
                    "value": "Hobnobber"
                }
            ]
        },
        "rules": [
            {
                "key": "FlatModifier",
                "label": "Entourage (Gather Information)",
                "predicate": {
                    "all": [
                        "action:gather-information"
                    ]
                },
                "selector": "diplomacy",
                "type": "circumstance",
                "value": 1
            }
        ],
        "source": {
            "value": "Pathfinder Lost Omens: Character Guide"
        },
        "traits": {
            "custom": "",
            "rarity": {
                "value": "rare"
            },
            "value": [
                "general",
                "skill"
            ]
        }
    },
    "effects": [],
    "flags": {},
    "img": "systems/pf2e/icons/features/feats/feats.webp",
    "name": "Entourage",
    "type": "feat"
}
