{
    "_id": "SASOvOG2Nqs2ekdA",
    "data": {
        "actionCategory": {
            "value": ""
        },
        "actionType": {
            "value": "passive"
        },
        "actions": {
            "value": null
        },
        "description": {
            "value": "<p>When you cast mage hand, you can modify its target to be 1 creature. If you do, replace its standard effects with the following: You push your foe telekinetically. Make a spell attack roll against the target's Fortitude DC. On a success, you push the target 5 feet away from you. On a critical success, you push the target 10 feet away from you.</p>"
        },
        "featType": {
            "value": "archetype"
        },
        "level": {
            "value": 4
        },
        "location": "",
        "prerequisites": {
            "value": [
                {
                    "value": "Spell Trickster Dedication"
                },
                {
                    "value": "ability to cast mage hand"
                }
            ]
        },
        "rules": [],
        "source": {
            "value": ""
        },
        "traits": {
            "custom": "",
            "rarity": {
                "value": "common"
            },
            "value": [
                "archetype",
                "attack"
            ]
        }
    },
    "effects": [],
    "flags": {},
    "img": "systems/pf2e/icons/default-icons/feats.webp",
    "name": "Forceful Push",
    "type": "feat"
}
