{
    "_id": "0EY2WQC3Hb6Mitgz",
    "data": {
        "actionCategory": {
            "value": "offensive"
        },
        "actionType": {
            "value": "action"
        },
        "actions": {
            "value": 1
        },
        "description": {
            "value": "<p><strong>Requirements</strong> You have a creature @Compendium[pf2e.conditionitems.Grabbed]{Grabbed} or @Compendium[pf2e.conditionitems.Restrained]{Restrained}.</p>\n<hr />\n<p>Your ability to manipulate your enemy's body is potent enough that you can tear and break apart alternate forms. Attempt an Athletics check to counteract a polymorph effect currently affecting the creature you have grabbed or restrained. If the target is somehow under the effect of multiple polymorph effects, you can choose which one to attempt to counteract; the GM chooses randomly if the separate effects aren't obvious. The target is then temporarily immune for 1 day.</p>"
        },
        "featType": {
            "value": "archetype"
        },
        "level": {
            "value": 14
        },
        "location": "",
        "prerequisites": {
            "value": [
                {
                    "value": "Wrestler Dedication"
                }
            ]
        },
        "rules": [],
        "source": {
            "value": ""
        },
        "traits": {
            "custom": "",
            "rarity": {
                "value": "common"
            },
            "value": [
                "archetype",
                "attack"
            ]
        }
    },
    "effects": [],
    "flags": {},
    "img": "systems/pf2e/icons/default-icons/feats.webp",
    "name": "Form Lock",
    "type": "feat"
}
