{
    "_id": "OYjzfTeWU7RJBT7v",
    "data": {
        "actionCategory": {
            "value": ""
        },
        "actionType": {
            "value": "passive"
        },
        "actions": {
            "value": null
        },
        "description": {
            "value": "<p>Others might look upon them with disdain, but you know that the weapons of your people are as effective as they are sharp. You are trained with the @Compendium[pf2e.equipment-srd.Dogslicer]{Dogslicer} and @Compendium[pf2e.equipment-srd.Horsechopper]{Horsechopper}.</p>\n<p>In addition, you gain access to all uncommon goblin weapons. For the purpose of determining your proficiency, martial goblin weapons are simple weapons and advanced goblin weapons are martial weapons.</p>"
        },
        "featType": {
            "value": "ancestry"
        },
        "level": {
            "value": 1
        },
        "location": "",
        "prerequisites": {
            "value": []
        },
        "rules": [
            {
                "key": "ActiveEffectLike",
                "mode": "upgrade",
                "path": "data.martial.weapon-base-dogslicer.rank",
                "value": 1
            },
            {
                "key": "ActiveEffectLike",
                "mode": "upgrade",
                "path": "data.martial.weapon-base-horsechopper.rank",
                "value": 1
            },
            {
                "key": "LinkedProficiency",
                "predicate": {
                    "all": [
                        "weapon:trait:goblin",
                        "weapon:category:advanced"
                    ]
                },
                "sameAs": "martial",
                "slug": "advanced-goblin-weapons"
            },
            {
                "key": "LinkedProficiency",
                "predicate": {
                    "all": [
                        "weapon:trait:goblin",
                        "weapon:category:martial"
                    ]
                },
                "sameAs": "simple",
                "slug": "martial-goblin-weapons"
            }
        ],
        "source": {
            "value": "Pathfinder Core Rulebook"
        },
        "traits": {
            "custom": "",
            "rarity": {
                "value": "common"
            },
            "value": [
                "goblin"
            ]
        }
    },
    "effects": [],
    "flags": {},
    "img": "systems/pf2e/icons/features/feats/feats.webp",
    "name": "Goblin Weapon Familiarity",
    "type": "feat"
}
