{
    "_id": "LKxAuH0mLyzNygIY",
    "data": {
        "actionCategory": {
            "value": ""
        },
        "actionType": {
            "value": "passive"
        },
        "actions": {
            "value": null
        },
        "description": {
            "value": "<p>Focus flows from your patron each time you commune with your familiar. You can recover 3 Focus Points when you @Compendium[pf2e.actionspf2e.Refocus]{Refocus} instead of 1 if you have spent at least 3 Focus Points since the last time you Refocused.</p>"
        },
        "featType": {
            "value": "class"
        },
        "level": {
            "value": 18
        },
        "prerequisites": {
            "value": [
                {
                    "value": "Hex Focus"
                }
            ]
        },
        "rules": [],
        "source": {
            "value": "Pathfinder Advanced Player's Guide"
        },
        "traits": {
            "custom": "",
            "rarity": {
                "value": "common"
            },
            "value": [
                "witch"
            ]
        }
    },
    "effects": [],
    "flags": {},
    "img": "systems/pf2e/icons/features/feats/feats.webp",
    "name": "Hex Wellspring",
    "type": "feat"
}
