{
    "_id": "kqRFoXfErUFEndIs",
    "data": {
        "actionCategory": {
            "value": ""
        },
        "actionType": {
            "value": "action"
        },
        "actions": {
            "value": 1
        },
        "description": {
            "value": "<p>Drawing moisture from the atmosphere, you create a disc of hovering water that deflects attacks. You gain a +1 circumstance bonus to AC until the start of your next turn.</p>\n<p>@Compendium[pf2e.feat-effects.Effect: Hydraulic Deflection]{Effect: Hydraulic Deflection}</p>"
        },
        "featType": {
            "value": "ancestry"
        },
        "level": {
            "value": 1
        },
        "location": "",
        "prerequisites": {
            "value": []
        },
        "rules": [],
        "source": {
            "value": "Pathfinder Lost Omens: Ancestry Guide"
        },
        "traits": {
            "custom": "",
            "rarity": {
                "value": "common"
            },
            "value": [
                "abjuration",
                "azarketi",
                "concentrate",
                "primal",
                "water"
            ]
        }
    },
    "effects": [],
    "flags": {},
    "img": "systems/pf2e/icons/default-icons/feats.webp",
    "name": "Hydraulic Deflection",
    "type": "feat"
}
