{
    "_id": "RqccUKf8DCPnsYXJ",
    "data": {
        "actionCategory": {
            "value": ""
        },
        "actionType": {
            "value": "passive"
        },
        "actions": {
            "value": null
        },
        "description": {
            "value": "<p>It seems impossible, but you've analyzed every angle and are able to just keep pulling out exactly the item you need, even in far-flung locations.</p>\n<p>You can use @Compendium[pf2e.feats-srd.Prescient Planner]{Prescient Planner} even if you have already used it after purchasing goods, and you can use it as a single action instead of a 2-action activity, during which you @Compendium[pf2e.actionspf2e.Interact]{Interact} to draw the item.</p>\n<p>In addition, five times per day, you can use Prescient Planner to pull out a common consumable item up to 6 levels lower than your level.</p>"
        },
        "featType": {
            "value": "class"
        },
        "level": {
            "value": 16
        },
        "prerequisites": {
            "value": [
                {
                    "value": "Predictive Purchase"
                }
            ]
        },
        "rules": [],
        "source": {
            "value": "Pathfinder Advanced Player's Guide"
        },
        "traits": {
            "custom": "",
            "rarity": {
                "value": "common"
            },
            "value": [
                "investigator"
            ]
        }
    },
    "effects": [],
    "flags": {},
    "img": "systems/pf2e/icons/features/feats/feats.webp",
    "name": "Implausible Purchase (Investigator)",
    "type": "feat"
}
