{
    "_id": "mgs7vxq6d3hQoswa",
    "data": {
        "actionCategory": {
            "value": ""
        },
        "actionType": {
            "value": "passive"
        },
        "actions": {
            "value": null
        },
        "description": {
            "value": "<p>Your weapon whirls and darts, striking foes whenever the opportunity presents itself.</p>\n<p>At the start of each of your turns, you gain an additional reaction that you can use only to make a @Compendium[pf2e.feats-srd.Dueling Riposte]{Dueling Riposte}. You can use this extra reaction even if you are not benefiting from @Compendium[pf2e.feats-srd.Dueling Parry (Fighter)]{Dueling Parry}.</p>"
        },
        "featType": {
            "value": "class"
        },
        "level": {
            "value": 12
        },
        "prerequisites": {
            "value": [
                {
                    "value": "Dueling Riposte"
                }
            ]
        },
        "rules": [],
        "source": {
            "value": "Pathfinder Core Rulebook"
        },
        "traits": {
            "custom": "",
            "rarity": {
                "value": "common"
            },
            "value": [
                "fighter"
            ]
        }
    },
    "effects": [],
    "flags": {},
    "img": "systems/pf2e/icons/features/feats/feats.webp",
    "name": "Improved Dueling Riposte",
    "type": "feat"
}
