{
    "_id": "DGO6kyjw2bQG7dbY",
    "data": {
        "actionCategory": {
            "value": ""
        },
        "actionType": {
            "value": "action"
        },
        "actions": {
            "value": 2
        },
        "description": {
            "value": "<p>By spending a moment to focus, you can ensure your attack strikes true.</p>\n<p>Make a ranged weapon Strike. On this Strike, you gain a +2 circumstance bonus to the attack roll and ignore the target's @Compendium[pf2e.conditionitems.Concealed]{Concealed} condition.</p>"
        },
        "featType": {
            "value": "class"
        },
        "level": {
            "value": 8
        },
        "location": "",
        "prerequisites": {
            "value": []
        },
        "rules": [
            {
                "key": "ToggleProperty",
                "label": "Incredible Aim",
                "property": "flags.pf2e.rollOptions.attack-roll.incredible-aim"
            },
            {
                "key": "FlatModifier",
                "predicate": {
                    "all": [
                        "ranged",
                        "incredible-aim"
                    ]
                },
                "selector": "attack",
                "type": "circumstance",
                "value": 2
            },
            {
                "key": "Note",
                "predicate": {
                    "all": [
                        "incredible-aim"
                    ]
                },
                "selector": "attack",
                "text": "<p class='compact-text'><strong>{item|name}</strong> You ignore the target's @Compendium[pf2e.conditionitems.Concealed]{Concealed} condition.</p>"
            }
        ],
        "source": {
            "value": "Pathfinder Core Rulebook"
        },
        "traits": {
            "custom": "",
            "rarity": {
                "value": "common"
            },
            "value": [
                "concentrate",
                "fighter"
            ]
        }
    },
    "effects": [],
    "flags": {},
    "img": "systems/pf2e/icons/features/feats/feats.webp",
    "name": "Incredible Aim",
    "type": "feat"
}
