{
    "_id": "HJBDFHIaJ3lfxcbs",
    "data": {
        "actionCategory": {
            "value": "offensive"
        },
        "actionType": {
            "value": "free"
        },
        "actions": {
            "value": null
        },
        "description": {
            "value": "<p><strong>Trigger</strong> You begin to Cast a Spell that requires at least 2 actions to cast.</p>\n<p>You instantly tap into the magical power of a spell you're casting to quickly pounce around the battlefield. You @Compendium[pf2e.actionspf2e.Step]{Step}, @Compendium[pf2e.actionspf2e.Leap]{Leap}, or @Compendium[pf2e.actionspf2e.Stand]{Stand}. This action can be before or after you Cast the Spell.</p>"
        },
        "featType": {
            "value": "archetype"
        },
        "level": {
            "value": 12
        },
        "location": "",
        "prerequisites": {
            "value": [
                {
                    "value": "Sixth Pillar Dedication"
                }
            ]
        },
        "rules": [],
        "source": {
            "value": "Pathfinder #167: Ready? Fight!"
        },
        "traits": {
            "custom": "",
            "rarity": {
                "value": "common"
            },
            "value": [
                "archetype"
            ]
        }
    },
    "effects": [],
    "flags": {},
    "img": "systems/pf2e/icons/default-icons/feats.webp",
    "name": "Maneuvering Spell",
    "type": "feat"
}
