{
    "_id": "lIg5Gzz7W70jfbk1",
    "data": {
        "actionCategory": {
            "value": ""
        },
        "actionType": {
            "value": "passive"
        },
        "actions": {
            "value": null
        },
        "description": {
            "value": "<p>Your scroll collection is incredible, brimming with eldritch power, and you can prepare far more of them than an ordinary scroll trickster.</p>\n<p>In addition to your daily scrolls from the Basic and Expert Scroll Caches, add a single scroll with a 6th-level spell. At 20th level, add a scroll with a 7th-level spell.</p>"
        },
        "featType": {
            "value": "archetype"
        },
        "level": {
            "value": 18
        },
        "prerequisites": {
            "value": [
                {
                    "value": "Expert Scroll Cache"
                }
            ]
        },
        "rules": [],
        "source": {
            "value": "Pathfinder Advanced Player's Guide"
        },
        "traits": {
            "custom": "",
            "rarity": {
                "value": "common"
            },
            "value": [
                "archetype"
            ]
        }
    },
    "effects": [],
    "flags": {},
    "img": "systems/pf2e/icons/features/feats/feats.webp",
    "name": "Master Scroll Cache",
    "type": "feat"
}
