{
    "_id": "ZL5UU9quCTvcWzfY",
    "data": {
        "actionCategory": {
            "value": ""
        },
        "actionType": {
            "value": "action"
        },
        "actions": {
            "value": 1
        },
        "description": {
            "value": "<p><strong>Requirements</strong> You are unarmored and touching the ground</p>\n<hr />\n<p>You enter the stance of an implacable mountain-a technique first created by dwarven monks-allowing you to strike with the weight of an avalanche and block blows with your garments.</p>\n<p>The only Strikes you can make are falling stone unarmed attacks. These deal 1d8 bludgeoning damage; are in the brawling group; and have the forceful, nonlethal, and unarmed traits.</p>\n<p>While in Mountain Stance, you gain a +4 item bonus to AC and a +2 circumstance bonus to any defenses against being Shoved or Tripped. You have a Dexterity modifier cap to your AC of +0, meaning you don't add your Dexterity to your AC, and your Speeds are all reduced by 5 feet. The item bonus to AC from Mountain Stance is cumulative with armor potency runes on your @Compendium[pf2e.equipment-srd.Clothing (Explorer's)]{Clothing (Explorer's)}, <em>@Compendium[pf2e.spells-srd.Mage Armor]{Mage Armor}</em>, and bracers of armor.</p>\n<p>@Compendium[pf2e.pf2e-macros.Toggle Mountain Stance]{Toggle Mountain Stance}</p>"
        },
        "featType": {
            "value": "class"
        },
        "level": {
            "value": 1
        },
        "location": "",
        "prerequisites": {
            "value": []
        },
        "rules": [],
        "source": {
            "value": "Pathfinder Core Rulebook"
        },
        "traits": {
            "custom": "",
            "rarity": {
                "value": "common"
            },
            "value": [
                "monk",
                "stance"
            ]
        }
    },
    "effects": [],
    "flags": {},
    "img": "systems/pf2e/icons/features/feats/feats.webp",
    "name": "Mountain Stance",
    "type": "feat"
}
