{
    "_id": "2rSyTfPgAmNAo01r",
    "data": {
        "actionCategory": {
            "value": ""
        },
        "actionType": {
            "value": "free"
        },
        "actions": {
            "value": null
        },
        "description": {
            "value": "<p>You recognize spells swiftly.</p>\n<p>Once per round, you can @Compendium[pf2e.feats-srd.Recognize Spell]{Recognize Spell} using a skill in which you're a master as a free action.</p>"
        },
        "featType": {
            "value": "skill"
        },
        "level": {
            "value": 7
        },
        "location": "",
        "prerequisites": {
            "value": [
                {
                    "value": "Master in Arcana, Nature, Occultism or Religion"
                },
                {
                    "value": "Recognize Spell"
                }
            ]
        },
        "rules": [],
        "source": {
            "value": "Pathfinder Core Rulebook"
        },
        "traits": {
            "custom": "",
            "rarity": {
                "value": "common"
            },
            "value": [
                "general",
                "skill"
            ]
        }
    },
    "effects": [],
    "flags": {},
    "img": "systems/pf2e/icons/features/feats/feats.webp",
    "name": "Quick Recognition",
    "type": "feat"
}
