{
    "_id": "pRqcm5P2ZFihSpVI",
    "data": {
        "actionCategory": {
            "value": ""
        },
        "actionType": {
            "value": "passive"
        },
        "actions": {
            "value": null
        },
        "description": {
            "value": "<p>You can bring your shield into place with hardly a thought. At the start of each of your turns, you gain an additional reaction that you can use only to @Compendium[pf2e.feats-srd.Shield Block]{Shield Block}.</p>"
        },
        "featType": {
            "value": "class"
        },
        "level": {
            "value": 8
        },
        "prerequisites": {
            "value": [
                {
                    "value": "shield block"
                },
                {
                    "value": "Reactive Shield"
                }
            ]
        },
        "rules": [],
        "source": {
            "value": "Pathfinder Core Rulebook"
        },
        "traits": {
            "custom": "",
            "rarity": {
                "value": "common"
            },
            "value": [
                "fighter"
            ]
        }
    },
    "effects": [],
    "flags": {},
    "img": "systems/pf2e/icons/features/feats/feats.webp",
    "name": "Quick Shield Block",
    "type": "feat"
}
