{
    "_id": "9eaUS0jJCpxuNXO5",
    "data": {
        "actionCategory": {
            "value": ""
        },
        "actionType": {
            "value": "free"
        },
        "actions": {
            "value": null
        },
        "description": {
            "value": "<p><strong>Trigger</strong> You use Orc Ferocity.</p>\n<hr />\n<p>You lash out viciously even as you fend off death. Make a single melee Strike. If this Strike brings a foe to 0 Hit Points, this activation of Orc Ferocity doesn't count against its frequency.</p>"
        },
        "featType": {
            "value": "ancestry"
        },
        "level": {
            "value": 17
        },
        "prerequisites": {
            "value": [
                {
                    "value": "Orc Ferocity"
                }
            ]
        },
        "rules": [],
        "source": {
            "value": "Pathfinder Advanced Player's Guide"
        },
        "traits": {
            "custom": "",
            "rarity": {
                "value": "common"
            },
            "selected": {
                "orc": "Orc"
            },
            "value": [
                "orc"
            ]
        }
    },
    "effects": [],
    "flags": {},
    "img": "systems/pf2e/icons/features/feats/feats.webp",
    "name": "Rampaging Ferocity",
    "type": "feat"
}
