{
    "_id": "Kz4E8heU12IGcYoi",
    "data": {
        "actionCategory": {
            "value": ""
        },
        "actionType": {
            "value": "passive"
        },
        "actions": {
            "value": null
        },
        "description": {
            "value": "<p>You can cast <em>@Compendium[pf2e.spells-srd.Resist Energy]{Resist Energy}</em> twice per day as a divine innate spell, except you can target only yourself. If you grant yourself resistance to fire damage, the resistance is equal to either the spell's normal value or to your level, whichever is higher.</p>"
        },
        "featType": {
            "value": "bonus"
        },
        "level": {
            "value": 0
        },
        "location": "",
        "prerequisites": {
            "value": [
                {
                    "value": "Order of the Pyre"
                }
            ]
        },
        "rules": [],
        "source": {
            "value": ""
        },
        "traits": {
            "custom": "",
            "rarity": {
                "value": "common"
            },
            "value": []
        }
    },
    "effects": [],
    "flags": {},
    "img": "systems/pf2e/icons/default-icons/feat.svg",
    "name": "Righteous Resistance",
    "type": "feat"
}
