{
    "_id": "RivbJYEBUyfLwPh7",
    "data": {
        "actionCategory": {
            "value": ""
        },
        "actionType": {
            "value": "passive"
        },
        "actions": {
            "value": null
        },
        "description": {
            "value": "<p>You fight fiercely to protect your crop. When you hit a creature that is adjacent to two or more members of your crop with a weapon or unarmed attack, you gain a circumstance bonus to your damage roll equal to the number of weapon damage dice. When you hit a creature who has a member of your crop grabbed, that member can attempt to Escape using a reaction.a</p>"
        },
        "featType": {
            "value": "archetype"
        },
        "level": {
            "value": 8
        },
        "prerequisites": {
            "value": [
                {
                    "value": "Bellflower Dedication"
                }
            ]
        },
        "rules": [],
        "source": {
            "value": "Pathfinder #147: Tomorrow Must Burn"
        },
        "traits": {
            "custom": "",
            "rarity": {
                "value": "common"
            },
            "value": [
                "archetype"
            ]
        }
    },
    "effects": [],
    "flags": {},
    "img": "systems/pf2e/icons/features/feats/feats.webp",
    "name": "Scarecrow",
    "type": "feat"
}
