{
    "_id": "XafnXTx9Bn0kN1RG",
    "data": {
        "actionCategory": {
            "value": ""
        },
        "actionType": {
            "value": "passive"
        },
        "actions": {
            "value": null
        },
        "description": {
            "value": "<p>When your target proves resilient to your magical deceptions, you can try them again on someone else. When you cast an enchantment spell that targets one creature and that creature critically succeeds at its Will save, you can Cast the Spell again before the end of your next turn on a different creature without expending an additional spell slot. The second casting doesn't grant you any benefits that you would normally gain for Casting a Spell from a spell slot.</p>"
        },
        "featType": {
            "value": "class"
        },
        "level": {
            "value": 18
        },
        "prerequisites": {
            "value": []
        },
        "rules": [],
        "source": {
            "value": "Pathfinder Advanced Player's Guide"
        },
        "traits": {
            "custom": "",
            "rarity": {
                "value": "common"
            },
            "value": [
                "enchantment",
                "wizard"
            ]
        }
    },
    "effects": [],
    "flags": {},
    "img": "systems/pf2e/icons/features/feats/feats.webp",
    "name": "Second Chance Spell",
    "type": "feat"
}
