{
    "_id": "BqcAwmNjDlKEI84X",
    "data": {
        "actionCategory": {
            "value": ""
        },
        "actionType": {
            "value": "passive"
        },
        "actions": {
            "value": null
        },
        "description": {
            "value": "<p>The shadows protect you better than any armor can, and they give you power to plunge others into darkness.</p>\n<p>Whenever you are in an area of dim light or darkness, you gain resistance 5 to all damage except force and damage from @Compendium[pf2e.actionspf2e.Strike]{Strikes} with the @Compendium[pf2e.equipment-srd.Ghost Touch]{Ghost Touch} property rune.</p>\n<p>When you attempt a Reflex saving throw in an area of dim light or darkness, you can roll twice and take the higher result; this is a fortune effect.</p>"
        },
        "featType": {
            "value": "archetype"
        },
        "level": {
            "value": 18
        },
        "prerequisites": {
            "value": [
                {
                    "value": "Shadowdancer Dedication"
                }
            ]
        },
        "rules": [],
        "source": {
            "value": "Pathfinder Advanced Player's Guide"
        },
        "traits": {
            "custom": "",
            "rarity": {
                "value": "common"
            },
            "value": [
                "archetype"
            ]
        }
    },
    "effects": [],
    "flags": {},
    "img": "systems/pf2e/icons/features/feats/feats.webp",
    "name": "Shadow Master",
    "type": "feat"
}
