{
    "_id": "oUcB71V1jVaM8SFx",
    "data": {
        "actionCategory": {
            "value": ""
        },
        "actionType": {
            "value": "passive"
        },
        "actions": {
            "value": null
        },
        "description": {
            "value": "<p>In the triumph of battle, you can share the glory with another ally.</p>\n<p>When the ally you chose for Courageous Assault critically succeeds at the @Compendium[pf2e.actionspf2e.Strike]{Strike} granted by that action, another ally affected by your <em>@Compendium[pf2e.spells-srd.Inspire Courage]{Inspire Courage}</em> composition spell can immediately use a reaction to make a melee Strike.</p>\n<p>Since the second ally wasn't the ally you chose for Courageous Assault, this effect doesn't continue to a third ally, even if the second ally also critically succeeds at their Strike.</p>"
        },
        "featType": {
            "value": "class"
        },
        "level": {
            "value": 12
        },
        "prerequisites": {
            "value": [
                {
                    "value": "Courageous Assault"
                }
            ]
        },
        "rules": [],
        "source": {
            "value": "Pathfinder Advanced Player's Guide"
        },
        "traits": {
            "custom": "",
            "rarity": {
                "value": "common"
            },
            "value": [
                "bard"
            ]
        }
    },
    "effects": [],
    "flags": {},
    "img": "systems/pf2e/icons/features/feats/feats.webp",
    "name": "Shared Assault",
    "type": "feat"
}
