{
    "_id": "Aqhsx5duEpBgaPB0",
    "data": {
        "actionCategory": {
            "value": ""
        },
        "actionType": {
            "value": "passive"
        },
        "actions": {
            "value": null
        },
        "description": {
            "value": "<p>Hunting as a duo, you and your ally both single out your prey. When you use @Compendium[pf2e.actionspf2e.Hunt Prey]{Hunt Prey} and select only one prey, you can grant your Hunt Prey benefits and @Compendium[pf2e.classfeatures.Hunter's Edge]{Hunter's Edge} to an ally in addition to gaining them yourself. The ally retains these benefits until you use Hunt Prey again.</p>\n<ul>\n<li>@Compendium[pf2e.feat-effects.Effect: Hunter's Edge, Flurry]{Effect: Hunter's Edge, Flurry}</li>\n<li>@Compendium[pf2e.feat-effects.Effect: Hunter's Edge, Outwit]{Effect: Hunter's Edge, Outwit}</li>\n<li>@Compendium[pf2e.feat-effects.Effect: Hunter's Edge, Precision]{Effect: Hunter's Edge, Precision}</li>\n</ul>"
        },
        "featType": {
            "value": "class"
        },
        "level": {
            "value": 14
        },
        "location": "",
        "prerequisites": {
            "value": [
                {
                    "value": "Double Prey"
                },
                {
                    "value": "Warden's Boon"
                }
            ]
        },
        "rules": [],
        "source": {
            "value": "Pathfinder Core Rulebook"
        },
        "traits": {
            "custom": "",
            "rarity": {
                "value": "common"
            },
            "value": [
                "ranger"
            ]
        }
    },
    "effects": [],
    "flags": {},
    "img": "systems/pf2e/icons/features/feats/feats.webp",
    "name": "Shared Prey",
    "type": "feat"
}
