{
    "_id": "q2t5qfgQHFJbbV8d",
    "data": {
        "actionCategory": {
            "value": "interaction"
        },
        "actionType": {
            "value": "action"
        },
        "actions": {
            "value": 1
        },
        "description": {
            "value": "<p><strong>Access</strong> member of the Magaambya</p>\n<p><strong>Requirements</strong> You have an active spell that affects an area and you are within the spell's range.</p>\n<hr />\n<p>You move the spell's area to a new location within 120 feet. The spell's remaining duration is reduced by half. The spell no longer affects its previous area.</p>"
        },
        "featType": {
            "value": "class"
        },
        "level": {
            "value": 14
        },
        "location": "",
        "prerequisites": {
            "value": []
        },
        "rules": [],
        "source": {
            "value": "Pathfinder #167: Ready? Fight!"
        },
        "traits": {
            "custom": "",
            "rarity": {
                "value": "common"
            },
            "value": [
                "wizard"
            ]
        }
    },
    "effects": [],
    "flags": {},
    "img": "systems/pf2e/icons/default-icons/feats.webp",
    "name": "Shift Spell",
    "type": "feat"
}
