{
    "_id": "sFAqKrzqXQhtrfqN",
    "data": {
        "actionCategory": {
            "value": ""
        },
        "actionType": {
            "value": "passive"
        },
        "actions": {
            "value": null
        },
        "description": {
            "value": "<p>Your greater discipline aligns your magical and physical potential. If your proficiency rank in unarmed attacks is at least master, your proficiency rank in spell attacks increases to master. Likewise, if your proficiency rank in spell attacks is at least master, your proficiency rank in unarmed attacks improves to master.</p>"
        },
        "featType": {
            "value": "archetype"
        },
        "level": {
            "value": 16
        },
        "location": "",
        "prerequisites": {
            "value": [
                {
                    "value": "Sixth Pillar Dedication"
                }
            ]
        },
        "rules": [],
        "source": {
            "value": "Pathfinder #167: Ready? Fight!"
        },
        "traits": {
            "custom": "",
            "rarity": {
                "value": "common"
            },
            "value": [
                "archetype"
            ]
        }
    },
    "effects": [],
    "flags": {},
    "img": "systems/pf2e/icons/default-icons/feats.webp",
    "name": "Sixth Pillar Mastery",
    "type": "feat"
}
