{
    "_id": "gZrlze9HlRYEQNBG",
    "data": {
        "actionCategory": {
            "value": ""
        },
        "actionType": {
            "value": "reaction"
        },
        "actions": {
            "value": null
        },
        "description": {
            "value": "<p><strong>Trigger</strong> An attack you made with a soulforged weapon or shield misses a creature, or a creature hits you with an attack while you're either wearing manifested soulforged armor or have your soulforged shield raised.</p>\n<p><strong>Requirements</strong> Your soulforged armament is manifested.</p>\n<hr />\n<p>You strive to change the outcome with sheer zeal. You gain a +1 status bonus to your attack roll if making an attack or to your AC if you were hit. This can change the outcome of the roll. If this bonus turns your missed attack into a hit or the hit against you into a miss, attempt a DC 5 flat check. If you fail, your soulforged armament is Dismissed-your weapon if you attacked or your armor or shield if you were defending.</p>"
        },
        "featType": {
            "value": "archetype"
        },
        "level": {
            "value": 4
        },
        "location": "",
        "prerequisites": {
            "value": [
                {
                    "value": "Soulforger Dedication"
                }
            ]
        },
        "rules": [],
        "source": {
            "value": ""
        },
        "traits": {
            "custom": "",
            "rarity": {
                "value": "common"
            },
            "value": [
                "archetype",
                "concentrate"
            ]
        }
    },
    "effects": [],
    "flags": {},
    "img": "systems/pf2e/icons/default-icons/feat.svg",
    "name": "Soul Flare",
    "type": "feat"
}
