{
    "_id": "FBtm9rZzk0tCQu9H",
    "data": {
        "actionCategory": {
            "value": ""
        },
        "actionType": {
            "value": "action"
        },
        "actions": {
            "value": 2
        },
        "description": {
            "value": "<p>You touch a creature with the minion trait and share the heightened sense of autonomy you've discovered. The minion is @Compendium[pf2e.conditionitems.Quickened]{Quickened} for 1 round and is then temporarily immune for 10 minutes. It can use this extra action to Step, Stride, or Strike.</p>"
        },
        "featType": {
            "value": "ancestry"
        },
        "level": {
            "value": 5
        },
        "location": "",
        "prerequisites": {
            "value": []
        },
        "rules": [],
        "source": {
            "value": ""
        },
        "traits": {
            "custom": "",
            "rarity": {
                "value": "common"
            },
            "value": [
                "poppet"
            ]
        }
    },
    "effects": [],
    "flags": {},
    "img": "systems/pf2e/icons/default-icons/feats.webp",
    "name": "Spark of Independence",
    "type": "feat"
}
