{
    "_id": "BwDIwjHasZwcd61Z",
    "data": {
        "actionCategory": {
            "value": ""
        },
        "actionType": {
            "value": "passive"
        },
        "actions": {
            "value": null
        },
        "description": {
            "value": "<p>You've steeped yourself in magic and gunplay to the extent that you can conjure bullets from thin air, using a rudimentary knowledge of arcane theory to create a temporary piece of ammunition. You gain the @Compendium[pf2e.actionspf2e.Conjure Bullet]{Conjure Bullet} action.</p>\n<p><strong>Special</strong> You can't select another dedication feat other than Beast Gunner Dedication until you've gained two other feats from the spellshot or beast gunner archetypes.</p>"
        },
        "featType": {
            "value": "archetype"
        },
        "level": {
            "value": 2
        },
        "location": "",
        "prerequisites": {
            "value": [
                {
                    "value": "way of the spellshot"
                }
            ]
        },
        "rules": [],
        "source": {
            "value": ""
        },
        "traits": {
            "custom": "",
            "rarity": {
                "value": "common"
            },
            "value": [
                "archetype",
                "class",
                "dedication"
            ]
        }
    },
    "effects": [],
    "flags": {},
    "img": "systems/pf2e/icons/default-icons/feats.webp",
    "name": "Spellshot Dedication",
    "type": "feat"
}
