{
    "_id": "MwozkE6aj42WZ7Z1",
    "data": {
        "actionCategory": {
            "value": ""
        },
        "actionType": {
            "value": "passive"
        },
        "actions": {
            "value": null
        },
        "description": {
            "value": "<p>You've trained your animal companion to blend in to its surroundings. Your animal companion gains the benefit of the @Compendium[pf2e.feats-srd.Camouflage]{Camouflage} feat. If your companion is a specialized ambusher, its proficiency rank for Stealth increases to master (or legendary if it was already master).</p>"
        },
        "featType": {
            "value": "class"
        },
        "level": {
            "value": 14
        },
        "location": "",
        "prerequisites": {
            "value": [
                {
                    "value": "Camouflage"
                },
                {
                    "value": "an animal companion"
                }
            ]
        },
        "rules": [],
        "source": {
            "value": "Pathfinder Core Rulebook"
        },
        "traits": {
            "custom": "",
            "rarity": {
                "value": "common"
            },
            "value": [
                "ranger"
            ]
        }
    },
    "effects": [],
    "flags": {},
    "img": "systems/pf2e/icons/features/feats/feats.webp",
    "name": "Stealthy Companion",
    "type": "feat"
}
