{
    "_id": "banx3uX4JjjcHEc8",
    "data": {
        "actionCategory": {
            "value": ""
        },
        "actionType": {
            "value": "passive"
        },
        "actions": {
            "value": null
        },
        "description": {
            "value": "<p>Your senses are peerless. You gain a +2 circumstance bonus to Perception checks, and you gain low-light vision. If you already have low-light vision, gain darkvision instead.</p>\n<p>Furthermore, when you target an enemy, you automatically succeed at the flat check if that enemy is @Compendium[pf2e.conditionitems.Concealed]{Concealed}, @Compendium[pf2e.conditionitems.Hidden]{Hidden}, or @Compendium[pf2e.conditionitems.Undetected]{Undetected}.</p>\n<hr />\n<p><em>Note: this version of the feat grants low-light vision automatically.</em></p>"
        },
        "featType": {
            "value": "class"
        },
        "level": {
            "value": 20
        },
        "location": "",
        "prerequisites": {
            "value": []
        },
        "rules": [
            {
                "key": "FlatModifier",
                "label": "Superior Sight",
                "selector": "perception",
                "type": "circumstance",
                "value": 2
            },
            {
                "key": "Sense",
                "label": "PF2E.SensesLowLightVision",
                "selector": "lowLightVision"
            }
        ],
        "source": {
            "value": ""
        },
        "traits": {
            "custom": "",
            "rarity": {
                "value": "uncommon"
            },
            "value": [
                "ranger"
            ]
        }
    },
    "effects": [],
    "flags": {},
    "img": "systems/pf2e/icons/features/feats/feats.webp",
    "name": "Superior Sight (Low-Light Vision)",
    "type": "feat"
}
