{
    "_id": "lTwi4lyVk1UXomhK",
    "data": {
        "actionCategory": {
            "value": "offensive"
        },
        "actionType": {
            "value": "free"
        },
        "actions": {
            "value": null
        },
        "description": {
            "value": "<p><strong>Trigger</strong> You Cast a Spell using a spell slot.</p>\n<p><strong>Requirements</strong> You're in Arcane Cascade stance.</p>\n<hr />\n<p>You pull magic into your weapon, using its substance to transform the magic into restorative energy. You regain Hit Points equal to double the spell's level and roll to end any @Compendium[pf2e.conditionitems.Persistent Damage]{Persistent Negative Damage} you have.</p>\n<p>If the spell was of the necromancy school, any persistent negative damage you have ends automatically, and you can change the damage type from Arcane Cascade to positive if you wish. (Positive damage typically damages only undead or other creatures with @Compendium[pf2e.bestiary-ability-glossary-srd.Negative Healing]{Negative Healing}.)</p>"
        },
        "featType": {
            "value": "class"
        },
        "level": {
            "value": 10
        },
        "location": "",
        "prerequisites": {
            "value": [
                {
                    "value": "Arcane Cascade"
                },
                {
                    "value": "inexorable iron hybrid study"
                }
            ]
        },
        "rules": [],
        "source": {
            "value": ""
        },
        "traits": {
            "custom": "",
            "rarity": {
                "value": "common"
            },
            "value": [
                "arcane",
                "healing",
                "magus",
                "necromancy",
                "positive"
            ]
        }
    },
    "effects": [],
    "flags": {},
    "img": "systems/pf2e/icons/features/feats/feats.webp",
    "name": "Sustaining Steel",
    "type": "feat"
}
