{
    "_id": "eAlrvPVb8qt8Lruw",
    "data": {
        "actionCategory": {
            "value": ""
        },
        "actionType": {
            "value": "passive"
        },
        "actions": {
            "value": null
        },
        "description": {
            "value": "<p>Choose a swashbuckler style. You gain the @Compendium[pf2e.classfeatures.Panache]{Panache} class feature, and you can gain panache in all the ways a swashbuckler of your style can.</p>\n<p>You become trained in Acrobatics or the skill associated with your style. If you were already trained in both skills, you instead become trained in a skill of your choice. You also become trained in swashbuckler class DC. You don't gain any other effects of your chosen style.</p>\n<hr />\n<p><strong>Special</strong> You can't select another dedication feat until you have gained two other feats from the swashbuckler archetype.</p>"
        },
        "featType": {
            "value": "archetype"
        },
        "level": {
            "value": 2
        },
        "location": "",
        "prerequisites": {
            "value": [
                {
                    "value": "Charisma 14"
                },
                {
                    "value": "Dexterity 14"
                }
            ]
        },
        "rules": [
            {
                "key": "ActiveEffectLike",
                "mode": "upgrade",
                "path": "flags.pf2e.rollOptions.all.swashbuckler-dedication",
                "value": 1
            }
        ],
        "source": {
            "value": "Pathfinder Advanced Player's Guide"
        },
        "traits": {
            "custom": "",
            "rarity": {
                "value": "common"
            },
            "value": [
                "archetype",
                "dedication",
                "multiclass"
            ]
        }
    },
    "effects": [],
    "flags": {},
    "img": "systems/pf2e/icons/features/feats/feats.webp",
    "name": "Swashbuckler Dedication",
    "type": "feat"
}
