{
    "_id": "FrzskqwNWexKY5BA",
    "data": {
        "actionCategory": {
            "value": ""
        },
        "actionType": {
            "value": "passive"
        },
        "actions": {
            "value": null
        },
        "description": {
            "value": "<p>You can take advantage of the terrain to bypass foes' defenses. Non-lizardfolk creatures in difficult terrain are @Compendium[pf2e.conditionitems.Flat-Footed]{Flat-Footed}to you. If you have a swim Speed, non-lizardfolk creatures that are in water and lack a swim Speed are also flat-footed to you.</p>"
        },
        "featType": {
            "value": "ancestry"
        },
        "level": {
            "value": 9
        },
        "prerequisites": {
            "value": []
        },
        "rules": [],
        "source": {
            "value": "Pathfinder Lost Omens: Character Guide"
        },
        "traits": {
            "custom": "",
            "rarity": {
                "value": "common"
            },
            "value": [
                "lizardfolk"
            ]
        }
    },
    "effects": [],
    "flags": {},
    "img": "systems/pf2e/icons/features/feats/feats.webp",
    "name": "Terrain Advantage",
    "type": "feat"
}
