{
    "_id": "wTT8ieLvfWsZZaWT",
    "data": {
        "actionCategory": {
            "value": ""
        },
        "actionType": {
            "value": "passive"
        },
        "actions": {
            "value": null
        },
        "description": {
            "value": "<p>You're good with your hands and can quickly improvise a fix for broken or damaged equipment. You're trained in Crafting. If you would automatically become trained in Crafting (from your background or class, for example), you instead become trained in a skill of your choice. You can @Compendium[pf2e.actionspf2e.Repair]{Repair} an item without using a repair kit without taking the -2 circumstance penalty, improvising tools from whatever you have at hand.</p>"
        },
        "featType": {
            "value": "ancestry"
        },
        "level": {
            "value": 1
        },
        "prerequisites": {
            "value": []
        },
        "rules": [],
        "source": {
            "value": "Pathfinder Advanced Player's Guide"
        },
        "traits": {
            "custom": "",
            "rarity": {
                "value": "common"
            },
            "value": [
                "ratfolk"
            ]
        }
    },
    "effects": [],
    "flags": {},
    "img": "systems/pf2e/icons/features/feats/feats.webp",
    "name": "Tinkering Fingers",
    "type": "feat"
}
