{
    "_id": "uudiUylT09WnHN7e",
    "data": {
        "actionCategory": {
            "value": ""
        },
        "actionType": {
            "value": "passive"
        },
        "actions": {
            "value": null
        },
        "description": {
            "value": "<p>Your perceptive abilities and ability to process sensory information are so far beyond the pale that you notice minute discrepancies in all sorts of illusions and transmutations. You are constantly under the effects of a 6th-level <em>@Compendium[pf2e.spells-srd.True Seeing]{True Seeing}</em> spell, using your Perception modifier for the counteract check.</p>"
        },
        "featType": {
            "value": "general"
        },
        "level": {
            "value": 19
        },
        "prerequisites": {
            "value": [
                {
                    "value": "legendary in Perception"
                }
            ]
        },
        "rules": [],
        "source": {
            "value": "Pathfinder Advanced Player's Guide"
        },
        "traits": {
            "custom": "",
            "rarity": {
                "value": "common"
            },
            "value": [
                "general",
                "revelation"
            ]
        }
    },
    "effects": [],
    "flags": {},
    "img": "systems/pf2e/icons/features/feats/feats.webp",
    "name": "True Perception",
    "type": "feat"
}
