{
    "_id": "Yazy4gex46FLwsph",
    "data": {
        "actionCategory": {
            "value": ""
        },
        "actionType": {
            "value": "free"
        },
        "actions": {
            "value": null
        },
        "description": {
            "value": "<p><strong>Frequency</strong> once per minute</p>\n<p><strong>Requirements</strong> Your most recent action was to @Compendium[pf2e.actionspf2e.Tumble Through]{Tumble Through}</p>\n<p>or @Compendium[pf2e.feats-srd.Tumbling Strike]{Tumbling Strike}, and you successfully moved through an</p>\n<p>enemy's space.</p>\n<hr />\n<p>You use a burst of stamina to perform a breathtaking feat of Acrobatics as you speed through a foe's space, leaving your foe lying flat on their back. You attempt to @Compendium[pf2e.actionspf2e.Trip]{Trip} the enemy whose space you moved through. You can use Acrobatics instead of Athletics for this check.</p>"
        },
        "featType": {
            "value": "archetype"
        },
        "level": {
            "value": 10
        },
        "location": "",
        "prerequisites": {
            "value": [
                {
                    "value": "Acrobat Dedication"
                }
            ]
        },
        "rules": [],
        "source": {
            "value": "Pathfinder Advanced Player's Guide"
        },
        "traits": {
            "custom": "",
            "rarity": {
                "value": "common"
            },
            "value": [
                "archetype",
                "attack"
            ]
        }
    },
    "effects": [],
    "flags": {},
    "img": "systems/pf2e/icons/features/feats/feats.webp",
    "name": "Tumbling Opportunist",
    "type": "feat"
}
