{
    "_id": "my4uFR8cnDC4mJE2",
    "data": {
        "actionCategory": {
            "value": ""
        },
        "actionType": {
            "value": "action"
        },
        "actions": {
            "value": 1
        },
        "description": {
            "value": "<p>You tell a quick story or begin telling a longer tale. This is most useful when you want to prove your scholarly credibility or impress someone quickly. Roll a check with a skill that can be used to Recall Knowledge in which you have expert proficiency, using the result entry for the Perform action. Like Performing, Storytelling rarely has an effect on its own, but it might influence the DCs of subsequent Diplomacy checks against the observers-or even change their attitudes-if the GM sees fit. This action is not a Performance and cannot be used in place of anything that requires you to Perform.</p>"
        },
        "featType": {
            "value": "archetype"
        },
        "level": {
            "value": 6
        },
        "prerequisites": {
            "value": [
                {
                    "value": "Magaambyuan Attendant Dedication"
                },
                {
                    "value": "Uzunjati affiliation"
                },
                {
                    "value": "master in a Recall Knowledge skill"
                }
            ]
        },
        "rules": [],
        "source": {
            "value": "Pathfinder Lost Omens: Character Guide"
        },
        "traits": {
            "custom": "",
            "rarity": {
                "value": "common"
            },
            "value": [
                "archetype",
                "concentrate",
                "skill"
            ]
        }
    },
    "effects": [],
    "flags": {},
    "img": "systems/pf2e/icons/features/feats/feats.webp",
    "name": "Uzunjati Storytelling",
    "type": "feat"
}
