{
    "_id": "qPFWEyihvbWsCcUv",
    "data": {
        "actionCategory": {
            "value": ""
        },
        "actionType": {
            "value": "passive"
        },
        "actions": {
            "value": null
        },
        "description": {
            "value": "<p>You cultivate a seed that can sprout into a wooden staff, vine whip, or another weapon.</p>\n<p>You spend 10 minutes focusing primal energy into a seed, imprinting it with the potential of a single level 0 weapon you are trained with and that has no mechanical parts or metal components.</p>\n<p>When holding the imprinted seed, you can spend a single @Compendium[pf2e.actionspf2e.Interact]{Interact} action to cause it to immediately grow into that weapon; a second Interact action returns it to seed form. Your verdant weapon functions as the imprinted weapon and can be etched with runes or affixed with talismans as normal, which are suppressed when the weapon is in seed form. It also becomes a primal focus.</p>\n<p>You can have only one verdant seed at a time. If you prepare a second, your first verdant seed immediately becomes a mundane specimen; any runes on the previous seed that are valid for the new seed transfer between them at no cost, but you lose any inapplicable runes unless you transfer them to a @Compendium[pf2e.equipment-srd.Runestone]{Runestone} or another weapon.</p>"
        },
        "featType": {
            "value": "class"
        },
        "level": {
            "value": 1
        },
        "prerequisites": {
            "value": []
        },
        "rules": [],
        "source": {
            "value": "Pathfinder Advanced Player's Guide"
        },
        "traits": {
            "custom": "",
            "rarity": {
                "value": "common"
            },
            "value": [
                "druid",
                "exploration"
            ]
        }
    },
    "effects": [],
    "flags": {},
    "img": "systems/pf2e/icons/features/feats/feats.webp",
    "name": "Verdant Weapon",
    "type": "feat"
}
