{
    "_id": "i3hALsjbjk9FdbGN",
    "data": {
        "actionCategory": {
            "value": "offensive"
        },
        "actionType": {
            "value": "action"
        },
        "actions": {
            "value": 2
        },
        "description": {
            "value": "<p>You make a vicious strike that maims your enemy. Make a melee Strike. If the Strike hits and deals damage, the target is @Compendium[pf2e.conditionitems.Drained]{Drained 1}, or @Compendium[pf2e.conditionitems.Drained]{Drained 2} on a critical success.</p>"
        },
        "featType": {
            "value": "class"
        },
        "level": {
            "value": 18
        },
        "location": "",
        "prerequisites": {
            "value": []
        },
        "rules": [],
        "source": {
            "value": "Pathfinder Core Rulebook"
        },
        "traits": {
            "custom": "",
            "rarity": {
                "value": "common"
            },
            "value": [
                "barbarian",
                "rage"
            ]
        }
    },
    "effects": [],
    "flags": {},
    "img": "systems/pf2e/icons/default-icons/feats.webp",
    "name": "Vicious Evisceration",
    "type": "feat"
}
