{
    "_id": "UsEGem9s9ElaTS0d",
    "data": {
        "actionCategory": {
            "value": ""
        },
        "actionType": {
            "value": "passive"
        },
        "actions": {
            "value": null
        },
        "description": {
            "value": "<p>You easily command the attention of others, and when the time comes to turn threats into action, your authoritative voice causes foes to falter.</p>\n<p>Your voice be heard easily by any creatures within 300 feet if you wish, regardless of the level of ambient noise, although your voice can't penetrate <em>@Compendium[pf2e.spells-srd.Silence]{Silence}</em> or similar effect. If you roll Intimidation for initiative, on the first round of combat, creatures that haven't acted yet are @Compendium[pf2e.conditionitems.Flat-Footed]{Flat-Footed} to you.</p>"
        },
        "featType": {
            "value": "archetype"
        },
        "level": {
            "value": 4
        },
        "location": "",
        "prerequisites": {
            "value": [
                {
                    "value": "Vigilante Dedication"
                },
                {
                    "value": "Member of the Grey Gardeners"
                },
                {
                    "value": "expert in Intimidation"
                }
            ]
        },
        "rules": [],
        "source": {
            "value": ""
        },
        "traits": {
            "custom": "",
            "rarity": {
                "value": "common"
            },
            "value": [
                "archetype",
                "auditory",
                "vigilante"
            ]
        }
    },
    "effects": [],
    "flags": {},
    "img": "systems/pf2e/icons/default-icons/feats.webp",
    "name": "Voice of Authority",
    "type": "feat"
}
