{
    "_id": "iHUuWrvkT2uR0PnK",
    "data": {
        "actionCategory": {
            "value": "offensive"
        },
        "actionType": {
            "value": "action"
        },
        "actions": {
            "value": 3
        },
        "description": {
            "value": "<p><strong>Requirements</strong> Your Spellstrike is charged.</p>\n<hr />\n<p>You combine the might of a multitarget spell with a whirling flurry of attacks. You use Spellstrike, making a melee Strike against each enemy within your reach instead of against one enemy. If your spell can affect multiple targets, your spell affects all foes you hit, not just the first target, up to the spell's normal maximum targets. If you Strike more foes than the spell could target, choose which foes are affected by the spell. Each attack counts toward your multiple attack penalty but doesn't increase your penalty until you've made all your attacks.</p>\n<p>If you use @Compendium[pf2e.feats-srd.Expansive Spellstrike]{Expansive Spellstrike} to Spellstrike with an area spell, apply the area as described in Expansive Spellstrike, choosing one of the creatures you Strike to determine the area and whether the spell fails due to a critically failed Strike. If you use Expansive Spellstrike to Spellstrike with a targeted spell, each creature you critically fail to Strike is unaffected by the spell, but the spell isn't lost completely from a single critical failure.</p>\n<p>You can use this activity with only melee Strikes, even if you have the starlit span hybrid study or a similar ability.</p>"
        },
        "featType": {
            "value": "class"
        },
        "level": {
            "value": 20
        },
        "location": "",
        "prerequisites": {
            "value": [
                {
                    "value": "Spellstrike"
                }
            ]
        },
        "rules": [],
        "source": {
            "value": ""
        },
        "traits": {
            "custom": "",
            "rarity": {
                "value": "common"
            },
            "value": [
                "magus"
            ]
        }
    },
    "effects": [],
    "flags": {},
    "img": "systems/pf2e/icons/features/feats/feats.webp",
    "name": "Whirlwind Spell",
    "type": "feat"
}
