{
    "_id": "hrTl9kfSNrOQeNze",
    "data": {
        "actionCategory": {
            "value": ""
        },
        "actionType": {
            "value": "passive"
        },
        "actions": {
            "value": null
        },
        "description": {
            "value": "<p><strong>Minor Boon</strong>: Erastil shares in his bounty as long as you work for it. Whenever you roll a critical failure at a check to @Compendium[pf2e.actionspf2e.Subsist]{Subsist} in the wild, you get a failure instead.</p>"
        },
        "featType": {
            "value": "deityboon"
        },
        "level": {
            "value": 0
        },
        "prerequisites": {
            "value": []
        },
        "rules": [],
        "source": {
            "value": ""
        },
        "traits": {
            "custom": "",
            "rarity": {
                "value": "common"
            },
            "selected": {},
            "value": []
        }
    },
    "effects": [],
    "flags": {},
    "img": "systems/pf2e/icons/deity/Erastil.webp",
    "name": "Erastil - Minor Boon",
    "type": "feat"
}
