{
    "_id": "GXcC6oVa5quzgNHD",
    "data": {
        "additionalLanguages": {
            "count": 0,
            "custom": "",
            "value": [
                "draconic",
                "jotun",
                "gnomish",
                "infernal"
            ]
        },
        "boosts": {
            "0": {
                "value": [
                    "dex"
                ]
            },
            "1": {
                "value": []
            },
            "2": {
                "value": [
                    "str",
                    "dex",
                    "con",
                    "int",
                    "wis",
                    "cha"
                ]
            }
        },
        "description": {
            "value": "<p><em>Known as itarii in their own language, strix are reclusive avian humanoids devoted to their homelands and their tribes. They defend their precious communities with broad wingspans and razor talons.</em></p>\n<hr />\n<p>Strix value ferocity, vengeance, and devotion above all else. Their dark, formidable wingspans and long history of taking revenge for their fallen family members have painted them as winged devils in the eyes of neighboring human populations. In contradiction to their misunderstood nature, strix boast a spiritual, artistic, and compassionate culture that is rarely seen outside of their roosts.</p>\n<p>As strix populations begin to resurge and spread beyond the mountainous region known as the Devil's Perch, their tribes now speckle the landscape of Cheliax and surrounding nations. Soaring over mountains, forests, and beaches, strix are always brought home by the deep connections they share with their kinfolk.</p>\n<p>If you want a character who is loyal yet enigmatic, fierce yet artistic, and who yearns to soar above the world, you should play a strix.</p>\n<h2>You Might...</h2>\n<ul>\n<li>Dedicate and endear yourself to your family, friends, or community.</li>\n<li>Harbor an inherited distrust of humans.</li>\n<li>Keep strangers at arm's length and perhaps exhibit naivete about the world beyond your homeland.</li>\n</ul>\n<h2>Others Probably...</h2>\n<ul>\n<li>Appreciate your dedicated friendship, even if they don't grasp the cultural history behind it.</li>\n<li>Treat you on occasion like a carrier pigeon, asking you to deliver letters or other similar favors.</li>\n<li>Find your appearance frightening due to complete inexperience with strix.</li>\n</ul>\n<h2>Physical Description</h2>\n<p>Strix are avian-influenced humanoids with intimidating talons and feathered wings sprouting from their backs. With an average height of 6 feet, strix are taller than most humans but are very light for their size. Strix are considered mature at 14 years of age and have an average lifespan of 40 years. They have pointed ears and large eyes that are typically black from sclera to pupil, but occasionally appear as a piercing golden color. Strix lack the ability to move their eyes independently of their head, resulting in distinctive jerky movements as their gaze snaps between targets. Their bodies are usually taut with defined musculature-a result of the strength necessary to flex their wings.</p>\n<h2>Society</h2>\n<p>Strix are rare and reclusive people who cling to their ancestral territories. They live in modest-sized tribes, but some reside in smaller bands of tight-knit individuals. The largest settlements of strix reside on Devil's Perch, but a small number of their ilk have traveled far across Golarion. Strix feel an intense empathy and attachment to their family and other community members. They prioritize the needs of their community over their individual desires, and their bands and tribes benefit from an easy yet expertly organized division of labor. Strix tribes are led by a rokoa, a female tribal leader.</p>\n<p>A long history of conflict with the nearby nation of Cheliax as bred into most strix a deep fear and suspicion of humans-who they call kotaara. Strix have struggled to keep hold of their territories and maintain their numbers in the face of constant conflict with these enemies who, in addition to trying to destroy what they believe to be winged devils, vastly outnumber them. Due to their strongly bonded groups, the loss of a single tribe member is devastating.</p>\n<h2>Alignment and Religion</h2>\n<p>Due to their deep respect for the rules of a functioning society, strix are rarely chaotic, but some may be flexible on adopting the rules of outside societies. Strix are typically nonreligious and instead use stories from an epic known as the Korrsat Akra, or “The Scattered Nest,” to tell them of their origins and give them direction on their current place in the world. They have a deep investment in the lives of their fellows and experience intense grief at their passing. Pharasma is a common influence among religious strix due to the popularity of religious and spiritual practices honoring the lives and deaths in their beloved community. Gozreh is also an everyday influence for many strix, who beseech the Wind and the Waves to give them satisfying tailwinds for flight and protect their kin when the sky turns dark with fury. Erastil and even Torag represent two versions of social order and may be unifying deities across entire tribes.</p>\n<h2>Names</h2>\n<p>Strix names consist of sounds that are reminiscent of chirping, screeches, or trilling by various birds, and their naming conventions are influenced primarily by tradition and spirituality. Strix in small communities might share a common syllable among all their names to express their unity. Due to their deep affection for their family members, naming children after other loved ones is very common, occasionally with an additional syllable or slight change to the pronunciation.</p>\n<h3><span style=\"text-decoration: underline;\">Sample Names</span></h3>\n<p>Chiit-iir, Cicreeti, Ikatarii, Irkoata, Kaata, Kiilo, Kirii, Rahka, Roatatwiil, Turiilo, Turuk, Twilii</p>"
        },
        "flaws": {
            "0": {
                "value": []
            }
        },
        "hp": 8,
        "items": {
            "64eou": {
                "id": "oCIO7UJqbpTkI62l",
                "img": "systems/pf2e/icons/default-icons/feat.svg",
                "level": 1,
                "name": "Wings",
                "pack": "pf2e.ancestryfeatures"
            }
        },
        "languages": {
            "custom": "",
            "value": [
                "common",
                "strix"
            ]
        },
        "reach": 5,
        "rules": [],
        "size": "med",
        "source": {
            "value": "Pathfinder Lost Omens: Ancestry Guide"
        },
        "speed": 25,
        "traits": {
            "custom": "",
            "rarity": {
                "value": "rare"
            },
            "value": [
                "humanoid",
                "strix"
            ]
        },
        "vision": "lowLightVision"
    },
    "effects": [],
    "flags": {},
    "img": "systems/pf2e/icons/default-icons/alternatives/ancestries/human.svg",
    "name": "Strix",
    "type": "ancestry"
}
