{
    "_id": "lpqkZkslFMirsItL",
    "data": {
        "description": {
            "value": "<p>Granted by <em>@Compendium[pf2e.spells-srd.Protection]{Protection}</em> when cast against chaotic creatures.</p>\n<p>The target gains a +1 status bonus to Armor Class and saving throws against creatures and effects of the chosen alignment.</p>\n<p>This bonus increases to +3 against effects from such creatures that would directly control the target and against attacks made by summoned creatures of the chosen alignment.</p>"
        },
        "duration": {
            "expiry": "turn-start",
            "sustained": false,
            "unit": "minutes",
            "value": 1
        },
        "level": {
            "value": 1
        },
        "rules": [
            {
                "key": "ToggleProperty",
                "label": "Protection from Chaotic﻿",
                "property": "flags.pf2e.rollOptions.all.protection-chaotic"
            },
            {
                "key": "ToggleProperty",
                "label": "Protection from Chaotic (direct control or summoned)",
                "property": "flags.pf2e.rollOptions.all.protection-chaotic-enhanced"
            },
            {
                "key": "FlatModifier",
                "label": "Protection from Chaotic",
                "predicate": {
                    "any": [
                        "target:chaotic",
                        "chaotic",
                        "protection-chaotic"
                    ]
                },
                "selector": "ac",
                "type": "status",
                "value": 1
            },
            {
                "key": "FlatModifier",
                "label": "Protection from Chaotic",
                "predicate": {
                    "any": [
                        "target:chaotic",
                        "chaotic",
                        "protection-chaotic"
                    ]
                },
                "selector": "saving-throw",
                "type": "status",
                "value": 1
            },
            {
                "key": "FlatModifier",
                "label": "Protection from Chaotic (direct control or summoned)",
                "predicate": {
                    "any": [
                        "target:chaotic",
                        "chaotic",
                        "protection-chaotic-enhanced"
                    ]
                },
                "selector": "ac",
                "type": "status",
                "value": 3
            },
            {
                "key": "FlatModifier",
                "label": "Protection from Chaotic (direct control or summoned)",
                "predicate": {
                    "any": [
                        "target:chaotic",
                        "chaotic",
                        "protection-chaotic-enhanced"
                    ]
                },
                "selector": "saving-throw",
                "type": "status",
                "value": 3
            }
        ],
        "source": {
            "value": ""
        },
        "start": {
            "initiative": null,
            "value": 0
        },
        "target": null,
        "tokenIcon": {
            "show": true
        },
        "traits": {
            "custom": "",
            "rarity": {
                "value": "common"
            },
            "value": []
        }
    },
    "effects": [],
    "flags": {},
    "img": "systems/pf2e/icons/spells/protection.webp",
    "name": "Spell Effect: Protection from Chaotic",
    "type": "effect"
}
