{
    "_id": "PDoTV4EhJp63FEaG",
    "data": {
        "description": {
            "value": "<p>The creature takes a -1 status penalty to attack rolls against creatures other than you. The spell ends at the end of the target's next turn.</p>"
        },
        "duration": {
            "expiry": "turn-end",
            "sustained": false,
            "unit": "rounds",
            "value": 1
        },
        "level": {
            "value": 1
        },
        "rules": [
            {
                "key": "FlatModifier",
                "predicate": {
                    "not": [
                        "target:drawIre"
                    ]
                },
                "selector": "attack",
                "type": "status",
                "value": -1
            }
        ],
        "source": {
            "value": ""
        },
        "start": {
            "initiative": null,
            "value": 0
        },
        "target": null,
        "tokenIcon": {
            "show": true
        },
        "traits": {
            "custom": "",
            "rarity": {
                "value": "common"
            },
            "value": []
        }
    },
    "effects": [],
    "flags": {},
    "img": "systems/pf2e/icons/spells/draw-ire.webp",
    "name": "Spell Effect: Draw Ire (Success)",
    "type": "effect"
}
