{
    "_id": "lgo65ldX7WkXC8Ir",
    "data": {
        "actionCategory": {
            "value": ""
        },
        "actionType": {
            "value": "passive"
        },
        "actions": {
            "value": null
        },
        "description": {
            "value": "<p>You can play out a battle in your head, using brains rather than brawn to execute an attack.</p>\n<p>You gain the @Compendium[pf2e.actionspf2e.Devise a Stratagem]{Devise a Stratagem} action.</p>"
        },
        "featType": {
            "value": "classfeature"
        },
        "level": {
            "value": 1
        },
        "location": "",
        "prerequisites": {
            "value": []
        },
        "rules": [
            {
                "key": "ToggleProperty",
                "property": "flags.pf2e.rollOptions.all.devise-a-stratagem"
            },
            {
                "key": "FlatModifier",
                "predicate": {
                    "all": [
                        "devise-a-stratagem"
                    ],
                    "any": [
                        "agile",
                        "finesse",
                        "ranged"
                    ],
                    "not": [
                        "investigator-dedication"
                    ]
                },
                "selector": "attack",
                "type": "ability",
                "value": "@abilities.int.mod"
            }
        ],
        "source": {
            "value": ""
        },
        "traits": {
            "custom": "",
            "rarity": {
                "value": "common"
            },
            "value": [
                "investigator"
            ]
        }
    },
    "effects": [],
    "flags": {},
    "img": "systems/pf2e/icons/features/classes/devise-a-stratagem.webp",
    "name": "Devise a Stratagem",
    "type": "feat"
}
