{
    "_id": "11nGqrSJOoGRlDjO",
    "data": {
        "actionCategory": {
            "value": ""
        },
        "actionType": {
            "value": "passive"
        },
        "actions": {
            "value": null
        },
        "description": {
            "value": "<p>You have perfected your perpetual infusions, allowing you to use @Compendium[pf2e.classfeatures.Quick Alchemy]{Quick Alchemy} to create even more powerful items at no cost. The items you can select depend on your research field and must be in your formula book.</p>\n<p>@Compendium[pf2e.classfeatures.Perpetual Perfection (Bomber)]{Perpetual Perfection (Bomber)}</p>\n<p>@Compendium[pf2e.classfeatures.Perpetual Perfection (Chirurgeon)]{Perpetual Perfection (Chirurgeon)}</p>\n<p>@Compendium[pf2e.classfeatures.Perpetual Perfection (Mutagenist)]{Perpetual Perfection (Mutagenist)}</p>\n<p>@Compendium[pf2e.classfeatures.Perpetual Perfection (Toxicologist)]{Perpetual Perfection (Toxicologist)}</p>"
        },
        "featType": {
            "value": "classfeature"
        },
        "level": {
            "value": 17
        },
        "location": "",
        "prerequisites": {
            "value": []
        },
        "rules": [],
        "source": {
            "value": ""
        },
        "traits": {
            "custom": "",
            "rarity": {
                "value": "common"
            },
            "value": [
                "alchemist"
            ]
        }
    },
    "effects": [],
    "flags": {},
    "img": "systems/pf2e/icons/features/classes/choice-feature.webp",
    "name": "Perpetual Perfection",
    "type": "feat"
}
