{
    "_id": "ufAw6vB7h0iNpgt1",
    "data": {
        "attributes": {
            "ac": {
                "value": 34
            },
            "hardness": 25,
            "hasHealth": true,
            "hp": {
                "details": "",
                "max": 90,
                "temp": 0,
                "value": 90
            },
            "stealth": {
                "details": "<p>(expert)</p>",
                "value": 25
            }
        },
        "creatureType": "",
        "details": {
            "description": "<p>A seemingly innocent ramen cart is rigged to detonate if moved from its current location.</p>",
            "disable": "<p><span data-pf2-check=\"thievery\" data-pf2-dc=\"40\" data-pf2-traits=\"hazard,alchemical,mechanical,trap\" data-pf2-label=\"Disable the Detonation Trigger DC\" data-pf2-show-dc=\"gm\">Thievery</span> (master) to disable the detonation trigger</p>",
            "isComplex": false,
            "level": {
                "value": 15
            },
            "reset": "",
            "routine": ""
        },
        "saves": {
            "fortitude": {
                "saveDetail": "",
                "value": 29
            },
            "reflex": {
                "saveDetail": "",
                "value": 23
            },
            "will": {
                "saveDetail": "",
                "value": 0
            }
        },
        "source": {
            "value": "Pathfinder #173: Doorway to the Red Star"
        },
        "statusEffects": [],
        "traits": {
            "ci": [],
            "di": {
                "custom": "",
                "selected": {},
                "value": [
                    "critical-hits",
                    "object-immunities",
                    "precision"
                ]
            },
            "dr": [],
            "dv": [],
            "rarity": {
                "value": "common"
            },
            "size": {
                "value": "med"
            },
            "traits": {
                "custom": "",
                "value": [
                    "alchemical",
                    "mechanical",
                    "trap"
                ]
            }
        }
    },
    "effects": [],
    "flags": {},
    "img": "systems/pf2e/icons/default-icons/hazard.svg",
    "items": [
        {
            "_id": "y9wgwxol8v9fx740",
            "data": {
                "actionCategory": {
                    "value": "offensive"
                },
                "actionType": {
                    "value": "reaction"
                },
                "actions": {
                    "value": null
                },
                "description": {
                    "value": "<p data-visibility=\"gm\"><strong>Trigger</strong> The cart is moved, damaged, or physically searched</p>\n<p><strong>Effect</strong> The cart explodes in a @Template[type:burst|distance:40]{40‑foot radius}, dealing [[/r {10d6}[fire]+{10d6}[piercing] #Death by Noodle]]{10d6 fire damage and and 10d6 piercing damage} to all creatures within the area (<span data-pf2-check=\"reflex\" data-pf2-traits=\"damaging-effect\" data-pf2-label=\"Death by Noodle DC\" data-pf2-dc=\"36\" data-pf2-show-dc=\"gm\">basic Reflex</span> save).</p>\n<p>Creatures who fail their save against this effect are also covered in \"noodles\" of tar and other sticky alchemical substances that make the creature @Compendium[pf2e.conditionitems.Clumsy]{Clumsy 2} until they spend at least an hour scrubbing the noodles off.</p>"
                },
                "requirements": {
                    "value": ""
                },
                "rules": [],
                "slug": null,
                "source": {
                    "value": ""
                },
                "traits": {
                    "custom": "",
                    "rarity": {
                        "value": "common"
                    },
                    "value": []
                },
                "trigger": {
                    "value": ""
                }
            },
            "effects": [],
            "flags": {},
            "img": "systems/pf2e/icons/actions/Reaction.webp",
            "name": "Death by Noodle",
            "sort": 0,
            "type": "action"
        }
    ],
    "name": "Rigged Ramen Cart",
    "token": {
        "disposition": 0,
        "height": 1,
        "img": "systems/pf2e/icons/default-icons/npc.svg",
        "name": "Rigged Ramen Cart",
        "width": 1
    },
    "type": "hazard"
}
