{
    "_id": "hIWzgjW2E2K6ImPA",
    "data": {
        "abilities": {
            "cha": {
                "mod": 0
            },
            "con": {
                "mod": 0
            },
            "dex": {
                "mod": 2
            },
            "int": {
                "mod": 0
            },
            "str": {
                "mod": 5
            },
            "wis": {
                "mod": 1
            }
        },
        "attributes": {
            "ac": {
                "details": "",
                "value": 21
            },
            "allSaves": {
                "value": ""
            },
            "hp": {
                "details": "negative healing",
                "max": 85,
                "temp": 0,
                "value": 85
            },
            "initiative": {
                "ability": "perception"
            },
            "perception": {
                "value": 12
            },
            "shield": {
                "ac": 0,
                "brokenThreshold": 0,
                "hardness": 0,
                "max": 0,
                "value": 0
            },
            "speed": {
                "otherSpeeds": [
                    {
                        "exceptions": "",
                        "label": "Burrow",
                        "type": "burrow",
                        "value": "15"
                    }
                ],
                "value": "20"
            }
        },
        "details": {
            "alignment": {
                "value": "LE"
            },
            "blurb": "",
            "creatureType": "",
            "level": {
                "value": 5
            },
            "privateNotes": "",
            "publicNotes": "<p>The cultural practice of mummifying the dead is not the only way a body can become preserved, nor is it the only route that gives rise to these disease-spreading undead monstrosities.</p>\n<p>Bog mummies (also called peat mummies or mire mummies) rarely, if ever, leave their marshy realms. Less powerful than their more notorious artificially preserved kin, bog mummies are preserved not by agents introduced during rituals but by the natural elements present in the airless, acidic morass of a peat bog or muddy swamp. While corpses preserved in this manner can certainly rise from the mire as bog mummies as the result of a curse by fell powers or the directed influence of a necromancer, the vast majority of them animate from a seething need for vengeance or to pursue some dire agenda left unfinished at the time of death-often because the creature was slain or otherwise betrayed. The nature of tthis emotional tie to life and the emotional power of the deceased compel unlife beyond death, while the preservative qualities of the bog within which the body was disposed of does the rest.</p>\n<p>Although most bog mummies are motivated by vengeance, many fulfill their dark yearnings with general violence. Filled with wrath and hatred for the living, they mercilessly attack any living creatures that dare to venture into their dismal domains. Their agonized moans echo over their putrid homes, driving away most natural life dwelling therein and often alerting travelers to the potential danger that lies beneath the surface.</p>",
            "source": {
                "value": "Pathfinder Bestiary 2"
            }
        },
        "resources": {},
        "saves": {
            "fortitude": {
                "saveDetail": "",
                "value": 13
            },
            "reflex": {
                "saveDetail": "",
                "value": 9
            },
            "will": {
                "saveDetail": "",
                "value": 14
            }
        },
        "traits": {
            "attitude": {
                "value": "hostile"
            },
            "ci": [],
            "di": {
                "custom": "",
                "value": [
                    "death-effects",
                    "disease",
                    "paralyzed",
                    "poison",
                    "unconscious"
                ]
            },
            "dr": [
                {
                    "exceptions": "",
                    "label": "Fire",
                    "type": "fire",
                    "value": "5"
                }
            ],
            "dv": [
                {
                    "label": "Cold",
                    "type": "cold",
                    "value": "5"
                }
            ],
            "languages": {
                "custom": "",
                "selected": [],
                "value": [
                    "common",
                    "necril"
                ]
            },
            "rarity": {
                "value": "common"
            },
            "senses": {
                "value": "darkvision, tremorsense (imprecise) 30 feet"
            },
            "size": {
                "value": "med"
            },
            "traits": {
                "custom": "",
                "value": [
                    "mummy",
                    "undead"
                ]
            }
        }
    },
    "effects": [],
    "flags": {},
    "img": "systems/pf2e/icons/default-icons/npc.svg",
    "items": [
        {
            "_id": "8SCH000Zv6X9BFPf",
            "data": {
                "attack": {
                    "value": ""
                },
                "attackEffects": {
                    "custom": "",
                    "value": [
                        "bog-rot"
                    ]
                },
                "bonus": {
                    "value": 14
                },
                "damageRolls": {
                    "0": {
                        "damage": "2d6+5",
                        "damageType": "bludgeoning"
                    }
                },
                "description": {
                    "value": ""
                },
                "rules": [],
                "slug": null,
                "source": {
                    "value": ""
                },
                "traits": {
                    "custom": "",
                    "rarity": {
                        "value": "common"
                    },
                    "value": []
                },
                "weaponType": {
                    "value": "melee"
                }
            },
            "effects": [],
            "flags": {},
            "img": "systems/pf2e/icons/default-icons/melee.svg",
            "name": "Fist",
            "sort": 100000,
            "type": "melee"
        },
        {
            "_id": "yTHhCN6VWoGZKUqM",
            "data": {
                "actionCategory": {
                    "value": "interaction"
                },
                "actionType": {
                    "value": "passive"
                },
                "actions": {
                    "value": null
                },
                "description": {
                    "value": "<p>@Localize[PF2E.NPC.Abilities.Glossary.Darkvision]</p>"
                },
                "requirements": {
                    "value": ""
                },
                "rules": [],
                "slug": "darkvision",
                "source": {
                    "value": ""
                },
                "traits": {
                    "custom": "",
                    "rarity": {
                        "value": "common"
                    },
                    "value": []
                },
                "trigger": {
                    "value": ""
                },
                "weapon": {
                    "value": ""
                }
            },
            "effects": [],
            "flags": {
                "core": {
                    "sourceId": "Compendium.pf2e.bestiary-ability-glossary-srd.qCCLZhnp2HhP3Ex6"
                }
            },
            "img": "systems/pf2e/icons/default-icons/mystery-man.svg",
            "name": "Darkvision",
            "sort": 200000,
            "type": "action"
        },
        {
            "_id": "VS237lvefLjMX0lY",
            "data": {
                "actionCategory": {
                    "value": "interaction"
                },
                "actionType": {
                    "value": "passive"
                },
                "actions": {
                    "value": null
                },
                "description": {
                    "value": "<p>@Localize[PF2E.NPC.Abilities.Glossary.Tremorsense]</p>"
                },
                "requirements": {
                    "value": ""
                },
                "rules": [],
                "slug": "tremorsense",
                "source": {
                    "value": ""
                },
                "traits": {
                    "custom": "",
                    "rarity": {
                        "value": "common"
                    },
                    "value": []
                },
                "trigger": {
                    "value": ""
                },
                "weapon": {
                    "value": ""
                }
            },
            "effects": [],
            "flags": {
                "core": {
                    "sourceId": "Compendium.pf2e.bestiary-ability-glossary-srd.j2wsK6IsW5yMW1jW"
                }
            },
            "img": "systems/pf2e/icons/default-icons/mystery-man.svg",
            "name": "Tremorsense",
            "sort": 300000,
            "type": "action"
        },
        {
            "_id": "HLcMADTgT1nixxce",
            "data": {
                "actionCategory": {
                    "value": "defensive"
                },
                "actionType": {
                    "value": "passive"
                },
                "actions": {
                    "value": null
                },
                "description": {
                    "value": "<p>30 feet.</p>\n<p>A creature that begins its turn within the area feels as if its lungs were filling with water and must succeed at a <span data-pf2-check=\"fortitude\" data-pf2-dc=\"19\" data-pf2-traits=\"aura,divine,enchantment,mental\" data-pf2-label=\"Breath of the Bog DC\" data-pf2-show-dc=\"gm\">Fortitude</span> save or be unable to speak or breathe. The creature can still hold its breath and can attempt a new saving throw at the end of its turn.</p>\n<p>A creature that succeeds is temporarily immune to breath of the bog for 24 hours.</p>"
                },
                "requirements": {
                    "value": ""
                },
                "rules": [],
                "slug": null,
                "source": {
                    "value": ""
                },
                "traits": {
                    "custom": "",
                    "rarity": {
                        "value": "common"
                    },
                    "value": [
                        "aura",
                        "divine",
                        "enchantment",
                        "mental"
                    ]
                },
                "trigger": {
                    "value": ""
                },
                "weapon": {
                    "value": ""
                }
            },
            "effects": [],
            "flags": {},
            "img": "systems/pf2e/icons/default-icons/mystery-man.svg",
            "name": "Breath of the Bog",
            "sort": 400000,
            "type": "action"
        },
        {
            "_id": "AWNveQn0EQ1aYORU",
            "data": {
                "actionCategory": {
                    "value": "defensive"
                },
                "actionType": {
                    "value": "reaction"
                },
                "actions": {
                    "value": null
                },
                "description": {
                    "value": "<p data-visibility=\"gm\"><strong>Trigger</strong> A creature walks on top of a bog mummy that lies buried in the mud or peat below;</p>\n<p><strong>Requirements</strong> Initiative has not yet been rolled;</p>\n<p><strong>Effect</strong> The bog mummy automatically notices the creature and Burrows before rolling initiative.</p>"
                },
                "requirements": {
                    "value": ""
                },
                "rules": [],
                "slug": null,
                "source": {
                    "value": ""
                },
                "traits": {
                    "custom": "",
                    "rarity": {
                        "value": "common"
                    },
                    "value": []
                },
                "trigger": {
                    "value": ""
                },
                "weapon": {
                    "value": ""
                }
            },
            "effects": [],
            "flags": {},
            "img": "systems/pf2e/icons/actions/Reaction.webp",
            "name": "Rise Up",
            "sort": 500000,
            "type": "action"
        },
        {
            "_id": "XmKUjz23s0dNFOYW",
            "data": {
                "actionCategory": {
                    "value": "offensive"
                },
                "actionType": {
                    "value": "passive"
                },
                "actions": {
                    "value": null
                },
                "description": {
                    "value": "<p>This affliction can't be reduced below stage 1, nor can the damage from it be healed, until it's successfully treated with remove curse or a similar effect; the affliction can then be removed as normal for a disease. A creature killed by bog rot melts into a noxious sludge and can't be resurrected except by a 7th‑level resurrect ritual or similar magic;</p>\n<hr />\n<p><strong>Saving Throw</strong> <span data-pf2-check=\"fortitude\" data-pf2-dc=\"21\" data-pf2-traits=\"curse,disease,divine,necromancy,negative\" data-pf2-label=\"Bog Rot DC\" data-pf2-show-dc=\"gm\">Fortitude</span>;</p>\n<p><strong>Stage 1</strong> carrier with no ill effect (1 minute);</p>\n<p><strong>Stage 2</strong> [[/r {3d6}[negative]]]{3d6 negative damage} and @Compendium[pf2e.conditionitems.Clumsy]{Clumsy 1} (1 day)</p>"
                },
                "requirements": {
                    "value": ""
                },
                "rules": [],
                "slug": null,
                "source": {
                    "value": ""
                },
                "traits": {
                    "custom": "",
                    "rarity": {
                        "value": "common"
                    },
                    "value": [
                        "curse",
                        "disease",
                        "divine",
                        "necromancy",
                        "negative"
                    ]
                },
                "trigger": {
                    "value": ""
                },
                "weapon": {
                    "value": ""
                }
            },
            "effects": [],
            "flags": {},
            "img": "systems/pf2e/icons/default-icons/mystery-man.svg",
            "name": "Bog Rot",
            "sort": 600000,
            "type": "action"
        },
        {
            "_id": "3IrzjRB89Xfvuqf2",
            "data": {
                "description": {
                    "value": ""
                },
                "item": {
                    "value": 0
                },
                "mod": {
                    "value": 12
                },
                "proficient": {
                    "value": 0
                },
                "rules": [],
                "slug": null,
                "source": {
                    "value": ""
                },
                "traits": {
                    "custom": "",
                    "rarity": {
                        "value": "common"
                    },
                    "value": []
                }
            },
            "effects": [],
            "flags": {},
            "img": "systems/pf2e/icons/default-icons/lore.svg",
            "name": "Athletics",
            "sort": 700000,
            "type": "lore"
        },
        {
            "_id": "bo6bsp0fKrJ9ddNK",
            "data": {
                "description": {
                    "value": ""
                },
                "item": {
                    "value": 0
                },
                "mod": {
                    "value": 11
                },
                "proficient": {
                    "value": 0
                },
                "rules": [
                    {
                        "key": "FlatModifier",
                        "predicate": {
                            "all": [
                                "buried"
                            ]
                        },
                        "selector": "stealth",
                        "value": 2
                    }
                ],
                "slug": null,
                "source": {
                    "value": ""
                },
                "traits": {
                    "custom": "",
                    "rarity": {
                        "value": "common"
                    },
                    "value": []
                },
                "variants": {
                    "0": {
                        "label": "+13 while buried in a bog",
                        "options": "buried"
                    }
                }
            },
            "effects": [],
            "flags": {},
            "img": "systems/pf2e/icons/default-icons/lore.svg",
            "name": "Stealth",
            "sort": 800000,
            "type": "lore"
        }
    ],
    "name": "Bog Mummy",
    "token": {
        "disposition": -1,
        "height": 1,
        "img": "systems/pf2e/icons/default-icons/npc.svg",
        "name": "Bog Mummy",
        "width": 1
    },
    "type": "npc"
}
