{
    "_id": "forsqeofEszBNtLq",
    "data": {
        "ability": {
            "value": ""
        },
        "area": {
            "areaType": "",
            "value": null
        },
        "areasize": {
            "value": ""
        },
        "category": {
            "value": "spell"
        },
        "components": {
            "material": true,
            "somatic": true,
            "verbal": true
        },
        "cost": {
            "value": ""
        },
        "damage": {
            "value": {}
        },
        "description": {
            "value": "<p>You create an opaque wall of light in a single vibrant color. The wall is straight and vertical, stretching 60 feet long and 30 feet high. If the wall would pass through a creature, the spell is lost. The wall sheds bright light for 20 feet on each side, and dim light for the next 20 feet. You can ignore the wall's effects.</p>\n<p>Roll 1d4 to determine the color of the wall. Each color has a particular effect on items, effects, or creatures that attempt to pass through. Chromatic wall can't be counteracted normally; rather, each color is automatically counteracted when targeted by a specific spell, even if that spell's level is lower than that of chromatic wall.</p>\n<ol>\n<li><strong>Red</strong> The wall destroys ranged weapon ammunition (such as arrows and crossbow bolts) that would pass through, and it deals 20 fire damage to anyone passing through, with a basic Reflex save. Cone of cold can counteract a red chromatic wall.</li>\n<li><strong>Orange</strong> The wall destroys thrown weapons that would pass through, and it deals 25 acid damage to anyone passing through, with a basic Reflex save. Gust of wind can counteract an orange chromatic wall.</li>\n<li><strong>Yellow</strong> The wall stops acid, cold, electricity, fire, force, negative, positive, and sonic effects from passing through, and it deals 30 electricity damage to anyone passing through, with a basic Reflex save. Disintegrate can counteract a yellow chromatic wall.</li>\n<li><strong>Green</strong> The wall stops toxins, gases, and breath weapons from passing through. It deals 10 poison damage to anyone passing through and makes them @Compendium[pf2e.conditionitems.Enfeebled]{Enfeebled 1} for 1 minute. A basic Fortitude save reduces the damage and negates the Enfeebled condition on a success. Passwall can counteract a green chromatic wall.<hr /></li>\n</ol>\n<p><strong>Heightened (7th)</strong> The spell's duration increases to 1 hour. Roll 1d8 to determine the wall's color; the results for 5-8 are below. A red, orange, yellow, or green wall deals an extra 10 damage.</p>\n<ol start=\"5\">\n<li><strong>Blue</strong> The wall stops auditory, petrification, and visual effects from passing through, and creatures passing through are subject to the effects of flesh to stone. Magic missile can counteract a blue chromatic wall.</li>\n<li><strong>Indigo</strong> The wall stops divination and mental effects from passing through, and those passing through are subject to the effects of warp mind. Searing light can counteract an indigo chromatic wall.</li>\n<li><strong>Violet</strong> The wall prevents spells from targeting the other side (area effects still cross as normal). Creatures passing through must succeed at a Will save or they are @Compendium[pf2e.conditionitems.Slowed]{Slowed 1} for 1 minute; on a critical failure, the creature is instead sent to another plane, with the effect of plane shift . Dispel magic can counteract a violet chromatic wall.</li>\n<li><strong>Reroll</strong>, and creatures that pass through the wall take a -2 circumstance penalty to their saves.</li>\n</ol>"
        },
        "duration": {
            "value": "10 minutes"
        },
        "hasCounteractCheck": {
            "value": false
        },
        "level": {
            "value": 5
        },
        "location": {
            "value": ""
        },
        "materials": {
            "value": ""
        },
        "prepared": {
            "value": ""
        },
        "primarycheck": {
            "value": ""
        },
        "range": {
            "value": "120 feet"
        },
        "rules": [],
        "save": {
            "basic": "",
            "value": ""
        },
        "school": {
            "value": "abjuration"
        },
        "secondarycasters": {
            "value": ""
        },
        "secondarycheck": {
            "value": ""
        },
        "source": {
            "value": "Pathfinder Core Rulebook"
        },
        "spellType": {
            "value": "utility"
        },
        "sustained": {
            "value": false
        },
        "target": {
            "value": ""
        },
        "time": {
            "value": "3"
        },
        "traditions": {
            "value": [
                "arcane",
                "occult"
            ]
        },
        "traits": {
            "custom": "",
            "rarity": {
                "value": "common"
            },
            "value": []
        }
    },
    "effects": [],
    "flags": {},
    "img": "systems/pf2e/icons/spells/chromatic-wall.webp",
    "name": "Chromatic Wall",
    "type": "spell"
}
