{
    "_id": "7OFKYR1VY6EXDuiR",
    "data": {
        "ability": {
            "value": ""
        },
        "area": {
            "areaType": "",
            "value": ""
        },
        "autoHeightenLevel": {
            "value": null
        },
        "category": {
            "value": "spell"
        },
        "components": {
            "focus": false,
            "material": false,
            "somatic": false,
            "verbal": true
        },
        "cost": {
            "value": ""
        },
        "damage": {
            "value": {}
        },
        "description": {
            "value": "<p>You sing a fierce prayer, low and growling, and awaken the ancient spirit of a Terwa beast to guide and strengthen the target's unarmed blows.</p>\n<p>The target's claw attack gains the versatile (piercing) trait, and deals 1d6 slashing damage. If the target's claw attack already deals 1d6 slashing damage, it deals 1d8 instead.</p>\n<p>If its claw attack already had the versatile (piercing) trait, it gains the deadly 1d8 trait.</p>\n<hr />\n<p><strong>Heightened (4th)</strong> The spell can affect up to 6 willing creatures with unarmed claw Strikes.</p>\n<hr />\n<p>@Compendium[pf2e.spell-effects.Spell Effect: Clawsong (Damage Increase D6)]{Spell Effect: Clawsong (Damage Increase D6)}</p>\n<p>@Compendium[pf2e.spell-effects.Spell Effect: Clawsong (Damage Increase D8)]{Spell Effect: Clawsong (Damage Increase D8)}</p>\n<p>@Compendium[pf2e.spell-effects.Spell Effect: Clawsong (Versatile Piercing)]{Spell Effect: Clawsong (Versatile Piercing)}</p>\n<p>@Compendium[pf2e.spell-effects.Spell Effect: Clawsong (Deadly D8)]{Spell Effect: Clawsong (Deadly D8)}</p>"
        },
        "duration": {
            "value": "sustained up to 1 minute"
        },
        "hasCounteractCheck": {
            "value": false
        },
        "level": {
            "value": 2
        },
        "location": {
            "value": ""
        },
        "materials": {
            "value": ""
        },
        "range": {
            "value": "30 feet"
        },
        "rules": [],
        "save": {
            "basic": "",
            "value": ""
        },
        "school": {
            "value": "transmutation"
        },
        "source": {
            "value": "Pathfinder #171: Hurricane's Howl"
        },
        "spellType": {
            "value": "attack"
        },
        "sustained": {
            "value": false
        },
        "target": {
            "value": "1 willing creature with an unarmed claw Strike"
        },
        "time": {
            "value": "2"
        },
        "traditions": {
            "custom": "",
            "value": [
                "divine",
                "primal"
            ]
        },
        "traits": {
            "custom": "",
            "rarity": {
                "value": "uncommon"
            },
            "value": []
        }
    },
    "effects": [],
    "flags": {},
    "img": "systems/pf2e/icons/default-icons/spell.svg",
    "name": "Clawsong",
    "type": "spell"
}
