{
    "_id": "FrKPwgFxWIGMGgs4",
    "data": {
        "ability": {
            "value": ""
        },
        "area": {
            "value": ""
        },
        "areasize": {
            "value": ""
        },
        "category": {
            "value": "focus"
        },
        "components": {
            "material": false,
            "somatic": true,
            "verbal": true
        },
        "cost": {
            "value": ""
        },
        "damage": {
            "value": {}
        },
        "description": {
            "value": "<p>You wrap yourself in a cloak of illusion, appearing as another creature of the same body shape with roughly similar height and weight as yourself. This has the effects of a 3rd-level <em>@Compendium[pf2e.spells-srd.Illusory Disguise]{Illusory Disguise}</em>.</p>\n<hr />\n<p><strong>Heightened (6th)</strong> You can appear as any creature of the same size, even with a completely different body shape.</p>"
        },
        "duration": {
            "value": "Sustained"
        },
        "hasCounteractCheck": {
            "value": false
        },
        "level": {
            "value": 3
        },
        "location": {
            "value": "gj8uSdGt5Fbk1fGz"
        },
        "materials": {
            "value": ""
        },
        "prepared": {
            "value": ""
        },
        "primarycheck": {
            "value": ""
        },
        "range": {
            "value": ""
        },
        "rules": [],
        "save": {
            "basic": "",
            "value": ""
        },
        "school": {
            "value": "illusion"
        },
        "secondarycasters": {
            "value": ""
        },
        "secondarycheck": {
            "value": ""
        },
        "source": {
            "value": "Pathfinder Advanced Player's Guide"
        },
        "spellType": {
            "value": "utility"
        },
        "sustained": {
            "value": false
        },
        "target": {
            "value": ""
        },
        "time": {
            "value": "2"
        },
        "traditions": {
            "value": []
        },
        "traits": {
            "rarity": {
                "value": "uncommon"
            },
            "value": [
                "witch",
                "hex"
            ]
        }
    },
    "effects": [],
    "flags": {},
    "img": "systems/pf2e/icons/spells/deceivers-cloak.webp",
    "name": "Deceiver's Cloak",
    "type": "spell"
}
