{
    "_id": "jW2asKFchuoxniSH",
    "data": {
        "ability": {
            "value": ""
        },
        "area": {
            "value": ""
        },
        "areasize": {
            "value": ""
        },
        "category": {
            "value": "spell"
        },
        "components": {
            "material": false,
            "somatic": true,
            "verbal": true
        },
        "cost": {
            "value": ""
        },
        "damage": {
            "value": {}
        },
        "description": {
            "value": "<p>You touch an object, and it immediately disassembles itself into its component pieces. The spell fails if the target lacks component pieces (such as a statue carved from one block of stone), and using it on a dangerous object like a snare or trap typically triggers it. The object gains the @Compendium[pf2e.conditionitems.Broken]{Broken} condition, and the component pieces become small enough to be @Compendium[pf2e.conditionitems.Hidden]{Hidden} under normal clothing and armor. You can @Compendium[pf2e.actionspf2e.Dismiss]{Dismiss} the spell. When the spell ends, the object reassembles itself into its original form, appearing in your hand or hands if you have them free, or on the ground in front of you otherwise. Once reassembled, the object loses the Broken condition and its Hit Points return to the value the object had when you @Compendium[pf2e.actionspf2e.Cast a Spell]{Cast the Spell}.</p>\n<hr />\n<p><strong>Heightened (4th)</strong> The spell lasts for 10 minutes.</p>\n<p><strong>Heightened (6th)</strong> The spell lasts until your next daily preparations.</p>"
        },
        "duration": {
            "value": "1 minute"
        },
        "hasCounteractCheck": {
            "value": false
        },
        "level": {
            "value": 2
        },
        "location": {
            "value": ""
        },
        "materials": {
            "value": ""
        },
        "prepared": {
            "value": false
        },
        "primarycheck": {
            "value": ""
        },
        "range": {
            "value": "touch"
        },
        "rules": [],
        "save": {
            "basic": "",
            "value": ""
        },
        "school": {
            "value": "transmutation"
        },
        "secondarycasters": {
            "value": ""
        },
        "secondarycheck": {
            "value": ""
        },
        "source": {
            "value": "Pathfinder Advanced Player's Guide"
        },
        "spellType": {
            "value": "utility"
        },
        "sustained": {
            "value": false
        },
        "target": {
            "value": "1 non-magical object in your possession of 1 Bulk or less"
        },
        "time": {
            "value": "2"
        },
        "traditions": {
            "value": [
                "arcane",
                "primal"
            ]
        },
        "traits": {
            "custom": "",
            "rarity": {
                "value": "common"
            },
            "value": []
        }
    },
    "effects": [],
    "flags": {},
    "img": "systems/pf2e/icons/spells/dismantle.webp",
    "name": "Dismantle",
    "type": "spell"
}
