{
    "_id": "B8aCUMCHCIMUCEVK",
    "data": {
        "ability": {
            "value": ""
        },
        "area": {
            "areaType": "",
            "value": ""
        },
        "areasize": {
            "value": ""
        },
        "category": {
            "value": "focus"
        },
        "components": {
            "material": false,
            "somatic": true,
            "verbal": true
        },
        "cost": {
            "value": ""
        },
        "damage": {
            "value": {}
        },
        "description": {
            "value": "<p>You call upon your element to propel you, improving your Speed depending on your element. This spell has your element's trait.</p>\n<ul>\n<li>@Compendium[pf2e.spell-effects.Spell Effect: Elemental Motion (Air)]{Air}You gain a fly Speed equal to your Speed.</li>\n<li>@Compendium[pf2e.spell-effects.Spell Effect: Elemental Motion (Earth)]{Earth}You gain a burrow Speed of 10 feet.</li>\n<li>@Compendium[pf2e.spell-effects.Spell Effect: Elemental Motion (Fire)]{Fire}You gain a fly Speed equal to your Speed.</li>\n<li>@Compendium[pf2e.spell-effects.Spell Effect: Elemental Motion (Water)]{Water}You gain a swim Speed equal to your Speed and can breathe underwater.</li>\n</ul>\n<hr />\n<p><strong>Heightened (6th)</strong> You also gain a +10-foot status bonus to your Speeds.</p>\n<p><strong>Heightened (9th)</strong> The status bonus increases to +20 feet.</p>"
        },
        "duration": {
            "value": "1 minute"
        },
        "hasCounteractCheck": {
            "value": false
        },
        "level": {
            "value": 3
        },
        "location": {
            "value": ""
        },
        "materials": {
            "value": ""
        },
        "prepared": {
            "value": ""
        },
        "primarycheck": {
            "value": ""
        },
        "range": {
            "value": ""
        },
        "rules": [],
        "save": {
            "basic": "",
            "value": ""
        },
        "school": {
            "value": "evocation"
        },
        "secondarycasters": {
            "value": ""
        },
        "secondarycheck": {
            "value": ""
        },
        "source": {
            "value": "Pathfinder Core Rulebook"
        },
        "spellType": {
            "value": "utility"
        },
        "sustained": {
            "value": false
        },
        "target": {
            "value": ""
        },
        "time": {
            "value": "2"
        },
        "traditions": {
            "value": []
        },
        "traits": {
            "custom": "",
            "rarity": {
                "value": "uncommon"
            },
            "value": [
                "sorcerer"
            ]
        }
    },
    "effects": [],
    "flags": {},
    "img": "systems/pf2e/icons/spells/elemental-motion.webp",
    "name": "Elemental Motion",
    "type": "spell"
}
