{
    "_id": "eexkxcqnkXazsGfK",
    "data": {
        "ability": {
            "value": ""
        },
        "area": {
            "areaType": "line",
            "value": 30
        },
        "areasize": {
            "value": "30-foot line"
        },
        "category": {
            "value": "spell"
        },
        "components": {
            "material": false,
            "somatic": true,
            "verbal": true
        },
        "cost": {
            "value": ""
        },
        "damage": {
            "value": {
                "0": {
                    "type": {
                        "categories": [],
                        "value": "negative"
                    },
                    "value": "4d8 persistent"
                }
            }
        },
        "description": {
            "value": "<p>Extending a finger, you fire a beam of negative energy that weakens the life force of any creature it touches. Each living creature in the line must attempt a Fortitude save.</p>\n<hr />\n<p><strong>Critical Success</strong> The creature is unaffected.</p>\n<p><strong>Success</strong> The creature takes [[/r 2d8 #persistent negative]] @Compendium[pf2e.conditionitems.Persistent Damage]{Persistent Negative Damage}.</p>\n<p><strong>Failure</strong> The creature takes [[/r 4d8 #persistent negative]] @Compendium[pf2e.conditionitems.Persistent Damage]{Persistent Negative Damage} and becomes @Compendium[pf2e.conditionitems.Drained]{Drained 1}.</p>\n<p><strong>Critical Failure</strong> The creature takes [[/r 4d8 #persistent negative]] @Compendium[pf2e.conditionitems.Persistent Damage]{Persistent Negative Damage} and becomes @Compendium[pf2e.conditionitems.Drained]{Drained 2} and @Compendium[pf2e.conditionitems.Doomed]{Doomed 1}.</p>\n<hr />\n<p><strong>Heightened (+2)</strong> The persistent negative damage increases by [[/r 1d8 #persistent negative]] @Compendium[pf2e.conditionitems.Persistent Damage]{Persistent Negative Damage} on a success, or by [[/r 2d8 #persistent negative]] @Compendium[pf2e.conditionitems.Persistent Damage]{Persistent Negative Damage} on a failure or critical failure.</p>"
        },
        "duration": {
            "value": ""
        },
        "hasCounteractCheck": {
            "value": false
        },
        "level": {
            "value": 4
        },
        "location": {
            "value": ""
        },
        "materials": {
            "value": ""
        },
        "prepared": {
            "value": false
        },
        "primarycheck": {
            "value": ""
        },
        "range": {
            "value": ""
        },
        "rules": [],
        "save": {
            "basic": "",
            "value": "fortitude"
        },
        "scaling": {
            "damage": {
                "0": "2d8"
            },
            "interval": 2
        },
        "school": {
            "value": "necromancy"
        },
        "secondarycasters": {
            "value": ""
        },
        "secondarycheck": {
            "value": ""
        },
        "source": {
            "value": "Pathfinder Advanced Player's Guide"
        },
        "spellType": {
            "value": "save"
        },
        "sustained": {
            "value": false
        },
        "target": {
            "value": ""
        },
        "time": {
            "value": "2"
        },
        "traditions": {
            "value": [
                "arcane",
                "divine",
                "occult"
            ]
        },
        "traits": {
            "custom": "",
            "rarity": {
                "value": "common"
            },
            "value": [
                "negative"
            ]
        }
    },
    "effects": [],
    "flags": {},
    "img": "systems/pf2e/icons/spells/enervation.webp",
    "name": "Enervation",
    "type": "spell"
}
