{
    "_id": "1aXX52MnVbBvT9S7",
    "data": {
        "ability": {
            "value": ""
        },
        "area": {
            "areaType": "",
            "value": ""
        },
        "autoHeightenLevel": {
            "value": null
        },
        "category": {
            "value": "ritual"
        },
        "components": {
            "focus": false,
            "material": false,
            "somatic": false,
            "verbal": false
        },
        "cost": {
            "value": "magical foci worth 100 gp × the spell level × the node's level"
        },
        "damage": {
            "value": {}
        },
        "description": {
            "value": "<p>You focus the power of the node's intersecting ley lines into a powerful confluent point known as a ley line nexus. The ley line nexus grows out from the node in a 20-foot radius. The ley line nexus is more open and available for access to creatures you designate. When @Compendium[pf2e.actionspf2e.Tap Ley Line]{Tapping the Ley Line}, these creatures get a degree of success one better than they rolled</p>\n<hr />\n<p><strong>Critical Success</strong> The ley line nexus is established. The nexus is particularly powerful, allowing it to continually refresh its magical energy; thus, the nexus lasts for up to 100 years, unless the ley lines shift.</p>\n<p><strong>Success</strong> The ley line nexus is established and lasts for a year and one day, unless the ley lines shift.</p>\n<p><strong>Failure</strong> You fail to establish the ley line nexus.</p>\n<p><strong>Critical Failure</strong> All casters take damage and suffer backlash effects as if they had critically failed to Tap every Ley Line in the node simultaneously, and they can't attempt to Tap those Ley Lines for a year and one day</p>"
        },
        "duration": {
            "value": ""
        },
        "hasCounteractCheck": {
            "value": false
        },
        "level": {
            "value": 5
        },
        "location": {
            "value": ""
        },
        "materials": {
            "value": ""
        },
        "prepared": {
            "value": ""
        },
        "primarycheck": {
            "value": "Arcana, Nature, Occultism, or Religion, matching the ley line's tradition (master)"
        },
        "range": {
            "value": "10 feet"
        },
        "rules": [],
        "save": {
            "basic": "",
            "value": ""
        },
        "school": {
            "value": "transmutation"
        },
        "secondarycasters": {
            "value": "2"
        },
        "secondarycheck": {
            "value": "Ley Line Lore or Occultism"
        },
        "source": {
            "value": "Pathfinder Secrets of Magic"
        },
        "spellType": {
            "value": "attack"
        },
        "sustained": {
            "value": false
        },
        "target": {
            "value": "1 ley line node up to double establish nexus's level"
        },
        "time": {
            "value": "1 day"
        },
        "traditions": {
            "value": []
        },
        "traits": {
            "custom": "",
            "rarity": {
                "value": "rare"
            },
            "value": [
                "consecration"
            ]
        }
    },
    "effects": [],
    "flags": {},
    "img": "systems/pf2e/icons/default-icons/spell.svg",
    "name": "Establish Nexus",
    "type": "spell"
}
