{
    "_id": "tFKJCPvOQZxKq6ON",
    "data": {
        "ability": {
            "value": ""
        },
        "area": {
            "value": ""
        },
        "areasize": {
            "value": "5-foot burst"
        },
        "category": {
            "value": "spell"
        },
        "components": {
            "material": false,
            "somatic": true,
            "verbal": true
        },
        "cost": {
            "value": ""
        },
        "damage": {
            "value": {}
        },
        "description": {
            "value": "<p>Magical monkey spirits fill the area as they pile and climb on top of one another. Because the monkeys are magical spirits, they can't be attacked or hurt. Casting <em>@Compendium[pf2e.spells-srd.Calm Emotions]{Calm Emotions}</em> or a similar effect over the monkeys makes them docile, causing them to cease making mischief for the duration of <em>mad monkeys</em>.</p>\n<p>Choose the kind of mischief your monkeys make when you @Compendium[pf2e.actionspf2e.Cast a Spell]{Cast the Spell}. They produce the effect listed for that mischief when you Cast the Spell and each round when you @Compendium[pf2e.actionspf2e.Sustain a Spell]{Sustain the Spell}. When you Sustain the Spell, you can move the area of the monkeys by 5 feet.</p>\n<hr />\n<p><strong>Flagrant Burglary</strong> The monkeys try to @Compendium[pf2e.actionspf2e.Steal]{Steal} any one item from one creature in the area. Use your spell DC - 10 as the monkeys' Thievery modifier. Their attempt relies more on distraction than subtlety, so the victim knows what item the monkeys were trying to take and whether it was taken. Getting a stolen item from the monkeys-even for the caster-requires Stealing it from them or @Compendium[pf2e.actionspf2e.Disarm]{Disarming} them, using your spell DC. When the spell ends, any stolen items fall to the ground in any square of the spell's area you choose.</p>\n<hr />\n<p><strong>Raucous Din</strong> The monkeys screech loudly, potentially deafening creatures in the spell's area. Each creature in the spell's area must attempt a Fortitude save.</p>\n<hr />\n<p><strong>Critical Success</strong> The creature is unaffected and is temporarily immune for 10 minutes.</p>\n<p><strong>Success</strong> The creature is unaffected.</p>\n<p><strong>Failure</strong> The creature is @Compendium[pf2e.conditionitems.Deafened]{Deafened} for 1 round.</p>\n<p><strong>Critical Failure</strong> The creature is Deafened for 1 minute.</p>\n<hr />\n<p><strong>Tumultuous Gymnastics</strong> The monkeys jump and climb all over creatures in the spell's area, interfering with complex movements. Each creature in the spell's area must attempt a Reflex save.</p>\n<hr />\n<p><strong>Critical Success</strong> The creature is unaffected and is temporarily immune for 10 minutes.</p>\n<p><strong>Success</strong> The creature is unaffected.</p>\n<p><strong>Failure</strong> For 1 round, the creature must succeed at a DC 5 flat check whenever it attempts a manipulate action. If it fails this check, the creature loses that action.</p>\n<p><strong>Critical Failure</strong> As failure, but the monkeys cling to the creature tenaciously, and the effect lasts until the spell ends, even if the creature leaves the spell's area.</p>"
        },
        "duration": {
            "value": "sustained up to 1 minute"
        },
        "hasCounteractCheck": {
            "value": false
        },
        "level": {
            "value": 3
        },
        "location": {
            "value": ""
        },
        "materials": {
            "value": ""
        },
        "prepared": {
            "value": false
        },
        "primarycheck": {
            "value": ""
        },
        "range": {
            "value": "30 feet"
        },
        "rules": [],
        "save": {
            "basic": "",
            "value": ""
        },
        "school": {
            "value": "conjuration"
        },
        "secondarycasters": {
            "value": ""
        },
        "secondarycheck": {
            "value": ""
        },
        "source": {
            "value": "Pathfinder Advanced Player's Guide"
        },
        "spellType": {
            "value": "save"
        },
        "sustained": {
            "value": false
        },
        "target": {
            "value": ""
        },
        "time": {
            "value": "2"
        },
        "traditions": {
            "value": [
                "primal"
            ]
        },
        "traits": {
            "custom": "",
            "rarity": {
                "value": "common"
            },
            "value": []
        }
    },
    "effects": [],
    "flags": {},
    "img": "systems/pf2e/icons/spells/mad-monkeys.webp",
    "name": "Mad Monkeys",
    "type": "spell"
}
