{
    "_id": "0chL1b4OFIZxpN3v",
    "data": {
        "ability": {
            "value": ""
        },
        "area": {
            "value": ""
        },
        "areasize": {
            "value": ""
        },
        "category": {
            "value": "focus"
        },
        "components": {
            "material": false,
            "somatic": true,
            "verbal": true
        },
        "cost": {
            "value": ""
        },
        "damage": {
            "value": {
                "0": {
                    "type": {
                        "categories": [],
                        "value": "negative"
                    },
                    "value": "3d4"
                }
            }
        },
        "description": {
            "value": "<p>You steal a creature's shadow, leaving it weakened and vulnerable. The target must attempt a Fortitude save.</p>\n<hr />\n<p><strong>Critical Success</strong> The target is unaffected.</p>\n<p><strong>Success</strong> The target is @Compendium[pf2e.conditionitems.Enfeebled]{Enfeebled 1} for 1 round.</p>\n<p><strong>Failure</strong> The target takes [[/r {3d4}[negative]]]{3d4 negative damage} and is @Compendium[pf2e.conditionitems.Enfeebled]{Enfeebled 1} for the spell's duration as you tear its shadow away, collecting it in your hand. On subsequent rounds, when you @Compendium[pf2e.actionspf2e.Sustain a Spell]{Sustain the Spell}, you can throttle the shadow to deal [[/r {3d4}[negative]]]{3d4 negative damage} to the target (basic Fortitude save). Until the spell ends, the target doesn't cast a shadow.</p>\n<p><strong>Critical Failure</strong> As failure, but the target is @Compendium[pf2e.conditionitems.Enfeebled]{Enfeebled 2}.</p>\n<hr />\n<p><strong>Heightened (+1)</strong> The damage when the spell is cast and when it is sustained increases by [[/r {1d4}[negative]]]{1d4 negative}.</p>"
        },
        "duration": {
            "value": "sustained up to 1 minute"
        },
        "hasCounteractCheck": {
            "value": false
        },
        "level": {
            "value": 3
        },
        "location": {
            "value": ""
        },
        "materials": {
            "value": ""
        },
        "prepared": {
            "value": ""
        },
        "primarycheck": {
            "value": ""
        },
        "range": {
            "value": "60 feet"
        },
        "rules": [],
        "save": {
            "basic": "",
            "value": "fortitude"
        },
        "scaling": {
            "damage": {
                "0": "1d4"
            },
            "interval": 1
        },
        "school": {
            "value": "necromancy"
        },
        "secondarycasters": {
            "value": ""
        },
        "secondarycheck": {
            "value": ""
        },
        "source": {
            "value": "Pathfinder Advanced Player's Guide"
        },
        "spellType": {
            "value": "save"
        },
        "sustained": {
            "value": false
        },
        "target": {
            "value": "1 creature"
        },
        "time": {
            "value": "2"
        },
        "traditions": {
            "value": []
        },
        "traits": {
            "custom": "",
            "rarity": {
                "value": "uncommon"
            },
            "value": [
                "shadow",
                "sorcerer"
            ]
        }
    },
    "effects": [],
    "flags": {},
    "img": "systems/pf2e/icons/spells/steal-shadow.webp",
    "name": "Steal Shadow",
    "type": "spell"
}
