{
    "_id": "NxOYiKCqcuAHVRCj",
    "data": {
        "ability": {
            "value": ""
        },
        "area": {
            "value": ""
        },
        "areasize": {
            "value": ""
        },
        "category": {
            "value": "focus"
        },
        "components": {
            "material": true,
            "somatic": true,
            "verbal": false
        },
        "cost": {
            "value": ""
        },
        "damage": {
            "value": {}
        },
        "description": {
            "value": "<p>You instantly create a small, permanent scroll that contains a magically precise written description of your current surroundings in every direction. Any creature who spends 1 minute to read the scroll-written in a language of your choice that you know-immediately sees and experiences your surroundings during the moment that you recorded (including whatever events transpired that round) exactly as you experienced it. This depiction records only what you can sense yourself. For example, if you can't see invisible creatures, the depiction doesn't reveal them even to a reader who could normally see them; a reader can't use their Perception to notice details you missed, but they can attempt a check to Recall Knowledge based on what they just experienced if they have knowledge that you lack. You can have multiple scrolls from transcribe moment in existence at the same time, up to a number equal to your Intelligence modifier. If you Cast the Spell again while already at the maximum number of scrolls, choose one of the current scrolls to lose its magic, then create the new one.</p>"
        },
        "duration": {
            "value": ""
        },
        "hasCounteractCheck": {
            "value": false
        },
        "level": {
            "value": 4
        },
        "location": {
            "value": "SxRPXF30ZP92OBPF"
        },
        "materials": {
            "value": ""
        },
        "prepared": {
            "value": ""
        },
        "primarycheck": {
            "value": ""
        },
        "range": {
            "value": ""
        },
        "rules": [],
        "save": {
            "basic": "",
            "value": ""
        },
        "school": {
            "value": "evocation"
        },
        "secondarycasters": {
            "value": ""
        },
        "secondarycheck": {
            "value": ""
        },
        "source": {
            "value": "Pathfinder Lost Omens: Pathfinder Society Guide"
        },
        "spellType": {
            "value": "utility"
        },
        "sustained": {
            "value": false
        },
        "target": {
            "value": ""
        },
        "time": {
            "value": "2"
        },
        "traditions": {
            "custom": "",
            "value": []
        },
        "traits": {
            "custom": "",
            "rarity": {
                "value": "uncommon"
            },
            "selected": [],
            "value": []
        }
    },
    "effects": [],
    "flags": {},
    "img": "systems/pf2e/icons/spells/transcribe-moment.webp",
    "name": "Transcribe Moment",
    "type": "spell"
}
