{
    "_id": "P1iqzEIidRagUs7W",
    "data": {
        "ability": {
            "value": ""
        },
        "area": {
            "areaType": "burst",
            "value": "20"
        },
        "autoHeightenLevel": {
            "value": null
        },
        "category": {
            "value": "spell"
        },
        "components": {
            "focus": false,
            "material": true,
            "somatic": true,
            "verbal": true
        },
        "cost": {
            "value": ""
        },
        "damage": {
            "value": {}
        },
        "description": {
            "value": "<p><strong>Area</strong> 20-foot radius, 40-foot-tall cylinder</p>\n<hr />\n<p>You negate gravity's effects in the area. Creatures float in place unless they can Push Off a surface. Pushing Off is a single action which has the move trait, allowing the creature to move half its Speed in a straight line through the area. After Pushing Off a surface, the creature continues to move the same distance at the start of each of its turns until it leaves the area or Pushes Off against something else. A creature pushing against an untethered object of its size or smaller causes both the creature and the object to move at the same speed, but in opposite directions. Creatures who can levitate or fly can use those abilities to move around in the area without having to push off anything. Creatures who can't levitate or fly are usually on the ground, giving them a surface from which to push off.</p>\n<p>You can Dismiss this spell. When zero gravity ends, all creatures and objects in the area fall back down.</p>"
        },
        "duration": {
            "value": "sustained up to 1 minute"
        },
        "hasCounteractCheck": {
            "value": false
        },
        "level": {
            "value": 6
        },
        "location": {
            "value": ""
        },
        "materials": {
            "value": ""
        },
        "range": {
            "value": "120 feet"
        },
        "rules": [],
        "save": {
            "basic": "",
            "value": ""
        },
        "school": {
            "value": "evocation"
        },
        "source": {
            "value": "Pathfinder Secrets of Magic"
        },
        "spellType": {
            "value": "utility"
        },
        "sustained": {
            "value": false
        },
        "target": {
            "value": ""
        },
        "time": {
            "value": "3"
        },
        "traditions": {
            "custom": "",
            "value": [
                "arcane",
                "occult"
            ]
        },
        "traits": {
            "custom": "",
            "rarity": {
                "value": "uncommon"
            },
            "value": []
        }
    },
    "effects": [],
    "flags": {},
    "img": "systems/pf2e/icons/spells/zero-gravity.webp",
    "name": "Zero Gravity",
    "type": "spell"
}
