{
    "_id": "faLb2rczsrxAuOTt",
    "data": {
        "actionCategory": {
            "value": ""
        },
        "actionType": {
            "value": "passive"
        },
        "actions": {
            "value": null
        },
        "description": {
            "value": "<p>You enhanced your exoskeleton with a connection to Axis, allowing you to tap into the infinite knowledge of the plane. You gain the Call to Axis action.</p>"
        },
        "featType": {
            "value": "heritage"
        },
        "level": {
            "value": 0
        },
        "location": "",
        "prerequisites": {
            "value": []
        },
        "rules": [],
        "source": {
            "value": ""
        },
        "traits": {
            "custom": "",
            "rarity": {
                "value": "common"
            },
            "value": [
                "conrasu",
                "heritage"
            ]
        }
    },
    "effects": [],
    "flags": {},
    "img": "systems/pf2e/icons/default-icons/feat.svg",
    "name": "Rite of Knowing",
    "type": "feat"
}
