{
    "_id": "CgxYa0lrLUjS2ZhI",
    "data": {
        "description": {
            "value": "<p>Granted by @Compendium[pf2e.feats-srd.Cobra Stance]{Cobra Stance}</p>\n<p>You enter a tight stance, coiled up like a lashing cobra with your hands poised as venomous fangs. While in this stance, the only Strikes you can make are cobra fang unarmed attacks. These deal 1d4 poison damage; are in the brawling group; and have the agile, deadly d10, finesse, nonlethal, poison, and unarmed traits.</p>\n<p>While in Cobra Stance, you gain a +1 circumstance bonus to Fortitude saves and your Fortitude DC, and you gain poison resistance equal to half your level.</p>"
        },
        "duration": {
            "expiry": "turn-start",
            "sustained": false,
            "unit": "unlimited",
            "value": -1
        },
        "level": {
            "value": 0
        },
        "rules": [
            {
                "category": "unarmed",
                "damage": {
                    "base": {
                        "damageType": "poison",
                        "dice": 1,
                        "die": "d4"
                    }
                },
                "group": "brawling",
                "key": "Strike",
                "label": "Cobra Fang",
                "range": null,
                "traits": [
                    "agile",
                    "deadly-d10",
                    "finesse",
                    "poison",
                    "unarmed",
                    "nonlethal"
                ]
            },
            {
                "key": "FlatModifier",
                "selector": "fortitude",
                "type": "circumstance",
                "value": 1
            }
        ],
        "source": {
            "value": ""
        },
        "start": {
            "initiative": null,
            "value": 0
        },
        "target": null,
        "tokenIcon": {
            "show": true
        },
        "traits": {
            "custom": "",
            "rarity": {
                "value": "common"
            },
            "value": []
        }
    },
    "effects": [],
    "flags": {},
    "img": "systems/pf2e/icons/features/feats/cobra-stance.webp",
    "name": "Stance: Cobra Stance",
    "type": "effect"
}
