{
    "_id": "yG27Ixwdpxqbrhzf",
    "data": {
        "description": {
            "value": "<p>The bosun orders an ally to attack or to get in position. Until the end of the ally's next turn, they a +10 status bonus to their Speeds.</p>"
        },
        "duration": {
            "expiry": "turn-start",
            "sustained": false,
            "unit": "rounds",
            "value": 1
        },
        "level": {
            "value": 1
        },
        "rules": [
            {
                "key": "FlatModifier",
                "selector": "speed",
                "type": "status",
                "value": 10
            }
        ],
        "source": {
            "value": "Pathfinder Gamemastery Guide"
        },
        "start": {
            "initiative": null,
            "value": 0
        },
        "target": null,
        "tokenIcon": {
            "show": true
        },
        "traits": {
            "custom": "",
            "rarity": {
                "value": "common"
            },
            "value": []
        }
    },
    "effects": [],
    "flags": {},
    "img": "systems/pf2e/icons/spells/agitate.webp",
    "name": "Effect: Bosun's Command - Speed Bonus",
    "type": "effect"
}
