{
    "_id": "1VbuhRzlKWPfcBpq",
    "content": "<p>Play at any time.</p>\n<hr />\n<p>Give a creature you can see resistance 5 to all damage until the start of your next turn. If you are 7th level or higher, the resistance is 10, and if you are 12th level or higher, the resistance is 15.</p>",
    "flags": {},
    "name": "Endure the Onslaught",
    "permission": {
        "default": 0
    }
}
