{
    "_id": "MSza9gUg7xQfGQnk",
    "content": "<p>Play when making a ranged attack, either with a Strike or a spell.</p>\n<hr />\n<p>If you're attempting a Strike, double the range increment of the weapon or unarmed attack. If you're Casting a Spell, increase the range of the spell by half.</p>",
    "flags": {},
    "name": "Impossible Shot",
    "permission": {
        "default": 0
    }
}
