{
    "_id": "atIE8EmiN38wh8wx",
    "content": "<p>Play when you are targeted by a ranged Strike.</p>\n<hr />\n<p>The Strike automatically misses.</p>",
    "flags": {},
    "name": "Last Second Sidestep",
    "permission": {
        "default": 0
    }
}
