{
    "_id": "KL2L7m5WlL21WcGN",
    "data": {
        "attributes": {
            "ac": {
                "value": 18
            },
            "hardness": 0,
            "hasHealth": true,
            "hp": {
                "details": "",
                "max": 15,
                "temp": 0,
                "value": 15
            },
            "stealth": {
                "details": "<p>-10 and no minimum proficiency to notice</p>",
                "value": -10
            }
        },
        "creatureType": "",
        "details": {
            "description": "<p>An assorted crowd throws punches, flings bottles, and otherwise flies into chaos as a bar fight breaks out, clustering in six sections of one of Port Peril's drinking houses.</p>",
            "disable": "<p><span data-pf2-check=\"intimidation\" data-pf2-label=\"Cow the Crowd DC\" data-pf2-dc=\"22\" data-pf2-show-dc=\"gm\">Intimidation</span> to cow a section of crowd or <span data-pf2-check=\"diplomacy\" data-pf2-label=\"Disperse the Crowd DC\" data-pf2-dc=\"25\" data-pf2-show-dc=\"gm\">Diplomacy</span> to attempt to disperse it</p>",
            "isComplex": true,
            "level": {
                "value": 4
            },
            "reset": "",
            "routine": "<p><span class=\"pf2-icon\">2</span> The bar fight uses its first action to make a general mayhem Strike against all creatures in any area that has not been disabled. Make one Strike against each enemy in the area and roll the damage only once for all targets. The bar fight then uses its second action to use Port Peril specialty.</p>"
        },
        "saves": {
            "fortitude": {
                "saveDetail": "",
                "value": 19
            },
            "reflex": {
                "saveDetail": "",
                "value": 13
            },
            "will": {
                "saveDetail": "",
                "value": 13
            }
        },
        "source": {
            "value": "Pathfinder Society Quest #4: Port Peril Pub Crawl"
        },
        "statusEffects": [],
        "traits": {
            "ci": [],
            "di": {
                "custom": "",
                "selected": {},
                "value": [
                    "critical-hits",
                    "precision",
                    "swarm-mind"
                ]
            },
            "dr": [],
            "dv": [],
            "rarity": {
                "value": "common"
            },
            "size": {
                "value": "med"
            },
            "traits": {
                "custom": "",
                "value": []
            }
        }
    },
    "effects": [],
    "flags": {},
    "img": "systems/pf2e/icons/default-icons/hazard.svg",
    "items": [
        {
            "_id": "ZOjlqzfouLyKpbx5",
            "data": {
                "actionCategory": {
                    "value": "offensive"
                },
                "actionType": {
                    "value": "passive"
                },
                "actions": {
                    "value": null
                },
                "description": {
                    "value": "<p>The bar fight creates an effect unique to the bar, located at any point within the hazard (even within sections that have been disabled) as long as the entire hazard has not been disabled. The DC for each effect is 21.</p>"
                },
                "requirements": {
                    "value": ""
                },
                "rules": [],
                "slug": null,
                "source": {
                    "value": ""
                },
                "traits": {
                    "custom": "",
                    "rarity": {
                        "value": "common"
                    },
                    "value": []
                },
                "trigger": {
                    "value": ""
                },
                "weapon": {
                    "value": ""
                }
            },
            "effects": [],
            "flags": {},
            "img": "systems/pf2e/icons/actions/Passive.webp",
            "name": "Port Peril Specialty",
            "sort": 0,
            "type": "action"
        },
        {
            "_id": "aFLQlgZyBmC70Au7",
            "data": {
                "attack": {
                    "value": ""
                },
                "attackEffects": {
                    "value": []
                },
                "bonus": {
                    "value": 14
                },
                "damageRolls": {
                    "6rhs1g473dh5oi75l235": {
                        "damage": "2d8+5",
                        "damageType": "bludgeoning"
                    }
                },
                "description": {
                    "value": "<p>Damage can be bludgeoning, slashing or piercing.</p>"
                },
                "rules": [],
                "slug": null,
                "source": {
                    "value": ""
                },
                "traits": {
                    "custom": "",
                    "rarity": {
                        "value": "common"
                    },
                    "value": [
                        "nonlethal"
                    ]
                },
                "weaponType": {
                    "value": "melee"
                }
            },
            "effects": [],
            "flags": {},
            "img": "systems/pf2e/icons/default-icons/melee.svg",
            "name": "General Mayhem",
            "sort": 0,
            "type": "melee"
        },
        {
            "_id": "jWfqtKtOP2dkh66V",
            "data": {
                "actionCategory": {
                    "value": "offensive"
                },
                "actionType": {
                    "value": "action"
                },
                "actions": {
                    "value": 1
                },
                "description": {
                    "value": "<p>Something about the bar fight has attracted a storm of bad luck, causing a character to bang their shin on a pushed-out bench or get hit on the head by a falling painting. The hazard casts <em>@Compendium[pf2e.spells-srd.Jealous Hex]{Jealous Hex}</em> on a creature. This effect is a Rivanti's Bar specialty.</p>"
                },
                "requirements": {
                    "value": ""
                },
                "rules": [],
                "slug": null,
                "source": {
                    "value": ""
                },
                "traits": {
                    "custom": "",
                    "rarity": {
                        "value": "common"
                    },
                    "value": [
                        "curse"
                    ]
                },
                "trigger": {
                    "value": ""
                },
                "weapon": {
                    "value": ""
                }
            },
            "effects": [],
            "flags": {},
            "img": "systems/pf2e/icons/actions/OneAction.webp",
            "name": "Jinx Gone Wrong",
            "sort": 0,
            "type": "action"
        }
    ],
    "name": "Port Peril Bar Fight (Rivanti's Bar) (3-4)",
    "token": {
        "disposition": 0,
        "height": 1,
        "img": "systems/pf2e/icons/default-icons/hazard.svg",
        "name": "Port Peril Bar Fight",
        "width": 1
    },
    "type": "hazard"
}
