{
    "_id": "ZX2dP4rP01qaCJh4",
    "data": {
        "attributes": {
            "ac": {
                "value": 21
            },
            "hardness": 12,
            "hasHealth": true,
            "hp": {
                "details": "",
                "max": 48,
                "temp": 0,
                "tempmax": 0,
                "value": 48
            },
            "stealth": {
                "details": "<p>(trained); the DC to notice the <em>protoplasmic extruder</em> is 0</p>",
                "value": 0
            }
        },
        "creatureType": "",
        "customModifiers": {},
        "details": {
            "description": "<p>A spherical contraption of metal and reinforced hoses 20 feet in diameter, the <em>protoplasmic extruder</em> draws in the arcane slurry from Quantium's sewers and magically transforms the slurry into dangerous oozes.</p>",
            "disable": "<p><span data-pf2-check=\"occultism\" data-pf2-traits=\"complex, mechanical,magical, trap\" data-pf2-label=\"Disable Extruder DC\" data-pf2-dc=\"22\" data-pf2-show-dc=\"gm\">Occultism</span> (expert) twice or <span data-pf2-check=\"thievery\" data-pf2-traits=\"complex, mechanical,magical, trap\" data-pf2-label=\"Disable Extruder DC\" data-pf2-dc=\"24\" data-pf2-show-dc=\"gm\">Thievery</span> (expert) causes it to lose its action on its next turn. Two successes (or one critical success) disables it completely; <em>@Compendium[pf2e.spells-srd.Dispel Magic]{Dispel Magic}</em> (3rd level; counteract DC 20) causes the protoplasmic extruder to lose its action on its next turn but never disables it.</p>",
            "isComplex": true,
            "level": {
                "value": 5
            },
            "reset": "<p>The <em>protoplasmic extruder</em> must gather reagents from the arcane slurry of the sewers for 24 hours before it can be reactivated.</p>",
            "routine": "<p><span class=\"pf2-icon\">1</span> On its initiative, the trap creates an ooze in an adjacent unoccupied space. The first time the <em>protoplasmic extruder</em> uses this action, it creates a @Compendium[pf2e.pathfinder-bestiary.Gelatinous Cube]{Gelatinous Cube} that acts immediately and thereafter acts on the <em>protoplasmic extruder's</em> initiative. In following rounds, the <em>protoplasmic extruder</em> instead creates @Compendium[pf2e.pathfinder-bestiary.Sewer Ooze]{Sewer Oozes} that act in the same manner.</p>\n<p>Oozes created by the protoplasmic extruder are a nacreous green color; a gelatinous cube loses its transparent ability. All oozes created by the <em>protoplasmic extruder</em> are loyal to the Ohrlavis and act as they command.</p>\n<p>The <em>protoplasmic extruder</em> can create no more than four oozes in total before it deactivates and resets.</p>"
        },
        "saves": {
            "fortitude": {
                "saveDetail": "",
                "value": 10
            },
            "reflex": {
                "saveDetail": "",
                "value": 12
            },
            "will": {
                "saveDetail": "",
                "value": 0
            }
        },
        "source": {
            "value": "Pathfinder Society Scenario 1-00: Origin of the Open Road"
        },
        "statusEffects": [],
        "traits": {
            "ci": [],
            "di": {
                "custom": "",
                "selected": {},
                "value": [
                    "critical-hits",
                    "object-immunities",
                    "precision"
                ]
            },
            "dr": [],
            "dv": [],
            "rarity": {
                "value": "common"
            },
            "size": {
                "value": "med"
            },
            "traits": {
                "custom": "",
                "value": [
                    "magical",
                    "mechanical",
                    "trap"
                ]
            }
        }
    },
    "effects": [],
    "flags": {},
    "img": "systems/pf2e/icons/default-icons/hazard.svg",
    "items": [
        {
            "_id": "71j8rIykcKntxLJQ",
            "data": {
                "actionCategory": {
                    "value": "offensive"
                },
                "actionType": {
                    "value": "reaction"
                },
                "actions": {
                    "value": null
                },
                "description": {
                    "value": "<p data-visibility=\"gm\"><strong>Trigger</strong> Bijan or Zaynap Ohrlavi can speak and rolls initiative when within 60 feet of the protoplasmic extruder.</p>\n<p><strong>Effect</strong> The protoplasmic extruder begins chugging more loudly and rolls initiative.</p>"
                },
                "requirements": {
                    "value": ""
                },
                "rules": [],
                "slug": null,
                "source": {
                    "value": ""
                },
                "traits": {
                    "custom": "",
                    "rarity": {
                        "value": "common"
                    },
                    "value": []
                },
                "trigger": {
                    "value": ""
                },
                "weapon": {
                    "value": ""
                }
            },
            "effects": [],
            "flags": {},
            "img": "systems/pf2e/icons/actions/Reaction.webp",
            "name": "Creator's Command",
            "sort": 100000,
            "type": "action"
        }
    ],
    "name": "Protoplasmic Extruder",
    "token": {
        "disposition": 0,
        "height": 1,
        "img": "systems/pf2e/icons/default-icons/hazard.svg",
        "name": "Protoplasmic Extruder",
        "width": 1
    },
    "type": "hazard"
}
